%!PS-Adobe-3.0 EPSF-3.0
%%DocumentNeededResources: font Helvetica
%%+ font Helvetica-Bold
%%+ font Helvetica-Oblique
%%+ font Helvetica-BoldOblique
%%+ font Symbol
%%Title: R Graphics Output
%%Creator: R Software
%%Pages: (atend)
%%BoundingBox: 0 0 580 415
%%EndComments
%%BeginProlog
/bp  { gs sRGB gs } def
% begin .ps.prolog
/gs  { gsave } bind def
/gr  { grestore } bind def
/ep  { showpage gr gr } bind def
/m   { moveto } bind def
/l  { rlineto } bind def
/np  { newpath } bind def
/cp  { closepath } bind def
/f   { fill } bind def
/o   { stroke } bind def
/c   { newpath 0 360 arc } bind def
/r   { 4 2 roll moveto 1 copy 3 -1 roll exch 0 exch rlineto 0 rlineto -1 mul 0 exch rlineto closepath } bind def
/p1  { stroke } bind def
/p2  { gsave bg fill grestore newpath } bind def
/p3  { gsave bg fill grestore stroke } bind def
/p6  { gsave bg eofill grestore newpath } bind def
/p7  { gsave bg eofill grestore stroke } bind def
/t   { 5 -2 roll moveto gsave rotate
       1 index stringwidth pop
       mul neg 0 rmoveto show grestore } bind def
/ta  { 4 -2 roll moveto gsave rotate show } bind def
/tb  { 2 -1 roll 0 rmoveto show } bind def
/cl  { grestore gsave newpath 3 index 3 index moveto 1 index
       4 -1 roll lineto  exch 1 index lineto lineto
       closepath clip newpath } bind def
/rgb { setrgbcolor } bind def
/s   { scalefont setfont } bind def
% end   .ps.prolog
/sRGB { [ /CIEBasedABC
          << /DecodeLMN
               [ { dup 0.03928 le
                        {12.92321 div}
                        {0.055 add 1.055 div 2.4 exp }
                     ifelse
                 } bind dup dup
               ]
             /MatrixLMN [0.412457 0.212673 0.019334
                         0.357576 0.715152 0.119192
                         0.180437 0.072175 0.950301]
             /WhitePoint [0.9505 1.0 1.0890]
           >>
         ] setcolorspace } bind def
/srgb { setcolor } bind def
%%IncludeResource: font Helvetica
/Helvetica findfont
dup length dict begin
  {1 index /FID ne {def} {pop pop} ifelse} forall
  /Encoding ISOLatin1Encoding def
  currentdict
  end
/Font1 exch definefont pop
%%IncludeResource: font Helvetica-Bold
/Helvetica-Bold findfont
dup length dict begin
  {1 index /FID ne {def} {pop pop} ifelse} forall
  /Encoding ISOLatin1Encoding def
  currentdict
  end
/Font2 exch definefont pop
%%IncludeResource: font Helvetica-Oblique
/Helvetica-Oblique findfont
dup length dict begin
  {1 index /FID ne {def} {pop pop} ifelse} forall
  /Encoding ISOLatin1Encoding def
  currentdict
  end
/Font3 exch definefont pop
%%IncludeResource: font Helvetica-BoldOblique
/Helvetica-BoldOblique findfont
dup length dict begin
  {1 index /FID ne {def} {pop pop} ifelse} forall
  /Encoding ISOLatin1Encoding def
  currentdict
  end
/Font4 exch definefont pop
%%IncludeResource: font Symbol
/Symbol findfont
dup length dict begin
  {1 index /FID ne {def} {pop pop} ifelse} forall
  currentdict
  end
/Font5 exch definefont pop
%%EndProlog
0.00 0.00 579.75 415.50 cl
%%Page: 1 1
bp
/bg { 1 1 1 srgb } def
0.00 0.00 579.75 415.50 r p2
59.04 73.44 549.51 356.46 cl
0.6000 0.6000 0.6000 srgb
1.50 setlinewidth
[] 0 setdash
1 setlinecap
1 setlinejoin
10.00 setmiterlimit
np
92.62 83.93 m
0.53 0 l
0.53 0 l
0.53 0 l
0.53 0 l
0.53 0 l
0.53 0.01 l
0.53 0 l
0.53 0 l
0.53 0.01 l
0.54 0 l
0.53 0 l
0.53 0.01 l
0.53 0 l
0.53 0.01 l
0.53 0.01 l
0.53 0.01 l
0.53 0.01 l
0.53 0.01 l
0.53 0.01 l
0.53 0.01 l
0.53 0.01 l
0.53 0.02 l
0.53 0.01 l
0.53 0.02 l
0.53 0.02 l
0.53 0.02 l
0.53 0.02 l
0.54 0.02 l
0.53 0.03 l
0.53 0.02 l
0.53 0.03 l
0.53 0.03 l
0.53 0.02 l
0.53 0.04 l
0.53 0.03 l
0.53 0.03 l
0.53 0.03 l
0.53 0.04 l
0.53 0.04 l
0.53 0.03 l
0.53 0.04 l
0.53 0.04 l
0.53 0.04 l
0.53 0.05 l
0.53 0.04 l
0.54 0.04 l
0.53 0.05 l
0.53 0.05 l
0.53 0.05 l
0.53 0.05 l
0.53 0.05 l
0.53 0.06 l
0.53 0.05 l
0.53 0.06 l
0.53 0.07 l
0.53 0.07 l
0.53 0.07 l
0.53 0.07 l
0.53 0.08 l
0.53 0.09 l
0.53 0.09 l
0.53 0.10 l
0.53 0.10 l
0.53 0.11 l
0.54 0.11 l
0.53 0.13 l
0.53 0.13 l
0.53 0.14 l
0.53 0.14 l
0.53 0.16 l
0.53 0.16 l
0.53 0.17 l
0.53 0.18 l
0.53 0.19 l
0.53 0.19 l
0.53 0.21 l
0.53 0.21 l
0.53 0.22 l
0.53 0.23 l
0.53 0.24 l
0.53 0.24 l
0.53 0.25 l
0.54 0.27 l
0.53 0.26 l
0.53 0.28 l
0.53 0.28 l
0.53 0.29 l
0.53 0.30 l
0.53 0.30 l
0.53 0.31 l
0.53 0.32 l
0.53 0.32 l
0.53 0.33 l
0.53 0.34 l
0.53 0.35 l
0.53 0.35 l
0.53 0.35 l
0.53 0.37 l
0.53 0.37 l
145.67 95.13 lineto
0.54 0.38 l
0.53 0.40 l
0.53 0.40 l
0.53 0.41 l
0.53 0.42 l
0.53 0.42 l
0.53 0.44 l
0.53 0.44 l
0.53 0.46 l
0.53 0.46 l
0.53 0.47 l
0.53 0.49 l
0.53 0.50 l
0.53 0.51 l
0.53 0.53 l
0.53 0.54 l
0.53 0.56 l
0.53 0.57 l
0.53 0.60 l
0.54 0.61 l
0.53 0.63 l
0.53 0.65 l
0.53 0.68 l
0.53 0.70 l
0.53 0.73 l
0.53 0.75 l
0.53 0.77 l
0.53 0.81 l
0.53 0.83 l
0.53 0.86 l
0.53 0.88 l
0.53 0.91 l
0.53 0.94 l
0.53 0.97 l
0.53 0.99 l
0.53 1.01 l
0.53 1.04 l
0.54 1.06 l
0.53 1.08 l
0.53 1.10 l
0.53 1.11 l
0.53 1.13 l
0.53 1.15 l
0.53 1.15 l
0.53 1.17 l
0.53 1.17 l
0.53 1.17 l
0.53 1.18 l
0.53 1.18 l
0.53 1.17 l
0.53 1.18 l
0.53 1.17 l
0.53 1.17 l
0.53 1.16 l
0.53 1.15 l
0.54 1.15 l
0.53 1.14 l
0.53 1.12 l
0.53 1.12 l
0.53 1.11 l
0.53 1.10 l
0.53 1.08 l
0.53 1.07 l
0.53 1.06 l
0.53 1.05 l
0.53 1.04 l
0.53 1.02 l
0.53 1.01 l
0.53 1.00 l
0.53 0.98 l
0.53 0.97 l
0.53 0.95 l
0.53 0.93 l
0.53 0.91 l
0.54 0.90 l
0.53 0.88 l
0.53 0.86 l
0.53 0.84 l
0.53 0.82 l
0.53 0.79 l
0.53 0.77 l
0.53 0.75 l
0.53 0.72 l
0.53 0.69 l
0.53 0.67 l
0.53 0.65 l
0.53 0.61 l
0.53 0.58 l
0.53 0.55 l
0.53 0.52 l
0.53 0.49 l
0.53 0.45 l
0.54 0.42 l
0.53 0.39 l
0.53 0.35 l
0.53 0.31 l
0.53 0.27 l
0.53 0.23 l
0.53 0.20 l
198.73 174.21 lineto
0.53 0.12 l
0.53 0.07 l
0.53 0.03 l
0.53 -0.01 l
0.53 -0.06 l
0.53 -0.09 l
0.53 -0.14 l
0.53 -0.17 l
0.53 -0.22 l
0.53 -0.25 l
0.54 -0.29 l
0.53 -0.34 l
0.53 -0.36 l
0.53 -0.40 l
0.53 -0.43 l
0.53 -0.45 l
0.53 -0.49 l
0.53 -0.51 l
0.53 -0.53 l
0.53 -0.56 l
0.53 -0.57 l
0.53 -0.59 l
0.53 -0.60 l
0.53 -0.62 l
0.53 -0.62 l
0.53 -0.64 l
0.53 -0.64 l
0.53 -0.64 l
0.53 -0.65 l
0.54 -0.65 l
0.53 -0.66 l
0.53 -0.65 l
0.53 -0.65 l
0.53 -0.65 l
0.53 -0.65 l
0.53 -0.64 l
0.53 -0.65 l
0.53 -0.64 l
0.53 -0.64 l
0.53 -0.63 l
0.53 -0.63 l
0.53 -0.63 l
0.53 -0.63 l
0.53 -0.62 l
0.53 -0.62 l
0.53 -0.62 l
0.53 -0.62 l
0.54 -0.61 l
0.53 -0.61 l
0.53 -0.61 l
0.53 -0.61 l
0.53 -0.60 l
0.53 -0.60 l
0.53 -0.60 l
0.53 -0.59 l
0.53 -0.59 l
0.53 -0.58 l
0.53 -0.58 l
0.53 -0.57 l
0.53 -0.57 l
0.53 -0.56 l
0.53 -0.55 l
0.53 -0.54 l
0.53 -0.54 l
0.53 -0.53 l
0.54 -0.52 l
0.53 -0.51 l
0.53 -0.51 l
0.53 -0.49 l
0.53 -0.49 l
0.53 -0.47 l
0.53 -0.47 l
0.53 -0.45 l
0.53 -0.45 l
0.53 -0.44 l
0.53 -0.42 l
0.53 -0.42 l
0.53 -0.41 l
0.53 -0.40 l
0.53 -0.40 l
0.53 -0.39 l
0.53 -0.38 l
0.53 -0.37 l
0.53 -0.37 l
0.54 -0.36 l
0.53 -0.36 l
0.53 -0.36 l
0.53 -0.36 l
0.53 -0.35 l
0.53 -0.35 l
0.53 -0.35 l
0.53 -0.36 l
0.53 -0.35 l
0.53 -0.36 l
0.53 -0.35 l
0.53 -0.37 l
0.53 -0.36 l
0.53 -0.37 l
0.53 -0.38 l
251.78 127.51 lineto
0.53 -0.39 l
0.53 -0.39 l
0.54 -0.40 l
0.53 -0.41 l
0.53 -0.41 l
0.53 -0.42 l
0.53 -0.43 l
0.53 -0.44 l
0.53 -0.44 l
0.53 -0.45 l
0.53 -0.46 l
0.53 -0.47 l
0.53 -0.47 l
0.53 -0.48 l
0.53 -0.48 l
0.53 -0.49 l
0.53 -0.50 l
0.53 -0.50 l
0.53 -0.50 l
0.53 -0.51 l
0.54 -0.51 l
0.53 -0.52 l
0.53 -0.51 l
0.53 -0.52 l
0.53 -0.51 l
0.53 -0.51 l
0.53 -0.51 l
0.53 -0.51 l
0.53 -0.51 l
0.53 -0.50 l
0.53 -0.49 l
0.53 -0.49 l
0.53 -0.48 l
0.53 -0.47 l
0.53 -0.46 l
0.53 -0.46 l
0.53 -0.44 l
0.53 -0.44 l
0.53 -0.42 l
0.54 -0.42 l
0.53 -0.40 l
0.53 -0.40 l
0.53 -0.39 l
0.53 -0.37 l
0.53 -0.37 l
0.53 -0.36 l
0.53 -0.36 l
0.53 -0.34 l
0.53 -0.34 l
0.53 -0.34 l
0.53 -0.33 l
0.53 -0.32 l
0.53 -0.33 l
0.53 -0.32 l
0.53 -0.31 l
0.53 -0.32 l
0.53 -0.31 l
0.54 -0.32 l
0.53 -0.31 l
0.53 -0.31 l
0.53 -0.31 l
0.53 -0.32 l
0.53 -0.31 l
0.53 -0.31 l
0.53 -0.31 l
0.53 -0.31 l
0.53 -0.31 l
0.53 -0.31 l
0.53 -0.31 l
0.53 -0.31 l
0.53 -0.31 l
0.53 -0.30 l
0.53 -0.30 l
0.53 -0.30 l
0.53 -0.30 l
0.54 -0.29 l
0.53 -0.29 l
0.53 -0.29 l
0.53 -0.28 l
0.53 -0.28 l
0.53 -0.28 l
0.53 -0.27 l
0.53 -0.27 l
0.53 -0.26 l
0.53 -0.26 l
0.53 -0.25 l
0.53 -0.24 l
0.53 -0.25 l
0.53 -0.23 l
0.53 -0.23 l
0.53 -0.23 l
0.53 -0.22 l
0.53 -0.21 l
0.53 -0.21 l
0.54 -0.20 l
0.53 -0.19 l
0.53 -0.19 l
0.53 -0.18 l
0.53 -0.18 l
304.84 91.37 lineto
0.53 -0.16 l
0.53 -0.15 l
0.53 -0.16 l
0.53 -0.14 l
0.53 -0.14 l
0.53 -0.13 l
0.53 -0.12 l
0.53 -0.12 l
0.53 -0.11 l
0.53 -0.11 l
0.53 -0.10 l
0.53 -0.09 l
0.54 -0.09 l
0.53 -0.08 l
0.53 -0.08 l
0.53 -0.07 l
0.53 -0.07 l
0.53 -0.06 l
0.53 -0.05 l
0.53 -0.06 l
0.53 -0.04 l
0.53 -0.05 l
0.53 -0.04 l
0.53 -0.03 l
0.53 -0.04 l
0.53 -0.03 l
0.53 -0.02 l
0.53 -0.03 l
0.53 -0.02 l
0.53 -0.02 l
0.54 -0.03 l
0.53 -0.02 l
0.53 -0.02 l
0.53 -0.02 l
0.53 -0.02 l
0.53 -0.02 l
0.53 -0.02 l
0.53 -0.03 l
0.53 -0.02 l
0.53 -0.03 l
0.53 -0.04 l
0.53 -0.03 l
0.53 -0.04 l
0.53 -0.04 l
0.53 -0.05 l
0.53 -0.05 l
0.53 -0.06 l
0.53 -0.06 l
0.53 -0.07 l
0.54 -0.07 l
0.53 -0.07 l
0.53 -0.08 l
0.53 -0.09 l
0.53 -0.09 l
0.53 -0.10 l
0.53 -0.10 l
0.53 -0.10 l
0.53 -0.11 l
0.53 -0.11 l
0.53 -0.12 l
0.53 -0.12 l
0.53 -0.12 l
0.53 -0.12 l
0.53 -0.13 l
0.53 -0.13 l
0.53 -0.12 l
0.53 -0.13 l
0.54 -0.13 l
0.53 -0.13 l
0.53 -0.12 l
0.53 -0.12 l
0.53 -0.12 l
0.53 -0.12 l
0.53 -0.12 l
0.53 -0.11 l
0.53 -0.11 l
0.53 -0.10 l
0.53 -0.10 l
0.53 -0.10 l
0.53 -0.09 l
0.53 -0.08 l
0.53 -0.08 l
0.53 -0.08 l
0.53 -0.07 l
0.53 -0.06 l
0.54 -0.07 l
0.53 -0.05 l
0.53 -0.06 l
0.53 -0.04 l
0.53 -0.05 l
0.53 -0.04 l
0.53 -0.03 l
0.53 -0.04 l
0.53 -0.03 l
0.53 -0.02 l
0.53 -0.03 l
0.53 -0.02 l
0.53 -0.02 l
0.53 -0.01 l
357.89 84.01 lineto
0.53 -0.01 l
0.53 -0.01 l
0.53 -0.01 l
0.53 -0.01 l
0.54 -0.01 l
0.53 0 l
0.53 -0.01 l
0.53 0 l
0.53 -0.01 l
0.53 0 l
0.53 0 l
o
0.00 0.00 579.75 415.50 cl
0 0 0 srgb
0.75 setlinewidth
[] 0 setdash
1 setlinecap
1 setlinejoin
10.00 setmiterlimit
np
77.21 73.44 m
403.67 0 l
o
np
77.21 73.44 m
0 -7.20 l
o
np
178.13 73.44 m
0 -7.20 l
o
np
279.04 73.44 m
0 -7.20 l
o
np
379.96 73.44 m
0 -7.20 l
o
np
480.88 73.44 m
0 -7.20 l
o
/Font1 findfont 12 s
77.21 47.52 (0.0) .5 0 t
178.13 47.52 (0.2) .5 0 t
279.04 47.52 (0.4) .5 0 t
379.96 47.52 (0.6) .5 0 t
480.88 47.52 (0.8) .5 0 t
np
59.04 83.92 m
0 231.23 l
o
np
59.04 83.92 m
-7.20 0 l
o
np
59.04 161.00 m
-7.20 0 l
o
np
59.04 238.07 m
-7.20 0 l
o
np
59.04 315.15 m
-7.20 0 l
o
41.76 83.92 (0) .5 90 t
41.76 161.00 (5) .5 90 t
41.76 238.07 (10) .5 90 t
41.76 315.15 (15) .5 90 t
np
59.04 73.44 m
490.47 0 l
0 283.02 l
-490.47 0 l
0 -283.02 l
o
0.00 0.00 579.75 415.50 cl
/Font1 findfont 12 s
0 0 0 srgb
268.26 18.72 (Beta div) 0 ta
-0.300 (ersity) tb gr
12.96 214.95 (Density) .5 90 t
59.04 73.44 549.51 356.46 cl
0.7451 0.7451 0.7451 srgb
0.08 setlinewidth
[] 0 setdash
1 setlinecap
1 setlinejoin
10.00 setmiterlimit
np
59.04 83.92 m
490.47 0 l
o
0.6000 0.6000 0.6000 srgb
1.50 setlinewidth
[] 0 setdash
np
92.62 83.93 m
0.53 0 l
0.53 0 l
0.53 0 l
0.53 0 l
0.53 0 l
0.53 0.01 l
0.53 0 l
0.53 0 l
0.53 0.01 l
0.54 0 l
0.53 0 l
0.53 0.01 l
0.53 0 l
0.53 0.01 l
0.53 0.01 l
0.53 0.01 l
0.53 0.01 l
0.53 0.01 l
0.53 0.01 l
0.53 0.01 l
0.53 0.01 l
0.53 0.02 l
0.53 0.01 l
0.53 0.02 l
0.53 0.02 l
0.53 0.02 l
0.53 0.02 l
0.54 0.02 l
0.53 0.03 l
0.53 0.02 l
0.53 0.03 l
0.53 0.03 l
0.53 0.02 l
0.53 0.04 l
0.53 0.03 l
0.53 0.03 l
0.53 0.03 l
0.53 0.04 l
0.53 0.04 l
0.53 0.03 l
0.53 0.04 l
0.53 0.04 l
0.53 0.04 l
0.53 0.05 l
0.53 0.04 l
0.54 0.04 l
0.53 0.05 l
0.53 0.05 l
0.53 0.05 l
0.53 0.05 l
0.53 0.05 l
0.53 0.06 l
0.53 0.05 l
0.53 0.06 l
0.53 0.07 l
0.53 0.07 l
0.53 0.07 l
0.53 0.07 l
0.53 0.08 l
0.53 0.09 l
0.53 0.09 l
0.53 0.10 l
0.53 0.10 l
0.53 0.11 l
0.54 0.11 l
0.53 0.13 l
0.53 0.13 l
0.53 0.14 l
0.53 0.14 l
0.53 0.16 l
0.53 0.16 l
0.53 0.17 l
0.53 0.18 l
0.53 0.19 l
0.53 0.19 l
0.53 0.21 l
0.53 0.21 l
0.53 0.22 l
0.53 0.23 l
0.53 0.24 l
0.53 0.24 l
0.53 0.25 l
0.54 0.27 l
0.53 0.26 l
0.53 0.28 l
0.53 0.28 l
0.53 0.29 l
0.53 0.30 l
0.53 0.30 l
0.53 0.31 l
0.53 0.32 l
0.53 0.32 l
0.53 0.33 l
0.53 0.34 l
0.53 0.35 l
0.53 0.35 l
0.53 0.35 l
0.53 0.37 l
0.53 0.37 l
145.67 95.13 lineto
0.54 0.38 l
0.53 0.40 l
0.53 0.40 l
0.53 0.41 l
0.53 0.42 l
0.53 0.42 l
0.53 0.44 l
0.53 0.44 l
0.53 0.46 l
0.53 0.46 l
0.53 0.47 l
0.53 0.49 l
0.53 0.50 l
0.53 0.51 l
0.53 0.53 l
0.53 0.54 l
0.53 0.56 l
0.53 0.57 l
0.53 0.60 l
0.54 0.61 l
0.53 0.63 l
0.53 0.65 l
0.53 0.68 l
0.53 0.70 l
0.53 0.73 l
0.53 0.75 l
0.53 0.77 l
0.53 0.81 l
0.53 0.83 l
0.53 0.86 l
0.53 0.88 l
0.53 0.91 l
0.53 0.94 l
0.53 0.97 l
0.53 0.99 l
0.53 1.01 l
0.53 1.04 l
0.54 1.06 l
0.53 1.08 l
0.53 1.10 l
0.53 1.11 l
0.53 1.13 l
0.53 1.15 l
0.53 1.15 l
0.53 1.17 l
0.53 1.17 l
0.53 1.17 l
0.53 1.18 l
0.53 1.18 l
0.53 1.17 l
0.53 1.18 l
0.53 1.17 l
0.53 1.17 l
0.53 1.16 l
0.53 1.15 l
0.54 1.15 l
0.53 1.14 l
0.53 1.12 l
0.53 1.12 l
0.53 1.11 l
0.53 1.10 l
0.53 1.08 l
0.53 1.07 l
0.53 1.06 l
0.53 1.05 l
0.53 1.04 l
0.53 1.02 l
0.53 1.01 l
0.53 1.00 l
0.53 0.98 l
0.53 0.97 l
0.53 0.95 l
0.53 0.93 l
0.53 0.91 l
0.54 0.90 l
0.53 0.88 l
0.53 0.86 l
0.53 0.84 l
0.53 0.82 l
0.53 0.79 l
0.53 0.77 l
0.53 0.75 l
0.53 0.72 l
0.53 0.69 l
0.53 0.67 l
0.53 0.65 l
0.53 0.61 l
0.53 0.58 l
0.53 0.55 l
0.53 0.52 l
0.53 0.49 l
0.53 0.45 l
0.54 0.42 l
0.53 0.39 l
0.53 0.35 l
0.53 0.31 l
0.53 0.27 l
0.53 0.23 l
0.53 0.20 l
198.73 174.21 lineto
0.53 0.12 l
0.53 0.07 l
0.53 0.03 l
0.53 -0.01 l
0.53 -0.06 l
0.53 -0.09 l
0.53 -0.14 l
0.53 -0.17 l
0.53 -0.22 l
0.53 -0.25 l
0.54 -0.29 l
0.53 -0.34 l
0.53 -0.36 l
0.53 -0.40 l
0.53 -0.43 l
0.53 -0.45 l
0.53 -0.49 l
0.53 -0.51 l
0.53 -0.53 l
0.53 -0.56 l
0.53 -0.57 l
0.53 -0.59 l
0.53 -0.60 l
0.53 -0.62 l
0.53 -0.62 l
0.53 -0.64 l
0.53 -0.64 l
0.53 -0.64 l
0.53 -0.65 l
0.54 -0.65 l
0.53 -0.66 l
0.53 -0.65 l
0.53 -0.65 l
0.53 -0.65 l
0.53 -0.65 l
0.53 -0.64 l
0.53 -0.65 l
0.53 -0.64 l
0.53 -0.64 l
0.53 -0.63 l
0.53 -0.63 l
0.53 -0.63 l
0.53 -0.63 l
0.53 -0.62 l
0.53 -0.62 l
0.53 -0.62 l
0.53 -0.62 l
0.54 -0.61 l
0.53 -0.61 l
0.53 -0.61 l
0.53 -0.61 l
0.53 -0.60 l
0.53 -0.60 l
0.53 -0.60 l
0.53 -0.59 l
0.53 -0.59 l
0.53 -0.58 l
0.53 -0.58 l
0.53 -0.57 l
0.53 -0.57 l
0.53 -0.56 l
0.53 -0.55 l
0.53 -0.54 l
0.53 -0.54 l
0.53 -0.53 l
0.54 -0.52 l
0.53 -0.51 l
0.53 -0.51 l
0.53 -0.49 l
0.53 -0.49 l
0.53 -0.47 l
0.53 -0.47 l
0.53 -0.45 l
0.53 -0.45 l
0.53 -0.44 l
0.53 -0.42 l
0.53 -0.42 l
0.53 -0.41 l
0.53 -0.40 l
0.53 -0.40 l
0.53 -0.39 l
0.53 -0.38 l
0.53 -0.37 l
0.53 -0.37 l
0.54 -0.36 l
0.53 -0.36 l
0.53 -0.36 l
0.53 -0.36 l
0.53 -0.35 l
0.53 -0.35 l
0.53 -0.35 l
0.53 -0.36 l
0.53 -0.35 l
0.53 -0.36 l
0.53 -0.35 l
0.53 -0.37 l
0.53 -0.36 l
0.53 -0.37 l
0.53 -0.38 l
251.78 127.51 lineto
0.53 -0.39 l
0.53 -0.39 l
0.54 -0.40 l
0.53 -0.41 l
0.53 -0.41 l
0.53 -0.42 l
0.53 -0.43 l
0.53 -0.44 l
0.53 -0.44 l
0.53 -0.45 l
0.53 -0.46 l
0.53 -0.47 l
0.53 -0.47 l
0.53 -0.48 l
0.53 -0.48 l
0.53 -0.49 l
0.53 -0.50 l
0.53 -0.50 l
0.53 -0.50 l
0.53 -0.51 l
0.54 -0.51 l
0.53 -0.52 l
0.53 -0.51 l
0.53 -0.52 l
0.53 -0.51 l
0.53 -0.51 l
0.53 -0.51 l
0.53 -0.51 l
0.53 -0.51 l
0.53 -0.50 l
0.53 -0.49 l
0.53 -0.49 l
0.53 -0.48 l
0.53 -0.47 l
0.53 -0.46 l
0.53 -0.46 l
0.53 -0.44 l
0.53 -0.44 l
0.53 -0.42 l
0.54 -0.42 l
0.53 -0.40 l
0.53 -0.40 l
0.53 -0.39 l
0.53 -0.37 l
0.53 -0.37 l
0.53 -0.36 l
0.53 -0.36 l
0.53 -0.34 l
0.53 -0.34 l
0.53 -0.34 l
0.53 -0.33 l
0.53 -0.32 l
0.53 -0.33 l
0.53 -0.32 l
0.53 -0.31 l
0.53 -0.32 l
0.53 -0.31 l
0.54 -0.32 l
0.53 -0.31 l
0.53 -0.31 l
0.53 -0.31 l
0.53 -0.32 l
0.53 -0.31 l
0.53 -0.31 l
0.53 -0.31 l
0.53 -0.31 l
0.53 -0.31 l
0.53 -0.31 l
0.53 -0.31 l
0.53 -0.31 l
0.53 -0.31 l
0.53 -0.30 l
0.53 -0.30 l
0.53 -0.30 l
0.53 -0.30 l
0.54 -0.29 l
0.53 -0.29 l
0.53 -0.29 l
0.53 -0.28 l
0.53 -0.28 l
0.53 -0.28 l
0.53 -0.27 l
0.53 -0.27 l
0.53 -0.26 l
0.53 -0.26 l
0.53 -0.25 l
0.53 -0.24 l
0.53 -0.25 l
0.53 -0.23 l
0.53 -0.23 l
0.53 -0.23 l
0.53 -0.22 l
0.53 -0.21 l
0.53 -0.21 l
0.54 -0.20 l
0.53 -0.19 l
0.53 -0.19 l
0.53 -0.18 l
0.53 -0.18 l
304.84 91.37 lineto
0.53 -0.16 l
0.53 -0.15 l
0.53 -0.16 l
0.53 -0.14 l
0.53 -0.14 l
0.53 -0.13 l
0.53 -0.12 l
0.53 -0.12 l
0.53 -0.11 l
0.53 -0.11 l
0.53 -0.10 l
0.53 -0.09 l
0.54 -0.09 l
0.53 -0.08 l
0.53 -0.08 l
0.53 -0.07 l
0.53 -0.07 l
0.53 -0.06 l
0.53 -0.05 l
0.53 -0.06 l
0.53 -0.04 l
0.53 -0.05 l
0.53 -0.04 l
0.53 -0.03 l
0.53 -0.04 l
0.53 -0.03 l
0.53 -0.02 l
0.53 -0.03 l
0.53 -0.02 l
0.53 -0.02 l
0.54 -0.03 l
0.53 -0.02 l
0.53 -0.02 l
0.53 -0.02 l
0.53 -0.02 l
0.53 -0.02 l
0.53 -0.02 l
0.53 -0.03 l
0.53 -0.02 l
0.53 -0.03 l
0.53 -0.04 l
0.53 -0.03 l
0.53 -0.04 l
0.53 -0.04 l
0.53 -0.05 l
0.53 -0.05 l
0.53 -0.06 l
0.53 -0.06 l
0.53 -0.07 l
0.54 -0.07 l
0.53 -0.07 l
0.53 -0.08 l
0.53 -0.09 l
0.53 -0.09 l
0.53 -0.10 l
0.53 -0.10 l
0.53 -0.10 l
0.53 -0.11 l
0.53 -0.11 l
0.53 -0.12 l
0.53 -0.12 l
0.53 -0.12 l
0.53 -0.12 l
0.53 -0.13 l
0.53 -0.13 l
0.53 -0.12 l
0.53 -0.13 l
0.54 -0.13 l
0.53 -0.13 l
0.53 -0.12 l
0.53 -0.12 l
0.53 -0.12 l
0.53 -0.12 l
0.53 -0.12 l
0.53 -0.11 l
0.53 -0.11 l
0.53 -0.10 l
0.53 -0.10 l
0.53 -0.10 l
0.53 -0.09 l
0.53 -0.08 l
0.53 -0.08 l
0.53 -0.08 l
0.53 -0.07 l
0.53 -0.06 l
0.54 -0.07 l
0.53 -0.05 l
0.53 -0.06 l
0.53 -0.04 l
0.53 -0.05 l
0.53 -0.04 l
0.53 -0.03 l
0.53 -0.04 l
0.53 -0.03 l
0.53 -0.02 l
0.53 -0.03 l
0.53 -0.02 l
0.53 -0.02 l
0.53 -0.01 l
357.89 84.01 lineto
0.53 -0.01 l
0.53 -0.01 l
0.53 -0.01 l
0.53 -0.01 l
0.54 -0.01 l
0.53 0 l
0.53 -0.01 l
0.53 0 l
0.53 -0.01 l
0.53 0 l
0.53 0 l
o
1.50 setlinewidth
[ 4.50 7.50] 0 setdash
np
88.96 83.93 m
0.63 0 l
0.62 0 l
0.63 0 l
0.62 0 l
0.63 0 l
0.62 0 l
0.62 0 l
0.63 0.01 l
0.62 0 l
0.63 0 l
0.62 0 l
0.62 0.01 l
0.63 0 l
0.62 0 l
0.63 0.01 l
0.62 0 l
0.63 0.01 l
0.62 0.01 l
0.62 0 l
0.63 0.01 l
0.62 0.01 l
0.63 0.01 l
0.62 0.01 l
0.63 0.01 l
0.62 0.02 l
0.62 0.01 l
0.63 0.02 l
0.62 0.01 l
0.63 0.02 l
0.62 0.02 l
0.62 0.02 l
0.63 0.03 l
0.62 0.02 l
0.63 0.03 l
0.62 0.02 l
0.63 0.04 l
0.62 0.03 l
0.62 0.03 l
0.63 0.04 l
0.62 0.04 l
0.63 0.04 l
0.62 0.04 l
0.63 0.05 l
0.62 0.05 l
0.62 0.05 l
0.63 0.06 l
0.62 0.05 l
0.63 0.06 l
0.62 0.07 l
0.63 0.06 l
0.62 0.07 l
0.62 0.07 l
0.63 0.08 l
0.62 0.08 l
0.63 0.08 l
0.62 0.08 l
0.62 0.08 l
0.63 0.09 l
0.62 0.09 l
0.63 0.09 l
0.62 0.10 l
0.63 0.09 l
0.62 0.10 l
0.62 0.09 l
0.63 0.10 l
0.62 0.10 l
0.63 0.10 l
0.62 0.10 l
0.63 0.10 l
0.62 0.10 l
0.62 0.10 l
0.63 0.10 l
0.62 0.10 l
0.63 0.10 l
0.62 0.10 l
0.62 0.09 l
0.63 0.09 l
0.62 0.09 l
0.63 0.09 l
0.62 0.09 l
0.63 0.09 l
0.62 0.08 l
0.62 0.08 l
0.63 0.08 l
0.62 0.07 l
0.63 0.08 l
0.62 0.07 l
0.63 0.07 l
0.62 0.07 l
0.62 0.07 l
0.63 0.06 l
0.62 0.06 l
0.63 0.07 l
0.62 0.06 l
0.62 0.06 l
0.63 0.06 l
0.62 0.06 l
0.63 0.06 l
0.62 0.06 l
151.39 89.07 lineto
0.62 0.06 l
0.62 0.07 l
0.63 0.06 l
0.62 0.07 l
0.63 0.08 l
0.62 0.07 l
0.63 0.09 l
0.62 0.08 l
0.62 0.10 l
0.63 0.09 l
0.62 0.11 l
0.63 0.11 l
0.62 0.12 l
0.62 0.12 l
0.63 0.14 l
0.62 0.14 l
0.63 0.15 l
0.62 0.16 l
0.63 0.17 l
0.62 0.17 l
0.62 0.18 l
0.63 0.20 l
0.62 0.20 l
0.63 0.21 l
0.62 0.21 l
0.63 0.23 l
0.62 0.23 l
0.62 0.23 l
0.63 0.24 l
0.62 0.25 l
0.63 0.24 l
0.62 0.25 l
0.62 0.26 l
0.63 0.25 l
0.62 0.25 l
0.63 0.26 l
0.62 0.25 l
0.63 0.25 l
0.62 0.24 l
0.62 0.25 l
0.63 0.23 l
0.62 0.23 l
0.63 0.23 l
0.62 0.22 l
0.63 0.22 l
0.62 0.20 l
0.62 0.20 l
0.63 0.20 l
0.62 0.19 l
0.63 0.18 l
0.62 0.18 l
0.62 0.17 l
0.63 0.16 l
0.62 0.16 l
0.63 0.16 l
0.62 0.16 l
0.63 0.15 l
0.62 0.16 l
0.62 0.15 l
0.63 0.15 l
0.62 0.16 l
0.63 0.16 l
0.62 0.16 l
0.63 0.17 l
0.62 0.18 l
0.62 0.18 l
0.63 0.19 l
0.62 0.20 l
0.63 0.20 l
0.62 0.22 l
0.62 0.22 l
0.63 0.24 l
0.62 0.24 l
0.63 0.25 l
0.62 0.26 l
0.63 0.28 l
0.62 0.28 l
0.62 0.28 l
0.63 0.30 l
0.62 0.30 l
0.63 0.31 l
0.62 0.31 l
0.63 0.32 l
0.62 0.32 l
0.62 0.32 l
0.63 0.32 l
0.62 0.33 l
0.63 0.32 l
0.62 0.33 l
0.62 0.32 l
0.63 0.32 l
0.62 0.32 l
0.63 0.32 l
0.62 0.31 l
0.63 0.31 l
0.62 0.31 l
0.62 0.31 l
0.63 0.30 l
0.62 0.31 l
213.81 110.39 lineto
0.62 0.31 l
0.63 0.31 l
0.62 0.31 l
0.62 0.31 l
0.63 0.31 l
0.62 0.32 l
0.63 0.33 l
0.62 0.33 l
0.62 0.33 l
0.63 0.35 l
0.62 0.34 l
0.63 0.36 l
0.62 0.36 l
0.63 0.38 l
0.62 0.37 l
0.62 0.38 l
0.63 0.39 l
0.62 0.39 l
0.63 0.39 l
0.62 0.40 l
0.63 0.40 l
0.62 0.39 l
0.62 0.39 l
0.63 0.39 l
0.62 0.39 l
0.63 0.37 l
0.62 0.37 l
0.62 0.36 l
0.63 0.35 l
0.62 0.34 l
0.63 0.33 l
0.62 0.31 l
0.63 0.30 l
0.62 0.29 l
0.62 0.28 l
0.63 0.26 l
0.62 0.25 l
0.63 0.24 l
0.62 0.23 l
0.63 0.22 l
0.62 0.21 l
0.62 0.21 l
0.63 0.21 l
0.62 0.20 l
0.63 0.21 l
0.62 0.21 l
0.62 0.21 l
0.63 0.22 l
0.62 0.23 l
0.63 0.24 l
0.62 0.26 l
0.63 0.27 l
0.62 0.29 l
0.62 0.31 l
0.63 0.32 l
0.62 0.35 l
0.63 0.38 l
0.62 0.39 l
0.63 0.42 l
0.62 0.43 l
0.62 0.47 l
0.63 0.48 l
0.62 0.51 l
0.63 0.53 l
0.62 0.54 l
0.62 0.57 l
0.63 0.58 l
0.62 0.60 l
0.63 0.62 l
0.62 0.62 l
0.63 0.64 l
0.62 0.64 l
0.62 0.65 l
0.63 0.66 l
0.62 0.65 l
0.63 0.66 l
0.62 0.65 l
0.63 0.65 l
0.62 0.65 l
0.62 0.63 l
0.63 0.62 l
0.62 0.61 l
0.63 0.60 l
0.62 0.58 l
0.62 0.56 l
0.63 0.54 l
0.62 0.52 l
0.63 0.50 l
0.62 0.47 l
0.63 0.45 l
0.62 0.42 l
0.62 0.40 l
0.63 0.37 l
0.62 0.35 l
0.63 0.32 l
0.62 0.29 l
0.63 0.27 l
0.62 0.24 l
0.62 0.22 l
276.23 149.91 lineto
0.62 0.17 l
0.63 0.14 l
0.62 0.13 l
0.62 0.10 l
0.63 0.09 l
0.62 0.06 l
0.63 0.06 l
0.62 0.03 l
0.63 0.03 l
0.62 0.01 l
0.62 0 l
0.63 -0.01 l
0.62 -0.01 l
0.63 -0.02 l
0.62 -0.03 l
0.63 -0.03 l
0.62 -0.03 l
0.62 -0.04 l
0.63 -0.03 l
0.62 -0.04 l
0.63 -0.04 l
0.62 -0.03 l
0.62 -0.04 l
0.63 -0.03 l
0.62 -0.04 l
0.63 -0.03 l
0.62 -0.03 l
0.63 -0.03 l
0.62 -0.04 l
0.62 -0.03 l
0.63 -0.04 l
0.62 -0.03 l
0.63 -0.04 l
0.62 -0.05 l
0.63 -0.04 l
0.62 -0.06 l
0.62 -0.06 l
0.63 -0.07 l
0.62 -0.08 l
0.63 -0.09 l
0.62 -0.09 l
0.62 -0.11 l
0.63 -0.13 l
0.62 -0.13 l
0.63 -0.15 l
0.62 -0.17 l
0.63 -0.18 l
0.62 -0.19 l
0.62 -0.22 l
0.63 -0.23 l
0.62 -0.25 l
0.63 -0.27 l
0.62 -0.29 l
0.63 -0.31 l
0.62 -0.32 l
0.62 -0.35 l
0.63 -0.37 l
0.62 -0.39 l
0.63 -0.41 l
0.62 -0.43 l
0.62 -0.45 l
0.63 -0.48 l
0.62 -0.50 l
0.63 -0.52 l
0.62 -0.54 l
0.63 -0.56 l
0.62 -0.59 l
0.62 -0.61 l
0.63 -0.63 l
0.62 -0.65 l
0.63 -0.68 l
0.62 -0.69 l
0.63 -0.72 l
0.62 -0.73 l
0.62 -0.76 l
0.63 -0.77 l
0.62 -0.79 l
0.63 -0.81 l
0.62 -0.83 l
0.62 -0.84 l
0.63 -0.85 l
0.62 -0.87 l
0.63 -0.88 l
0.62 -0.89 l
0.63 -0.90 l
0.62 -0.91 l
0.62 -0.92 l
0.63 -0.93 l
0.62 -0.93 l
0.63 -0.93 l
0.62 -0.94 l
0.63 -0.94 l
0.62 -0.94 l
0.62 -0.94 l
0.63 -0.95 l
0.62 -0.93 l
0.63 -0.94 l
0.62 -0.93 l
0.62 -0.93 l
338.65 113.08 lineto
0.62 -0.92 l
0.63 -0.91 l
0.62 -0.90 l
0.63 -0.89 l
0.62 -0.88 l
0.62 -0.87 l
0.63 -0.86 l
0.62 -0.84 l
0.63 -0.84 l
0.62 -0.82 l
0.63 -0.80 l
0.62 -0.79 l
0.62 -0.78 l
0.63 -0.76 l
0.62 -0.74 l
0.63 -0.73 l
0.62 -0.71 l
0.62 -0.69 l
0.63 -0.68 l
0.62 -0.65 l
0.63 -0.63 l
0.62 -0.62 l
0.63 -0.60 l
0.62 -0.58 l
0.62 -0.55 l
0.63 -0.54 l
0.62 -0.51 l
0.63 -0.50 l
0.62 -0.47 l
0.63 -0.46 l
0.62 -0.43 l
0.62 -0.42 l
0.63 -0.40 l
0.62 -0.37 l
0.63 -0.36 l
0.62 -0.33 l
0.62 -0.33 l
0.63 -0.30 l
0.62 -0.28 l
0.63 -0.27 l
0.62 -0.26 l
0.63 -0.23 l
0.62 -0.23 l
0.62 -0.20 l
0.63 -0.20 l
0.62 -0.18 l
0.63 -0.17 l
0.62 -0.16 l
0.63 -0.15 l
0.62 -0.14 l
0.62 -0.13 l
0.63 -0.12 l
0.62 -0.12 l
0.63 -0.10 l
0.62 -0.10 l
0.62 -0.09 l
0.63 -0.09 l
0.62 -0.09 l
0.63 -0.07 l
0.62 -0.08 l
0.63 -0.07 l
0.62 -0.06 l
0.62 -0.06 l
0.63 -0.06 l
0.62 -0.06 l
0.63 -0.06 l
0.62 -0.05 l
0.63 -0.05 l
0.62 -0.05 l
0.62 -0.04 l
0.63 -0.05 l
0.62 -0.04 l
0.63 -0.04 l
0.62 -0.04 l
0.62 -0.03 l
0.63 -0.04 l
0.62 -0.03 l
0.63 -0.03 l
0.62 -0.03 l
0.63 -0.03 l
0.62 -0.03 l
0.62 -0.02 l
0.63 -0.03 l
0.62 -0.02 l
0.63 -0.02 l
0.62 -0.02 l
0.63 -0.02 l
0.62 -0.01 l
0.62 -0.02 l
0.63 -0.01 l
0.62 -0.01 l
0.63 -0.02 l
0.62 -0.01 l
0.63 -0.01 l
0.62 -0.01 l
0.62 0 l
0.63 -0.01 l
0.62 -0.01 l
0.63 0 l
401.07 83.95 lineto
0.62 0 l
0.63 0 l
0.62 -0.01 l
0.63 0 l
0.62 0 l
0.63 -0.01 l
0.62 0 l
0.62 0 l
0.63 0 l
0.62 0 l
0.63 0 l
o
1 0 0 srgb
1.50 setlinewidth
[] 0 setdash
np
85.14 83.93 m
0.60 0 l
0.59 0 l
0.60 0 l
0.59 0 l
0.60 0 l
0.59 0 l
0.60 0.01 l
0.60 0 l
0.59 0 l
0.60 0 l
0.59 0.01 l
0.60 0 l
0.59 0.01 l
0.60 0 l
0.59 0.01 l
0.60 0 l
0.60 0.01 l
0.59 0.01 l
0.60 0.01 l
0.59 0.01 l
0.60 0.01 l
0.59 0.01 l
0.60 0.01 l
0.60 0.01 l
0.59 0.02 l
0.60 0.01 l
0.59 0.02 l
0.60 0.01 l
0.59 0.02 l
0.60 0.02 l
0.59 0.02 l
0.60 0.02 l
0.60 0.03 l
0.59 0.02 l
0.60 0.03 l
0.59 0.02 l
0.60 0.03 l
0.59 0.03 l
0.60 0.04 l
0.60 0.03 l
0.59 0.04 l
0.60 0.04 l
0.59 0.04 l
0.60 0.04 l
0.59 0.05 l
0.60 0.05 l
0.59 0.06 l
0.60 0.06 l
0.60 0.07 l
0.59 0.07 l
0.60 0.07 l
0.59 0.09 l
0.60 0.09 l
0.59 0.10 l
0.60 0.10 l
0.60 0.12 l
0.59 0.12 l
0.60 0.13 l
0.59 0.15 l
0.60 0.15 l
0.59 0.17 l
0.60 0.17 l
0.59 0.19 l
0.60 0.21 l
0.60 0.21 l
0.59 0.23 l
0.60 0.24 l
0.59 0.26 l
0.60 0.27 l
0.59 0.28 l
0.60 0.30 l
0.60 0.32 l
0.59 0.33 l
0.60 0.34 l
0.59 0.36 l
0.60 0.37 l
0.59 0.39 l
0.60 0.40 l
0.59 0.43 l
0.60 0.43 l
0.60 0.45 l
0.59 0.46 l
0.60 0.48 l
0.59 0.49 l
0.60 0.51 l
0.59 0.52 l
0.60 0.53 l
0.60 0.55 l
0.59 0.56 l
0.60 0.57 l
0.59 0.59 l
0.60 0.60 l
0.59 0.61 l
0.60 0.63 l
0.59 0.64 l
0.60 0.65 l
0.60 0.66 l
0.59 0.67 l
0.60 0.68 l
144.70 103.51 lineto
0.60 0.70 l
0.59 0.72 l
0.60 0.72 l
0.60 0.74 l
0.59 0.75 l
0.60 0.75 l
0.59 0.77 l
0.60 0.78 l
0.59 0.80 l
0.60 0.80 l
0.59 0.82 l
0.60 0.83 l
0.60 0.85 l
0.59 0.86 l
0.60 0.87 l
0.59 0.89 l
0.60 0.91 l
0.59 0.92 l
0.60 0.94 l
0.60 0.95 l
0.59 0.97 l
0.60 0.99 l
0.59 1.00 l
0.60 1.02 l
0.59 1.03 l
0.60 1.04 l
0.59 1.05 l
0.60 1.07 l
0.60 1.06 l
0.59 1.08 l
0.60 1.07 l
0.59 1.08 l
0.60 1.07 l
0.59 1.06 l
0.60 1.05 l
0.60 1.04 l
0.59 1.02 l
0.60 1.00 l
0.59 0.98 l
0.60 0.95 l
0.59 0.92 l
0.60 0.89 l
0.59 0.85 l
0.60 0.82 l
0.60 0.78 l
0.59 0.74 l
0.60 0.70 l
0.59 0.67 l
0.60 0.63 l
0.59 0.58 l
0.60 0.55 l
0.60 0.51 l
0.59 0.49 l
0.60 0.45 l
0.59 0.42 l
0.60 0.40 l
0.59 0.37 l
0.60 0.36 l
0.59 0.35 l
0.60 0.33 l
0.60 0.32 l
0.59 0.32 l
0.60 0.32 l
0.59 0.32 l
0.60 0.32 l
0.59 0.33 l
0.60 0.34 l
0.60 0.34 l
0.59 0.36 l
0.60 0.36 l
0.59 0.38 l
0.60 0.38 l
0.59 0.39 l
0.60 0.40 l
0.59 0.40 l
0.60 0.40 l
0.60 0.41 l
0.59 0.40 l
0.60 0.39 l
0.59 0.38 l
0.60 0.37 l
0.59 0.35 l
0.60 0.33 l
0.60 0.31 l
0.59 0.27 l
0.60 0.25 l
0.59 0.21 l
0.60 0.18 l
0.59 0.14 l
0.60 0.10 l
0.59 0.05 l
0.60 0.02 l
0.60 -0.02 l
0.59 -0.06 l
0.60 -0.11 l
0.59 -0.14 l
0.60 -0.18 l
0.59 -0.21 l
0.60 -0.25 l
204.27 160.92 lineto
0.59 -0.31 l
0.60 -0.32 l
0.59 -0.34 l
0.60 -0.36 l
0.59 -0.38 l
0.60 -0.39 l
0.59 -0.39 l
0.60 -0.40 l
0.60 -0.40 l
0.59 -0.40 l
0.60 -0.40 l
0.59 -0.40 l
0.60 -0.40 l
0.59 -0.38 l
0.60 -0.39 l
0.60 -0.37 l
0.59 -0.38 l
0.60 -0.36 l
0.59 -0.36 l
0.60 -0.36 l
0.59 -0.35 l
0.60 -0.35 l
0.59 -0.36 l
0.60 -0.35 l
0.60 -0.35 l
0.59 -0.35 l
0.60 -0.36 l
0.59 -0.37 l
0.60 -0.36 l
0.59 -0.38 l
0.60 -0.38 l
0.60 -0.40 l
0.59 -0.40 l
0.60 -0.41 l
0.59 -0.41 l
0.60 -0.43 l
0.59 -0.44 l
0.60 -0.44 l
0.59 -0.46 l
0.60 -0.46 l
0.60 -0.47 l
0.59 -0.47 l
0.60 -0.49 l
0.59 -0.49 l
0.60 -0.50 l
0.59 -0.50 l
0.60 -0.51 l
0.60 -0.52 l
0.59 -0.52 l
0.60 -0.53 l
0.59 -0.54 l
0.60 -0.54 l
0.59 -0.55 l
0.60 -0.56 l
0.60 -0.57 l
0.59 -0.57 l
0.60 -0.59 l
0.59 -0.60 l
0.60 -0.61 l
0.59 -0.62 l
0.60 -0.63 l
0.59 -0.65 l
0.60 -0.65 l
0.60 -0.67 l
0.59 -0.68 l
0.60 -0.69 l
0.59 -0.71 l
0.60 -0.71 l
0.59 -0.72 l
0.60 -0.73 l
0.60 -0.74 l
0.59 -0.74 l
0.60 -0.75 l
0.59 -0.75 l
0.60 -0.74 l
0.59 -0.75 l
0.60 -0.74 l
0.59 -0.73 l
0.60 -0.73 l
0.60 -0.72 l
0.59 -0.70 l
0.60 -0.69 l
0.59 -0.67 l
0.60 -0.65 l
0.59 -0.64 l
0.60 -0.62 l
0.60 -0.59 l
0.59 -0.57 l
0.60 -0.55 l
0.59 -0.53 l
0.60 -0.51 l
0.59 -0.48 l
0.60 -0.46 l
0.59 -0.45 l
0.60 -0.42 l
0.60 -0.40 l
0.59 -0.39 l
0.60 -0.37 l
0.59 -0.35 l
263.83 110.26 lineto
0.59 -0.33 l
0.60 -0.31 l
0.60 -0.31 l
0.59 -0.30 l
0.60 -0.29 l
0.59 -0.29 l
0.60 -0.28 l
0.59 -0.28 l
0.60 -0.28 l
0.59 -0.27 l
0.60 -0.28 l
0.60 -0.28 l
0.59 -0.27 l
0.60 -0.28 l
0.59 -0.29 l
0.60 -0.28 l
0.59 -0.28 l
0.60 -0.29 l
0.60 -0.29 l
0.59 -0.30 l
0.60 -0.29 l
0.59 -0.30 l
0.60 -0.30 l
0.59 -0.30 l
0.60 -0.30 l
0.59 -0.30 l
0.60 -0.30 l
0.60 -0.31 l
0.59 -0.30 l
0.60 -0.31 l
0.59 -0.30 l
0.60 -0.30 l
0.59 -0.30 l
0.60 -0.30 l
0.60 -0.30 l
0.59 -0.29 l
0.60 -0.30 l
0.59 -0.29 l
0.60 -0.28 l
0.59 -0.28 l
0.60 -0.28 l
0.59 -0.27 l
0.60 -0.27 l
0.60 -0.26 l
0.59 -0.26 l
0.60 -0.25 l
0.59 -0.24 l
0.60 -0.24 l
0.59 -0.23 l
0.60 -0.22 l
0.60 -0.22 l
0.59 -0.21 l
0.60 -0.20 l
0.59 -0.20 l
0.60 -0.19 l
0.59 -0.18 l
0.60 -0.17 l
0.59 -0.17 l
0.60 -0.16 l
0.60 -0.16 l
0.59 -0.15 l
0.60 -0.15 l
0.59 -0.14 l
0.60 -0.13 l
0.59 -0.14 l
0.60 -0.13 l
0.60 -0.12 l
0.59 -0.13 l
0.60 -0.12 l
0.59 -0.12 l
0.60 -0.12 l
0.59 -0.12 l
0.60 -0.11 l
0.59 -0.12 l
0.60 -0.11 l
0.60 -0.11 l
0.59 -0.11 l
0.60 -0.12 l
0.59 -0.11 l
0.60 -0.11 l
0.59 -0.11 l
0.60 -0.10 l
0.60 -0.11 l
0.59 -0.11 l
0.60 -0.11 l
0.59 -0.11 l
0.60 -0.11 l
0.59 -0.11 l
0.60 -0.11 l
0.59 -0.12 l
0.60 -0.12 l
0.60 -0.11 l
0.59 -0.13 l
0.60 -0.12 l
0.59 -0.13 l
0.60 -0.13 l
0.59 -0.14 l
0.60 -0.13 l
0.60 -0.15 l
323.39 89.28 lineto
0.60 -0.16 l
0.59 -0.15 l
0.60 -0.16 l
0.59 -0.16 l
0.60 -0.16 l
0.59 -0.17 l
0.60 -0.16 l
0.60 -0.17 l
0.59 -0.16 l
0.60 -0.17 l
0.59 -0.16 l
0.60 -0.16 l
0.59 -0.16 l
0.60 -0.15 l
0.60 -0.14 l
0.59 -0.14 l
0.60 -0.14 l
0.59 -0.12 l
0.60 -0.12 l
0.59 -0.11 l
0.60 -0.09 l
0.59 -0.09 l
0.60 -0.09 l
0.60 -0.07 l
0.59 -0.06 l
0.60 -0.05 l
0.59 -0.05 l
0.60 -0.03 l
0.59 -0.03 l
0.60 -0.02 l
0.60 -0.01 l
0.59 -0.01 l
0.60 0 l
0.59 0 l
0.60 0.01 l
0.59 0 l
0.60 0.02 l
0.59 0.01 l
0.60 0.01 l
0.60 0.01 l
0.59 0.01 l
0.60 0.01 l
0.59 0.01 l
0.60 0 l
0.59 0 l
0.60 0 l
0.60 0 l
0.59 -0.01 l
0.60 -0.02 l
0.59 -0.02 l
0.60 -0.02 l
0.59 -0.03 l
0.60 -0.03 l
0.59 -0.03 l
0.60 -0.04 l
0.60 -0.05 l
0.59 -0.04 l
0.60 -0.05 l
0.59 -0.05 l
0.60 -0.05 l
0.59 -0.06 l
0.60 -0.05 l
0.60 -0.06 l
0.59 -0.06 l
0.60 -0.05 l
0.59 -0.06 l
0.60 -0.06 l
0.59 -0.06 l
0.60 -0.05 l
0.59 -0.06 l
0.60 -0.05 l
0.60 -0.05 l
0.59 -0.05 l
0.60 -0.05 l
0.59 -0.05 l
0.60 -0.04 l
0.59 -0.04 l
0.60 -0.04 l
0.60 -0.04 l
0.59 -0.04 l
0.60 -0.03 l
0.59 -0.03 l
0.60 -0.03 l
0.59 -0.03 l
0.60 -0.02 l
0.59 -0.03 l
0.60 -0.02 l
0.60 -0.02 l
0.59 -0.02 l
0.60 -0.01 l
0.59 -0.02 l
0.60 -0.01 l
0.59 -0.01 l
0.60 -0.01 l
0.60 -0.01 l
0.59 -0.01 l
0.60 -0.01 l
0.59 -0.01 l
0.60 0 l
382.95 83.95 lineto
0.60 0 l
0.59 -0.01 l
0.60 0 l
0.60 0 l
0.59 0 l
0.60 -0.01 l
0.59 0 l
0.60 0 l
0.59 0 l
0.60 0 l
0.60 0 l
o
1.50 setlinewidth
[ 4.50 7.50] 0 setdash
np
61.95 83.93 m
0.66 0 l
0.65 0 l
0.66 0.01 l
0.65 0 l
0.66 0 l
0.66 0.01 l
0.65 0 l
0.66 0.01 l
0.65 0 l
0.66 0.01 l
0.65 0.01 l
0.66 0.01 l
0.66 0.01 l
0.65 0.01 l
0.66 0.02 l
0.65 0.01 l
0.66 0.02 l
0.65 0.01 l
0.66 0.02 l
0.66 0.02 l
0.65 0.03 l
0.66 0.02 l
0.65 0.03 l
0.66 0.03 l
0.66 0.03 l
0.65 0.03 l
0.66 0.03 l
0.65 0.04 l
0.66 0.04 l
0.65 0.03 l
0.66 0.04 l
0.66 0.04 l
0.65 0.05 l
0.66 0.04 l
0.65 0.04 l
0.66 0.04 l
0.65 0.04 l
0.66 0.05 l
0.66 0.04 l
0.65 0.04 l
0.66 0.04 l
0.65 0.04 l
0.66 0.03 l
0.66 0.04 l
0.65 0.03 l
0.66 0.04 l
0.65 0.03 l
0.66 0.03 l
0.65 0.03 l
0.66 0.03 l
0.66 0.02 l
0.65 0.03 l
0.66 0.02 l
0.65 0.02 l
0.66 0.03 l
0.65 0.02 l
0.66 0.02 l
0.66 0.01 l
0.65 0.02 l
0.66 0.02 l
0.65 0.02 l
0.66 0.01 l
0.65 0.01 l
0.66 0.02 l
0.66 0.01 l
0.65 0.01 l
0.66 0.01 l
0.65 0.01 l
0.66 0.01 l
0.66 0.01 l
0.65 0 l
0.66 0.01 l
0.65 0 l
0.66 0 l
0.65 0 l
0.66 0 l
0.66 0 l
0.65 0 l
0.66 0.01 l
0.65 0 l
0.66 0 l
0.65 0 l
0.66 0 l
0.66 0.01 l
0.65 0.01 l
0.66 0.01 l
0.65 0.02 l
0.66 0.02 l
0.66 0.02 l
0.65 0.03 l
0.66 0.03 l
0.65 0.04 l
0.66 0.05 l
0.65 0.05 l
0.66 0.06 l
0.66 0.06 l
0.65 0.07 l
0.66 0.08 l
0.65 0.08 l
127.53 86.26 lineto
0.65 0.10 l
0.66 0.10 l
0.66 0.11 l
0.65 0.11 l
0.66 0.12 l
0.65 0.12 l
0.66 0.13 l
0.66 0.13 l
0.65 0.14 l
0.66 0.14 l
0.65 0.14 l
0.66 0.14 l
0.65 0.15 l
0.66 0.15 l
0.66 0.15 l
0.65 0.16 l
0.66 0.15 l
0.65 0.16 l
0.66 0.15 l
0.65 0.16 l
0.66 0.16 l
0.66 0.17 l
0.65 0.16 l
0.66 0.17 l
0.65 0.16 l
0.66 0.17 l
0.65 0.17 l
0.66 0.18 l
0.66 0.17 l
0.65 0.18 l
0.66 0.18 l
0.65 0.19 l
0.66 0.18 l
0.66 0.19 l
0.65 0.19 l
0.66 0.19 l
0.65 0.19 l
0.66 0.20 l
0.65 0.19 l
0.66 0.19 l
0.66 0.20 l
0.65 0.19 l
0.66 0.19 l
0.65 0.19 l
0.66 0.19 l
0.65 0.18 l
0.66 0.18 l
0.66 0.18 l
0.65 0.17 l
0.66 0.16 l
0.65 0.16 l
0.66 0.16 l
0.66 0.14 l
0.65 0.14 l
0.66 0.14 l
0.65 0.12 l
0.66 0.12 l
0.65 0.11 l
0.66 0.11 l
0.66 0.10 l
0.65 0.09 l
0.66 0.09 l
0.65 0.08 l
0.66 0.08 l
0.65 0.08 l
0.66 0.07 l
0.66 0.07 l
0.65 0.07 l
0.66 0.06 l
0.65 0.07 l
0.66 0.07 l
0.65 0.06 l
0.66 0.07 l
0.66 0.07 l
0.65 0.08 l
0.66 0.07 l
0.65 0.08 l
0.66 0.09 l
0.66 0.09 l
0.65 0.09 l
0.66 0.10 l
0.65 0.10 l
0.66 0.11 l
0.65 0.12 l
0.66 0.11 l
0.66 0.13 l
0.65 0.12 l
0.66 0.14 l
0.65 0.13 l
0.66 0.14 l
0.65 0.14 l
0.66 0.14 l
0.66 0.14 l
0.65 0.15 l
0.66 0.15 l
0.65 0.14 l
0.66 0.14 l
0.66 0.15 l
0.65 0.14 l
193.11 99.84 lineto
0.65 0.14 l
0.66 0.13 l
0.65 0.14 l
0.66 0.13 l
0.66 0.13 l
0.65 0.12 l
0.66 0.13 l
0.65 0.12 l
0.66 0.12 l
0.65 0.11 l
0.66 0.12 l
0.66 0.12 l
0.65 0.12 l
0.66 0.12 l
0.65 0.12 l
0.66 0.12 l
0.66 0.13 l
0.65 0.13 l
0.66 0.13 l
0.65 0.14 l
0.66 0.15 l
0.65 0.16 l
0.66 0.16 l
0.66 0.18 l
0.65 0.18 l
0.66 0.20 l
0.65 0.22 l
0.66 0.22 l
0.65 0.24 l
0.66 0.25 l
0.66 0.27 l
0.65 0.29 l
0.66 0.31 l
0.65 0.32 l
0.66 0.34 l
0.65 0.37 l
0.66 0.38 l
0.66 0.41 l
0.65 0.42 l
0.66 0.44 l
0.65 0.47 l
0.66 0.49 l
0.66 0.51 l
0.65 0.53 l
0.66 0.55 l
0.65 0.58 l
0.66 0.59 l
0.65 0.62 l
0.66 0.64 l
0.66 0.65 l
0.65 0.67 l
0.66 0.70 l
0.65 0.71 l
0.66 0.73 l
0.65 0.74 l
0.66 0.76 l
0.66 0.78 l
0.65 0.78 l
0.66 0.80 l
0.65 0.81 l
0.66 0.82 l
0.66 0.82 l
0.65 0.83 l
0.66 0.83 l
0.65 0.84 l
0.66 0.83 l
0.65 0.84 l
0.66 0.82 l
0.66 0.82 l
0.65 0.82 l
0.66 0.80 l
0.65 0.79 l
0.66 0.77 l
0.65 0.76 l
0.66 0.74 l
0.66 0.72 l
0.65 0.70 l
0.66 0.67 l
0.65 0.66 l
0.66 0.63 l
0.65 0.61 l
0.66 0.59 l
0.66 0.55 l
0.65 0.54 l
0.66 0.52 l
0.65 0.50 l
0.66 0.47 l
0.66 0.45 l
0.65 0.43 l
0.66 0.42 l
0.65 0.40 l
0.66 0.38 l
0.65 0.37 l
0.66 0.36 l
0.66 0.34 l
0.65 0.33 l
0.66 0.32 l
0.65 0.31 l
0.66 0.30 l
258.68 144.97 lineto
0.66 0.29 l
0.66 0.27 l
0.65 0.26 l
0.66 0.25 l
0.65 0.25 l
0.66 0.23 l
0.66 0.23 l
0.65 0.21 l
0.66 0.21 l
0.65 0.19 l
0.66 0.19 l
0.65 0.18 l
0.66 0.17 l
0.66 0.17 l
0.65 0.16 l
0.66 0.15 l
0.65 0.15 l
0.66 0.14 l
0.65 0.14 l
0.66 0.14 l
0.66 0.15 l
0.65 0.14 l
0.66 0.14 l
0.65 0.15 l
0.66 0.15 l
0.66 0.15 l
0.65 0.16 l
0.66 0.16 l
0.65 0.16 l
0.66 0.17 l
0.65 0.17 l
0.66 0.17 l
0.66 0.16 l
0.65 0.17 l
0.66 0.16 l
0.65 0.16 l
0.66 0.15 l
0.65 0.13 l
0.66 0.13 l
0.66 0.10 l
0.65 0.10 l
0.66 0.07 l
0.65 0.05 l
0.66 0.03 l
0.65 0 l
0.66 -0.03 l
0.66 -0.05 l
0.65 -0.08 l
0.66 -0.11 l
0.65 -0.15 l
0.66 -0.17 l
0.66 -0.20 l
0.65 -0.23 l
0.66 -0.26 l
0.65 -0.29 l
0.66 -0.32 l
0.65 -0.35 l
0.66 -0.37 l
0.66 -0.40 l
0.65 -0.42 l
0.66 -0.44 l
0.65 -0.47 l
0.66 -0.48 l
0.65 -0.51 l
0.66 -0.52 l
0.66 -0.54 l
0.65 -0.56 l
0.66 -0.57 l
0.65 -0.59 l
0.66 -0.61 l
0.66 -0.62 l
0.65 -0.62 l
0.66 -0.64 l
0.65 -0.65 l
0.66 -0.67 l
0.65 -0.66 l
0.66 -0.68 l
0.66 -0.68 l
0.65 -0.69 l
0.66 -0.69 l
0.65 -0.69 l
0.66 -0.69 l
0.65 -0.69 l
0.66 -0.68 l
0.66 -0.68 l
0.65 -0.67 l
0.66 -0.66 l
0.65 -0.65 l
0.66 -0.64 l
0.65 -0.63 l
0.66 -0.61 l
0.66 -0.60 l
0.65 -0.58 l
0.66 -0.56 l
0.65 -0.55 l
0.66 -0.53 l
0.66 -0.52 l
0.65 -0.51 l
0.66 -0.49 l
324.26 124.80 lineto
0.66 -0.48 l
0.65 -0.47 l
0.66 -0.46 l
0.66 -0.47 l
0.65 -0.47 l
0.66 -0.47 l
0.65 -0.48 l
0.66 -0.49 l
0.65 -0.50 l
0.66 -0.51 l
0.66 -0.54 l
0.65 -0.55 l
0.66 -0.58 l
0.65 -0.59 l
0.66 -0.63 l
0.66 -0.64 l
0.65 -0.67 l
0.66 -0.69 l
0.65 -0.72 l
0.66 -0.74 l
0.65 -0.76 l
0.66 -0.78 l
0.66 -0.80 l
0.65 -0.82 l
0.66 -0.83 l
0.65 -0.84 l
0.66 -0.85 l
0.65 -0.85 l
0.66 -0.86 l
0.66 -0.86 l
0.65 -0.85 l
0.66 -0.85 l
0.65 -0.85 l
0.66 -0.83 l
0.66 -0.82 l
0.65 -0.81 l
0.66 -0.79 l
0.65 -0.77 l
0.66 -0.75 l
0.65 -0.74 l
0.66 -0.70 l
0.66 -0.69 l
0.65 -0.66 l
0.66 -0.64 l
0.65 -0.61 l
0.66 -0.59 l
0.65 -0.56 l
0.66 -0.54 l
0.66 -0.51 l
0.65 -0.50 l
0.66 -0.46 l
0.65 -0.44 l
0.66 -0.42 l
0.65 -0.40 l
0.66 -0.38 l
0.66 -0.36 l
0.65 -0.34 l
0.66 -0.32 l
0.65 -0.30 l
0.66 -0.28 l
0.66 -0.27 l
0.65 -0.25 l
0.66 -0.24 l
0.65 -0.22 l
0.66 -0.21 l
0.65 -0.19 l
0.66 -0.19 l
0.66 -0.17 l
0.65 -0.16 l
0.66 -0.15 l
0.65 -0.14 l
0.66 -0.13 l
0.65 -0.12 l
0.66 -0.11 l
0.66 -0.11 l
0.65 -0.10 l
0.66 -0.09 l
0.65 -0.08 l
0.66 -0.08 l
0.66 -0.07 l
0.65 -0.06 l
0.66 -0.06 l
0.65 -0.06 l
0.66 -0.05 l
0.65 -0.04 l
0.66 -0.04 l
0.66 -0.04 l
0.65 -0.03 l
0.66 -0.03 l
0.65 -0.03 l
0.66 -0.03 l
0.65 -0.02 l
0.66 -0.02 l
0.66 -0.01 l
0.65 -0.02 l
0.66 -0.01 l
0.65 -0.02 l
0.66 -0.01 l
0.65 0 l
389.84 83.97 lineto
0.66 -0.01 l
0.65 -0.01 l
0.66 0 l
0.65 0 l
0.66 -0.01 l
0.66 0 l
0.65 0 l
0.66 -0.01 l
0.65 0 l
0.66 0 l
0.65 0 l
o
0 1 0 srgb
1.50 setlinewidth
[] 0 setdash
np
78.58 83.93 m
0.68 0 l
0.67 0 l
0.67 0 l
0.67 0 l
0.67 0.01 l
0.68 0 l
0.67 0 l
0.67 0.01 l
0.67 0 l
0.68 0.01 l
0.67 0 l
0.67 0.01 l
0.67 0.01 l
0.68 0.01 l
0.67 0.01 l
0.67 0.02 l
0.67 0.01 l
0.67 0.02 l
0.68 0.02 l
0.67 0.02 l
0.67 0.03 l
0.67 0.02 l
0.68 0.04 l
0.67 0.03 l
0.67 0.04 l
0.67 0.04 l
0.68 0.05 l
0.67 0.05 l
0.67 0.05 l
0.67 0.06 l
0.67 0.06 l
0.68 0.07 l
0.67 0.08 l
0.67 0.08 l
0.67 0.08 l
0.68 0.09 l
0.67 0.10 l
0.67 0.10 l
0.67 0.11 l
0.68 0.11 l
0.67 0.12 l
0.67 0.12 l
0.67 0.13 l
0.67 0.14 l
0.68 0.14 l
0.67 0.15 l
0.67 0.16 l
0.67 0.17 l
0.68 0.17 l
0.67 0.18 l
0.67 0.19 l
0.67 0.20 l
0.68 0.22 l
0.67 0.22 l
0.67 0.24 l
0.67 0.25 l
0.67 0.26 l
0.68 0.28 l
0.67 0.30 l
0.67 0.32 l
0.67 0.34 l
0.68 0.35 l
0.67 0.39 l
0.67 0.40 l
0.67 0.44 l
0.68 0.45 l
0.67 0.49 l
0.67 0.51 l
0.67 0.55 l
0.67 0.57 l
0.68 0.61 l
0.67 0.64 l
0.67 0.66 l
0.67 0.71 l
0.68 0.73 l
0.67 0.77 l
0.67 0.79 l
0.67 0.83 l
0.68 0.85 l
0.67 0.89 l
0.67 0.92 l
0.67 0.93 l
0.67 0.97 l
0.68 0.98 l
0.67 1.01 l
0.67 1.02 l
0.67 1.05 l
0.68 1.05 l
0.67 1.07 l
0.67 1.08 l
0.67 1.09 l
0.68 1.09 l
0.67 1.09 l
0.67 1.10 l
0.67 1.10 l
0.67 1.09 l
0.68 1.09 l
0.67 1.09 l
0.67 1.08 l
145.81 122.28 lineto
0.68 1.05 l
0.67 1.05 l
0.67 1.04 l
0.67 1.03 l
0.68 1.01 l
0.67 1.00 l
0.67 0.99 l
0.67 0.98 l
0.67 0.97 l
0.68 0.96 l
0.67 0.95 l
0.67 0.94 l
0.67 0.94 l
0.68 0.93 l
0.67 0.93 l
0.67 0.93 l
0.67 0.93 l
0.68 0.92 l
0.67 0.93 l
0.67 0.93 l
0.67 0.93 l
0.67 0.93 l
0.68 0.93 l
0.67 0.94 l
0.67 0.93 l
0.67 0.94 l
0.68 0.93 l
0.67 0.92 l
0.67 0.92 l
0.67 0.92 l
0.68 0.90 l
0.67 0.88 l
0.67 0.87 l
0.67 0.85 l
0.67 0.83 l
0.68 0.80 l
0.67 0.78 l
0.67 0.75 l
0.67 0.71 l
0.68 0.67 l
0.67 0.64 l
0.67 0.61 l
0.67 0.56 l
0.68 0.52 l
0.67 0.47 l
0.67 0.43 l
0.67 0.39 l
0.67 0.34 l
0.68 0.29 l
0.67 0.25 l
0.67 0.20 l
0.67 0.15 l
0.68 0.11 l
0.67 0.06 l
0.67 0 l
0.67 -0.04 l
0.68 -0.08 l
0.67 -0.13 l
0.67 -0.17 l
0.67 -0.23 l
0.67 -0.27 l
0.68 -0.31 l
0.67 -0.35 l
0.67 -0.39 l
0.67 -0.43 l
0.68 -0.47 l
0.67 -0.50 l
0.67 -0.53 l
0.67 -0.56 l
0.68 -0.59 l
0.67 -0.62 l
0.67 -0.64 l
0.67 -0.66 l
0.67 -0.67 l
0.68 -0.69 l
0.67 -0.70 l
0.67 -0.71 l
0.67 -0.71 l
0.68 -0.72 l
0.67 -0.72 l
0.67 -0.72 l
0.67 -0.71 l
0.68 -0.72 l
0.67 -0.70 l
0.67 -0.71 l
0.67 -0.69 l
0.67 -0.69 l
0.68 -0.68 l
0.67 -0.67 l
0.67 -0.66 l
0.67 -0.65 l
0.68 -0.65 l
0.67 -0.64 l
0.67 -0.64 l
0.67 -0.63 l
0.68 -0.63 l
0.67 -0.63 l
0.67 -0.63 l
0.67 -0.64 l
213.04 138.82 lineto
0.68 -0.65 l
0.67 -0.65 l
0.67 -0.67 l
0.67 -0.68 l
0.68 -0.70 l
0.67 -0.71 l
0.67 -0.72 l
0.67 -0.75 l
0.68 -0.76 l
0.67 -0.78 l
0.67 -0.80 l
0.67 -0.81 l
0.67 -0.82 l
0.68 -0.85 l
0.67 -0.85 l
0.67 -0.86 l
0.67 -0.86 l
0.68 -0.87 l
0.67 -0.87 l
0.67 -0.86 l
0.67 -0.85 l
0.68 -0.84 l
0.67 -0.83 l
0.67 -0.81 l
0.67 -0.77 l
0.67 -0.76 l
0.68 -0.72 l
0.67 -0.69 l
0.67 -0.66 l
0.67 -0.61 l
0.68 -0.58 l
0.67 -0.54 l
0.67 -0.50 l
0.67 -0.45 l
0.68 -0.42 l
0.67 -0.37 l
0.67 -0.33 l
0.67 -0.30 l
0.67 -0.27 l
0.68 -0.23 l
0.67 -0.20 l
0.67 -0.18 l
0.67 -0.15 l
0.68 -0.14 l
0.67 -0.11 l
0.67 -0.10 l
0.67 -0.09 l
0.68 -0.08 l
0.67 -0.08 l
0.67 -0.08 l
0.67 -0.07 l
0.67 -0.08 l
0.68 -0.09 l
0.67 -0.08 l
0.67 -0.10 l
0.67 -0.10 l
0.68 -0.12 l
0.67 -0.13 l
0.67 -0.13 l
0.67 -0.15 l
0.68 -0.15 l
0.67 -0.17 l
0.67 -0.18 l
0.67 -0.18 l
0.67 -0.20 l
0.68 -0.20 l
0.67 -0.21 l
0.67 -0.22 l
0.67 -0.23 l
0.68 -0.23 l
0.67 -0.23 l
0.67 -0.24 l
0.67 -0.25 l
0.68 -0.24 l
0.67 -0.25 l
0.67 -0.24 l
0.67 -0.25 l
0.68 -0.25 l
0.67 -0.24 l
0.67 -0.24 l
0.67 -0.24 l
0.67 -0.24 l
0.68 -0.23 l
0.67 -0.23 l
0.67 -0.22 l
0.67 -0.22 l
0.68 -0.21 l
0.67 -0.20 l
0.67 -0.20 l
0.67 -0.19 l
0.68 -0.18 l
0.67 -0.18 l
0.67 -0.17 l
0.67 -0.16 l
0.67 -0.15 l
0.68 -0.15 l
0.67 -0.13 l
0.67 -0.14 l
0.67 -0.13 l
280.28 101.42 lineto
0.67 -0.11 l
0.67 -0.12 l
0.67 -0.11 l
0.68 -0.11 l
0.67 -0.10 l
0.67 -0.11 l
0.67 -0.10 l
0.67 -0.11 l
0.68 -0.10 l
0.67 -0.11 l
0.67 -0.11 l
0.67 -0.12 l
0.68 -0.11 l
0.67 -0.12 l
0.67 -0.12 l
0.67 -0.13 l
0.68 -0.13 l
0.67 -0.13 l
0.67 -0.13 l
0.67 -0.14 l
0.67 -0.14 l
0.68 -0.14 l
0.67 -0.14 l
0.67 -0.14 l
0.67 -0.14 l
0.68 -0.14 l
0.67 -0.13 l
0.67 -0.14 l
0.67 -0.13 l
0.68 -0.14 l
0.67 -0.13 l
0.67 -0.12 l
0.67 -0.13 l
0.67 -0.12 l
0.68 -0.12 l
0.67 -0.12 l
0.67 -0.12 l
0.67 -0.11 l
0.68 -0.12 l
0.67 -0.12 l
0.67 -0.12 l
0.67 -0.12 l
0.68 -0.12 l
0.67 -0.13 l
0.67 -0.13 l
0.67 -0.14 l
0.67 -0.14 l
0.68 -0.14 l
0.67 -0.15 l
0.67 -0.16 l
0.67 -0.16 l
0.68 -0.17 l
0.67 -0.17 l
0.67 -0.18 l
0.67 -0.18 l
0.68 -0.19 l
0.67 -0.20 l
0.67 -0.19 l
0.67 -0.20 l
0.67 -0.21 l
0.68 -0.21 l
0.67 -0.21 l
0.67 -0.21 l
0.67 -0.22 l
0.68 -0.21 l
0.67 -0.22 l
0.67 -0.22 l
0.67 -0.21 l
0.68 -0.22 l
0.67 -0.22 l
0.67 -0.21 l
0.67 -0.21 l
0.67 -0.21 l
0.68 -0.20 l
0.67 -0.20 l
0.67 -0.20 l
0.67 -0.19 l
0.68 -0.18 l
0.67 -0.18 l
0.67 -0.17 l
0.67 -0.16 l
0.68 -0.16 l
0.67 -0.15 l
0.67 -0.14 l
0.67 -0.13 l
0.67 -0.12 l
0.68 -0.12 l
0.67 -0.10 l
0.67 -0.10 l
0.67 -0.10 l
0.68 -0.08 l
0.67 -0.08 l
0.67 -0.07 l
0.67 -0.07 l
0.68 -0.06 l
0.67 -0.06 l
0.67 -0.06 l
0.67 -0.05 l
0.67 -0.06 l
347.51 87.29 lineto
0.67 -0.06 l
0.67 -0.05 l
0.67 -0.06 l
0.68 -0.06 l
0.67 -0.07 l
0.67 -0.06 l
0.67 -0.07 l
0.68 -0.07 l
0.67 -0.08 l
0.67 -0.08 l
0.67 -0.08 l
0.67 -0.09 l
0.68 -0.08 l
0.67 -0.09 l
0.67 -0.09 l
0.67 -0.09 l
0.68 -0.09 l
0.67 -0.09 l
0.67 -0.08 l
0.67 -0.09 l
0.68 -0.08 l
0.67 -0.08 l
0.67 -0.08 l
0.67 -0.07 l
0.67 -0.07 l
0.68 -0.06 l
0.67 -0.06 l
0.67 -0.06 l
0.67 -0.05 l
0.68 -0.05 l
0.67 -0.04 l
0.67 -0.04 l
0.67 -0.04 l
0.68 -0.03 l
0.67 -0.04 l
0.67 -0.02 l
0.67 -0.03 l
0.67 -0.03 l
0.68 -0.02 l
0.67 -0.02 l
0.67 -0.02 l
0.67 -0.02 l
0.68 -0.02 l
0.67 -0.02 l
0.67 -0.02 l
0.67 -0.01 l
0.68 -0.02 l
0.67 -0.02 l
0.67 -0.02 l
0.67 -0.01 l
0.67 -0.02 l
0.68 -0.02 l
0.67 -0.02 l
0.67 -0.01 l
0.67 -0.02 l
0.68 -0.01 l
0.67 -0.02 l
0.67 -0.01 l
0.67 -0.02 l
0.68 -0.01 l
0.67 -0.02 l
0.67 -0.01 l
0.67 -0.02 l
0.67 -0.01 l
0.68 -0.01 l
0.67 -0.02 l
0.67 -0.01 l
0.67 -0.02 l
0.68 -0.01 l
0.67 -0.02 l
0.67 -0.01 l
0.67 -0.02 l
0.68 -0.01 l
0.67 -0.02 l
0.67 -0.01 l
0.67 -0.02 l
0.67 -0.01 l
0.68 -0.02 l
0.67 -0.01 l
0.67 -0.02 l
0.67 -0.02 l
0.68 -0.01 l
0.67 -0.02 l
0.67 -0.01 l
0.67 -0.01 l
0.68 -0.02 l
0.67 -0.01 l
0.67 -0.01 l
0.67 -0.01 l
0.67 -0.01 l
0.68 -0.01 l
0.67 -0.01 l
0.67 -0.01 l
0.67 -0.01 l
0.68 -0.01 l
0.67 0 l
0.67 -0.01 l
0.67 0 l
0.68 -0.01 l
414.74 83.95 lineto
0.67 -0.01 l
0.67 0 l
0.67 0 l
0.68 0 l
0.67 -0.01 l
0.67 0 l
0.67 0 l
0.68 0 l
0.67 0 l
0.67 0 l
0.67 0 l
o
1.50 setlinewidth
[ 4.50 7.50] 0 setdash
np
70.96 83.93 m
0.77 0 l
0.78 0 l
0.77 0 l
0.78 0 l
0.77 0 l
0.78 0 l
0.77 0 l
0.78 0 l
0.77 0 l
0.78 0.01 l
0.78 0 l
0.77 0 l
0.78 0 l
0.77 0.01 l
0.78 0 l
0.77 0.01 l
0.78 0 l
0.77 0.01 l
0.78 0 l
0.77 0.01 l
0.78 0 l
0.77 0.01 l
0.78 0.01 l
0.77 0.01 l
0.78 0 l
0.77 0.01 l
0.78 0.01 l
0.77 0.01 l
0.78 0.01 l
0.77 0.02 l
0.78 0.01 l
0.77 0.01 l
0.78 0.01 l
0.77 0.02 l
0.78 0.01 l
0.77 0.02 l
0.78 0.01 l
0.77 0.02 l
0.78 0.02 l
0.77 0.01 l
0.78 0.02 l
0.77 0.02 l
0.78 0.02 l
0.77 0.02 l
0.78 0.02 l
0.77 0.03 l
0.78 0.02 l
0.77 0.02 l
0.78 0.03 l
0.77 0.03 l
0.78 0.02 l
0.77 0.03 l
0.78 0.03 l
0.77 0.03 l
0.78 0.04 l
0.77 0.03 l
0.78 0.03 l
0.77 0.04 l
0.78 0.04 l
0.77 0.03 l
0.78 0.04 l
0.78 0.04 l
0.77 0.04 l
0.78 0.04 l
0.77 0.05 l
0.78 0.04 l
0.77 0.04 l
0.78 0.04 l
0.77 0.04 l
0.78 0.05 l
0.77 0.04 l
0.78 0.04 l
0.77 0.04 l
0.78 0.04 l
0.77 0.04 l
0.78 0.04 l
0.77 0.04 l
0.78 0.04 l
0.77 0.04 l
0.78 0.04 l
0.77 0.04 l
0.78 0.04 l
0.77 0.04 l
0.78 0.04 l
0.77 0.05 l
0.78 0.04 l
0.77 0.04 l
0.78 0.05 l
0.77 0.05 l
0.78 0.05 l
0.77 0.05 l
0.78 0.05 l
0.77 0.06 l
0.78 0.05 l
0.77 0.06 l
0.78 0.06 l
0.77 0.06 l
0.78 0.06 l
0.77 0.07 l
148.47 86.60 lineto
0.77 0.07 l
0.78 0.06 l
0.77 0.06 l
0.78 0.07 l
0.77 0.06 l
0.78 0.06 l
0.77 0.06 l
0.78 0.06 l
0.77 0.06 l
0.78 0.05 l
0.78 0.06 l
0.77 0.05 l
0.78 0.05 l
0.77 0.04 l
0.78 0.05 l
0.77 0.04 l
0.78 0.04 l
0.77 0.04 l
0.78 0.04 l
0.77 0.03 l
0.78 0.04 l
0.77 0.04 l
0.78 0.04 l
0.77 0.03 l
0.78 0.04 l
0.77 0.05 l
0.78 0.04 l
0.77 0.05 l
0.78 0.05 l
0.77 0.06 l
0.78 0.06 l
0.77 0.06 l
0.78 0.07 l
0.77 0.07 l
0.78 0.09 l
0.77 0.08 l
0.78 0.10 l
0.77 0.10 l
0.78 0.11 l
0.77 0.11 l
0.78 0.13 l
0.77 0.13 l
0.78 0.14 l
0.77 0.14 l
0.78 0.16 l
0.77 0.16 l
0.78 0.17 l
0.77 0.18 l
0.78 0.19 l
0.77 0.19 l
0.78 0.21 l
0.77 0.20 l
0.78 0.22 l
0.77 0.23 l
0.78 0.23 l
0.77 0.23 l
0.78 0.24 l
0.77 0.25 l
0.78 0.25 l
0.77 0.25 l
0.78 0.26 l
0.78 0.26 l
0.77 0.26 l
0.78 0.26 l
0.77 0.27 l
0.78 0.26 l
0.77 0.25 l
0.78 0.26 l
0.77 0.25 l
0.78 0.25 l
0.77 0.24 l
0.78 0.23 l
0.77 0.23 l
0.78 0.21 l
0.77 0.21 l
0.78 0.20 l
0.77 0.19 l
0.78 0.18 l
0.77 0.16 l
0.78 0.16 l
0.77 0.15 l
0.78 0.13 l
0.77 0.13 l
0.78 0.11 l
0.77 0.11 l
0.78 0.10 l
0.77 0.09 l
0.78 0.08 l
0.77 0.08 l
0.78 0.07 l
0.77 0.06 l
0.78 0.07 l
0.77 0.06 l
0.78 0.06 l
0.77 0.06 l
0.78 0.06 l
0.77 0.06 l
0.78 0.07 l
0.77 0.06 l
225.98 99.11 lineto
0.77 0.08 l
0.78 0.07 l
0.77 0.09 l
0.78 0.08 l
0.77 0.09 l
0.78 0.10 l
0.77 0.10 l
0.78 0.10 l
0.77 0.11 l
0.78 0.10 l
0.78 0.11 l
0.77 0.12 l
0.78 0.11 l
0.77 0.11 l
0.78 0.11 l
0.77 0.12 l
0.78 0.11 l
0.77 0.11 l
0.78 0.11 l
0.77 0.11 l
0.78 0.10 l
0.77 0.10 l
0.78 0.10 l
0.77 0.10 l
0.78 0.09 l
0.77 0.09 l
0.78 0.09 l
0.77 0.09 l
0.78 0.08 l
0.77 0.09 l
0.78 0.08 l
0.77 0.08 l
0.78 0.08 l
0.77 0.08 l
0.78 0.07 l
0.77 0.08 l
0.78 0.08 l
0.77 0.08 l
0.78 0.09 l
0.77 0.08 l
0.78 0.08 l
0.77 0.09 l
0.78 0.09 l
0.77 0.09 l
0.78 0.10 l
0.77 0.10 l
0.78 0.10 l
0.77 0.11 l
0.78 0.11 l
0.77 0.12 l
0.78 0.12 l
0.77 0.13 l
0.78 0.13 l
0.77 0.14 l
0.78 0.14 l
0.77 0.16 l
0.78 0.16 l
0.77 0.17 l
0.78 0.18 l
0.77 0.19 l
0.78 0.20 l
0.78 0.22 l
0.77 0.22 l
0.78 0.24 l
0.77 0.24 l
0.78 0.27 l
0.77 0.27 l
0.78 0.30 l
0.77 0.30 l
0.78 0.32 l
0.77 0.34 l
0.78 0.36 l
0.77 0.37 l
0.78 0.39 l
0.77 0.40 l
0.78 0.42 l
0.77 0.44 l
0.78 0.45 l
0.77 0.47 l
0.78 0.48 l
0.77 0.50 l
0.78 0.51 l
0.77 0.52 l
0.78 0.53 l
0.77 0.55 l
0.78 0.55 l
0.77 0.56 l
0.78 0.57 l
0.77 0.57 l
0.78 0.57 l
0.77 0.58 l
0.78 0.57 l
0.77 0.57 l
0.78 0.57 l
0.77 0.57 l
0.78 0.55 l
0.77 0.55 l
0.78 0.54 l
0.77 0.53 l
303.49 123.06 lineto
0.77 0.50 l
0.78 0.49 l
0.77 0.47 l
0.78 0.46 l
0.77 0.44 l
0.78 0.42 l
0.77 0.40 l
0.78 0.39 l
0.77 0.37 l
0.78 0.36 l
0.78 0.34 l
0.77 0.33 l
0.78 0.31 l
0.77 0.30 l
0.78 0.30 l
0.77 0.28 l
0.78 0.27 l
0.77 0.27 l
0.78 0.27 l
0.77 0.26 l
0.78 0.26 l
0.77 0.26 l
0.78 0.27 l
0.77 0.27 l
0.78 0.28 l
0.77 0.29 l
0.78 0.30 l
0.77 0.31 l
0.78 0.33 l
0.77 0.34 l
0.78 0.35 l
0.77 0.38 l
0.78 0.39 l
0.77 0.40 l
0.78 0.43 l
0.77 0.44 l
0.78 0.47 l
0.77 0.48 l
0.78 0.49 l
0.77 0.51 l
0.78 0.53 l
0.77 0.54 l
0.78 0.55 l
0.77 0.56 l
0.78 0.57 l
0.77 0.57 l
0.78 0.57 l
0.77 0.57 l
0.78 0.56 l
0.77 0.56 l
0.78 0.54 l
0.77 0.52 l
0.78 0.51 l
0.77 0.49 l
0.78 0.45 l
0.77 0.43 l
0.78 0.39 l
0.77 0.36 l
0.78 0.33 l
0.77 0.28 l
0.78 0.24 l
0.78 0.19 l
0.77 0.15 l
0.78 0.11 l
0.77 0.06 l
0.78 0.01 l
0.77 -0.04 l
0.78 -0.07 l
0.77 -0.12 l
0.78 -0.17 l
0.77 -0.21 l
0.78 -0.25 l
0.77 -0.28 l
0.78 -0.31 l
0.77 -0.35 l
0.78 -0.38 l
0.77 -0.41 l
0.78 -0.42 l
0.77 -0.46 l
0.78 -0.47 l
0.77 -0.49 l
0.78 -0.51 l
0.77 -0.52 l
0.78 -0.54 l
0.77 -0.54 l
0.78 -0.56 l
0.77 -0.57 l
0.78 -0.58 l
0.77 -0.58 l
0.78 -0.60 l
0.77 -0.60 l
0.78 -0.61 l
0.77 -0.62 l
0.78 -0.63 l
0.77 -0.65 l
0.78 -0.65 l
0.77 -0.66 l
0.78 -0.67 l
0.77 -0.68 l
381.00 132.29 lineto
0.77 -0.71 l
0.78 -0.72 l
0.77 -0.72 l
0.78 -0.75 l
0.77 -0.75 l
0.78 -0.77 l
0.77 -0.77 l
0.78 -0.79 l
0.77 -0.80 l
0.78 -0.81 l
0.78 -0.82 l
0.77 -0.83 l
0.78 -0.84 l
0.77 -0.85 l
0.78 -0.85 l
0.77 -0.86 l
0.78 -0.87 l
0.77 -0.87 l
0.78 -0.87 l
0.77 -0.88 l
0.78 -0.88 l
0.77 -0.88 l
0.78 -0.88 l
0.77 -0.88 l
0.78 -0.88 l
0.77 -0.88 l
0.78 -0.87 l
0.77 -0.87 l
0.78 -0.86 l
0.77 -0.85 l
0.78 -0.85 l
0.77 -0.84 l
0.78 -0.83 l
0.77 -0.82 l
0.78 -0.80 l
0.77 -0.80 l
0.78 -0.78 l
0.77 -0.77 l
0.78 -0.75 l
0.77 -0.74 l
0.78 -0.72 l
0.77 -0.70 l
0.78 -0.69 l
0.77 -0.67 l
0.78 -0.65 l
0.77 -0.64 l
0.78 -0.61 l
0.77 -0.60 l
0.78 -0.57 l
0.77 -0.55 l
0.78 -0.54 l
0.77 -0.52 l
0.78 -0.49 l
0.77 -0.47 l
0.78 -0.46 l
0.77 -0.43 l
0.78 -0.42 l
0.77 -0.39 l
0.78 -0.38 l
0.77 -0.36 l
0.78 -0.33 l
0.78 -0.33 l
0.77 -0.30 l
0.78 -0.28 l
0.77 -0.27 l
0.78 -0.26 l
0.77 -0.23 l
0.78 -0.23 l
0.77 -0.20 l
0.78 -0.20 l
0.77 -0.18 l
0.78 -0.17 l
0.77 -0.15 l
0.78 -0.14 l
0.77 -0.14 l
0.78 -0.12 l
0.77 -0.11 l
0.78 -0.11 l
0.77 -0.09 l
0.78 -0.09 l
0.77 -0.08 l
0.78 -0.07 l
0.77 -0.06 l
0.78 -0.06 l
0.77 -0.06 l
0.78 -0.05 l
0.77 -0.04 l
0.78 -0.04 l
0.77 -0.03 l
0.78 -0.03 l
0.77 -0.03 l
0.78 -0.03 l
0.77 -0.02 l
0.78 -0.02 l
0.77 -0.01 l
0.78 -0.02 l
0.77 -0.01 l
0.78 -0.01 l
0.77 -0.01 l
458.51 83.97 lineto
0.77 -0.01 l
0.78 0 l
0.77 -0.01 l
0.78 0 l
0.77 -0.01 l
0.78 0 l
0.77 0 l
0.78 -0.01 l
0.77 0 l
0.78 0 l
0.78 0 l
o
0 0 1 srgb
1.50 setlinewidth
[] 0 setdash
np
94.68 83.93 m
0.42 0.01 l
0.43 0 l
0.43 0.01 l
0.42 0.01 l
0.43 0.01 l
0.43 0.01 l
0.42 0.01 l
0.43 0.02 l
0.43 0.02 l
0.42 0.03 l
0.43 0.04 l
0.43 0.04 l
0.42 0.05 l
0.43 0.06 l
0.42 0.07 l
0.43 0.08 l
0.43 0.10 l
0.42 0.12 l
0.43 0.14 l
0.43 0.16 l
0.42 0.19 l
0.43 0.23 l
0.43 0.25 l
0.42 0.29 l
0.43 0.33 l
0.43 0.38 l
0.42 0.42 l
0.43 0.49 l
0.43 0.54 l
0.42 0.61 l
0.43 0.66 l
0.43 0.74 l
0.42 0.81 l
0.43 0.90 l
0.43 0.97 l
0.42 1.05 l
0.43 1.14 l
0.43 1.21 l
0.42 1.30 l
0.43 1.39 l
0.43 1.48 l
0.42 1.55 l
0.43 1.62 l
0.43 1.70 l
0.42 1.77 l
0.43 1.85 l
0.42 1.91 l
0.43 1.97 l
0.43 2.02 l
0.42 2.06 l
0.43 2.11 l
0.43 2.16 l
0.42 2.18 l
0.43 2.22 l
0.43 2.24 l
0.42 2.26 l
0.43 2.27 l
0.43 2.29 l
0.42 2.30 l
0.43 2.30 l
0.43 2.30 l
0.42 2.29 l
0.43 2.30 l
0.43 2.29 l
0.42 2.27 l
0.43 2.27 l
0.43 2.26 l
0.42 2.24 l
0.43 2.24 l
0.43 2.23 l
0.42 2.22 l
0.43 2.22 l
0.43 2.21 l
0.42 2.22 l
0.43 2.23 l
0.42 2.23 l
0.43 2.24 l
0.43 2.26 l
0.42 2.28 l
0.43 2.30 l
0.43 2.32 l
0.42 2.33 l
0.43 2.35 l
0.43 2.36 l
0.42 2.37 l
0.43 2.37 l
0.43 2.35 l
0.42 2.34 l
0.43 2.30 l
0.43 2.25 l
0.42 2.20 l
0.43 2.12 l
0.43 2.04 l
0.42 1.95 l
0.43 1.83 l
0.43 1.69 l
0.42 1.57 l
0.43 1.43 l
0.43 1.28 l
137.33 224.77 lineto
0.43 0.99 l
0.43 0.80 l
0.42 0.65 l
0.43 0.50 l
0.43 0.36 l
0.42 0.22 l
0.43 0.08 l
0.42 -0.07 l
0.43 -0.20 l
0.43 -0.30 l
0.42 -0.42 l
0.43 -0.51 l
0.43 -0.60 l
0.42 -0.71 l
0.43 -0.78 l
0.43 -0.85 l
0.42 -0.92 l
0.43 -0.96 l
0.43 -1.02 l
0.42 -1.07 l
0.43 -1.09 l
0.43 -1.12 l
0.42 -1.13 l
0.43 -1.14 l
0.43 -1.13 l
0.42 -1.12 l
0.43 -1.09 l
0.43 -1.05 l
0.42 -1.00 l
0.43 -0.95 l
0.43 -0.89 l
0.42 -0.83 l
0.43 -0.73 l
0.43 -0.66 l
0.42 -0.59 l
0.43 -0.51 l
0.43 -0.44 l
0.42 -0.37 l
0.43 -0.29 l
0.42 -0.25 l
0.43 -0.22 l
0.43 -0.18 l
0.42 -0.17 l
0.43 -0.18 l
0.43 -0.19 l
0.42 -0.22 l
0.43 -0.27 l
0.43 -0.34 l
0.42 -0.40 l
0.43 -0.48 l
0.43 -0.59 l
0.42 -0.70 l
0.43 -0.80 l
0.43 -0.92 l
0.42 -1.02 l
0.43 -1.13 l
0.43 -1.25 l
0.42 -1.37 l
0.43 -1.46 l
0.43 -1.54 l
0.42 -1.63 l
0.43 -1.69 l
0.43 -1.76 l
0.42 -1.82 l
0.43 -1.84 l
0.43 -1.87 l
0.42 -1.88 l
0.43 -1.89 l
0.43 -1.88 l
0.42 -1.86 l
0.43 -1.83 l
0.42 -1.81 l
0.43 -1.77 l
0.43 -1.72 l
0.42 -1.69 l
0.43 -1.62 l
0.43 -1.58 l
0.42 -1.52 l
0.43 -1.48 l
0.43 -1.43 l
0.42 -1.39 l
0.43 -1.33 l
0.43 -1.29 l
0.42 -1.25 l
0.43 -1.21 l
0.43 -1.19 l
0.42 -1.15 l
0.43 -1.12 l
0.43 -1.09 l
0.42 -1.06 l
0.43 -1.04 l
0.43 -1.02 l
0.42 -1.00 l
0.43 -0.98 l
0.43 -0.95 l
0.42 -0.92 l
0.43 -0.91 l
0.43 -0.88 l
0.42 -0.86 l
179.99 134.10 lineto
0.43 -0.81 l
0.42 -0.79 l
0.43 -0.76 l
0.42 -0.75 l
0.43 -0.73 l
0.43 -0.72 l
0.42 -0.70 l
0.43 -0.69 l
0.43 -0.69 l
0.42 -0.68 l
0.43 -0.68 l
0.43 -0.68 l
0.42 -0.69 l
0.43 -0.69 l
0.43 -0.69 l
0.42 -0.70 l
0.43 -0.71 l
0.43 -0.71 l
0.42 -0.70 l
0.43 -0.71 l
0.43 -0.70 l
0.42 -0.68 l
0.43 -0.68 l
0.43 -0.65 l
0.42 -0.63 l
0.43 -0.60 l
0.43 -0.56 l
0.42 -0.53 l
0.43 -0.49 l
0.43 -0.46 l
0.42 -0.41 l
0.43 -0.36 l
0.43 -0.33 l
0.42 -0.29 l
0.43 -0.25 l
0.42 -0.23 l
0.43 -0.20 l
0.43 -0.17 l
0.42 -0.16 l
0.43 -0.16 l
0.43 -0.15 l
0.42 -0.15 l
0.43 -0.16 l
0.43 -0.18 l
0.42 -0.19 l
0.43 -0.22 l
0.43 -0.24 l
0.42 -0.27 l
0.43 -0.29 l
0.43 -0.33 l
0.42 -0.36 l
0.43 -0.38 l
0.43 -0.41 l
0.42 -0.43 l
0.43 -0.45 l
0.43 -0.47 l
0.42 -0.48 l
0.43 -0.48 l
0.43 -0.50 l
0.42 -0.49 l
0.43 -0.49 l
0.43 -0.49 l
0.42 -0.48 l
0.43 -0.47 l
0.43 -0.46 l
0.42 -0.45 l
0.43 -0.44 l
0.42 -0.42 l
0.43 -0.41 l
0.43 -0.40 l
0.42 -0.39 l
0.43 -0.38 l
0.43 -0.37 l
0.42 -0.37 l
0.43 -0.36 l
0.43 -0.36 l
0.42 -0.37 l
0.43 -0.36 l
0.43 -0.36 l
0.42 -0.36 l
0.43 -0.36 l
0.43 -0.36 l
0.42 -0.36 l
0.43 -0.36 l
0.43 -0.36 l
0.42 -0.35 l
0.43 -0.34 l
0.43 -0.34 l
0.42 -0.32 l
0.43 -0.31 l
0.43 -0.30 l
0.42 -0.28 l
0.43 -0.27 l
0.43 -0.25 l
0.42 -0.23 l
0.43 -0.22 l
0.43 -0.20 l
0.42 -0.19 l
0.43 -0.18 l
222.64 90.72 lineto
0.43 -0.15 l
0.43 -0.14 l
0.42 -0.14 l
0.43 -0.13 l
0.43 -0.12 l
0.42 -0.12 l
0.43 -0.12 l
0.43 -0.11 l
0.42 -0.12 l
0.43 -0.12 l
0.43 -0.11 l
0.42 -0.12 l
0.43 -0.11 l
0.43 -0.11 l
0.42 -0.12 l
0.43 -0.11 l
0.43 -0.11 l
0.42 -0.11 l
0.43 -0.11 l
0.43 -0.10 l
0.42 -0.10 l
0.43 -0.10 l
0.43 -0.09 l
0.42 -0.09 l
0.43 -0.09 l
0.43 -0.08 l
0.42 -0.09 l
0.43 -0.08 l
0.43 -0.07 l
0.42 -0.08 l
0.43 -0.08 l
0.42 -0.07 l
0.43 -0.08 l
0.43 -0.08 l
0.42 -0.07 l
0.43 -0.08 l
0.43 -0.08 l
0.42 -0.08 l
0.43 -0.08 l
0.43 -0.08 l
0.42 -0.08 l
0.43 -0.08 l
0.43 -0.07 l
0.42 -0.08 l
0.43 -0.07 l
0.43 -0.08 l
0.42 -0.07 l
0.43 -0.06 l
0.43 -0.06 l
0.42 -0.05 l
0.43 -0.05 l
0.43 -0.05 l
0.42 -0.03 l
0.43 -0.03 l
0.43 -0.03 l
0.42 -0.02 l
0.43 -0.01 l
0.43 0 l
0.42 0 l
0.43 0.01 l
0.43 0.01 l
0.42 0.02 l
0.43 0.03 l
0.42 0.02 l
0.43 0.03 l
0.43 0.04 l
0.42 0.03 l
0.43 0.03 l
0.43 0.03 l
0.42 0.03 l
0.43 0.03 l
0.43 0.02 l
0.42 0.02 l
0.43 0.01 l
0.43 0 l
0.42 0 l
0.43 -0.02 l
0.43 -0.02 l
0.42 -0.03 l
0.43 -0.04 l
0.43 -0.04 l
0.42 -0.06 l
0.43 -0.06 l
0.43 -0.07 l
0.42 -0.07 l
0.43 -0.08 l
0.43 -0.09 l
0.42 -0.08 l
0.43 -0.09 l
0.43 -0.08 l
0.42 -0.09 l
0.43 -0.08 l
0.43 -0.07 l
0.42 -0.07 l
0.43 -0.07 l
0.42 -0.06 l
0.43 -0.06 l
0.43 -0.05 l
0.42 -0.04 l
265.30 84.68 lineto
0.43 -0.03 l
0.42 -0.03 l
0.43 -0.01 l
0.43 -0.02 l
0.42 -0.01 l
0.43 0 l
0.43 -0.01 l
0.42 0 l
0.43 0 l
0.43 -0.01 l
0.42 0 l
0.43 0 l
0.43 -0.01 l
0.42 0 l
0.43 -0.01 l
0.43 -0.02 l
0.42 -0.01 l
0.43 -0.02 l
0.43 -0.02 l
0.42 -0.02 l
0.43 -0.02 l
0.43 -0.03 l
0.42 -0.03 l
0.43 -0.03 l
0.43 -0.03 l
0.42 -0.02 l
0.43 -0.03 l
0.42 -0.03 l
0.43 -0.03 l
0.43 -0.03 l
0.42 -0.02 l
0.43 -0.03 l
0.43 -0.02 l
0.42 -0.02 l
0.43 -0.02 l
0.43 -0.02 l
0.42 -0.01 l
0.43 -0.01 l
0.43 -0.01 l
0.42 -0.01 l
0.43 -0.01 l
0.43 0 l
0.42 -0.01 l
0.43 0 l
0.43 0 l
0.42 0.01 l
0.43 0 l
0.43 0.01 l
0.42 0.01 l
0.43 0.01 l
0.43 0.01 l
0.42 0.02 l
0.43 0.01 l
0.43 0.02 l
0.42 0.02 l
0.43 0.03 l
0.43 0.02 l
0.42 0.03 l
0.43 0.02 l
0.42 0.03 l
0.43 0.03 l
0.43 0.03 l
0.42 0.03 l
0.43 0.03 l
0.43 0.02 l
0.42 0.03 l
0.43 0.02 l
0.43 0.03 l
0.42 0.01 l
0.43 0.02 l
0.43 0.01 l
0.42 0.01 l
0.43 0.01 l
0.43 0 l
0.42 0 l
0.43 -0.01 l
0.43 0 l
0.42 -0.02 l
0.43 -0.01 l
0.43 -0.02 l
0.42 -0.02 l
0.43 -0.03 l
0.43 -0.02 l
0.42 -0.03 l
0.43 -0.03 l
0.43 -0.03 l
0.42 -0.03 l
0.43 -0.03 l
0.43 -0.02 l
0.42 -0.03 l
0.43 -0.03 l
0.42 -0.02 l
0.43 -0.03 l
0.43 -0.02 l
0.42 -0.02 l
0.43 -0.02 l
0.43 -0.01 l
0.42 -0.02 l
0.43 -0.01 l
307.96 83.99 lineto
0.42 -0.01 l
0.43 -0.01 l
0.43 -0.01 l
0.42 -0.01 l
0.43 0 l
0.43 -0.01 l
0.42 0 l
0.43 0 l
0.43 -0.01 l
0.42 0 l
0.43 0 l
o
1.50 setlinewidth
[ 4.50 7.50] 0 setdash
np
125.73 83.93 m
0.67 0 l
0.67 0 l
0.67 0 l
0.68 0 l
0.67 0 l
0.67 0.01 l
0.67 0 l
0.67 0 l
0.67 0 l
0.67 0.01 l
0.67 0 l
0.68 0.01 l
0.67 0.01 l
0.67 0 l
0.67 0.01 l
0.67 0.01 l
0.67 0.01 l
0.67 0.01 l
0.68 0.01 l
0.67 0.01 l
0.67 0.01 l
0.67 0.02 l
0.67 0.01 l
0.67 0.02 l
0.67 0.01 l
0.68 0.02 l
0.67 0.01 l
0.67 0.02 l
0.67 0.01 l
0.67 0.02 l
0.67 0.01 l
0.67 0.01 l
0.68 0.02 l
0.67 0.01 l
0.67 0.01 l
0.67 0.01 l
0.67 0.01 l
0.67 0 l
0.67 0.01 l
0.67 0 l
0.68 0 l
0.67 0 l
0.67 0 l
0.67 0 l
0.67 -0.01 l
0.67 0 l
0.67 -0.01 l
0.68 -0.01 l
0.67 0 l
0.67 -0.01 l
0.67 -0.01 l
0.67 -0.01 l
0.67 0 l
0.67 -0.01 l
0.68 -0.01 l
0.67 0 l
0.67 0 l
0.67 -0.01 l
0.67 0 l
0.67 0 l
0.67 0 l
0.68 0.01 l
0.67 0 l
0.67 0.01 l
0.67 0 l
0.67 0.01 l
0.67 0.01 l
0.67 0.01 l
0.67 0 l
0.68 0.01 l
0.67 0.01 l
0.67 0.01 l
0.67 0 l
0.67 0.01 l
0.67 0 l
0.67 0.01 l
0.68 0 l
0.67 0 l
0.67 0 l
0.67 0 l
0.67 -0.01 l
0.67 0 l
0.67 0 l
0.68 -0.01 l
0.67 0 l
0.67 -0.01 l
0.67 -0.01 l
0.67 0 l
0.67 -0.01 l
0.67 0 l
0.68 0 l
0.67 0 l
0.67 0 l
0.67 0 l
0.67 0.01 l
0.67 0.01 l
0.67 0.01 l
0.67 0.02 l
0.68 0.02 l
192.87 84.32 lineto
0.67 0.03 l
0.67 0.03 l
0.67 0.04 l
0.67 0.05 l
0.67 0.05 l
0.68 0.05 l
0.67 0.06 l
0.67 0.06 l
0.67 0.07 l
0.67 0.07 l
0.67 0.08 l
0.67 0.08 l
0.68 0.09 l
0.67 0.09 l
0.67 0.09 l
0.67 0.10 l
0.67 0.09 l
0.67 0.10 l
0.67 0.10 l
0.68 0.09 l
0.67 0.10 l
0.67 0.09 l
0.67 0.09 l
0.67 0.08 l
0.67 0.08 l
0.67 0.07 l
0.67 0.06 l
0.68 0.06 l
0.67 0.05 l
0.67 0.04 l
0.67 0.03 l
0.67 0.01 l
0.67 0.01 l
0.67 0 l
0.68 -0.01 l
0.67 -0.02 l
0.67 -0.03 l
0.67 -0.04 l
0.67 -0.05 l
0.67 -0.05 l
0.67 -0.06 l
0.68 -0.07 l
0.67 -0.08 l
0.67 -0.07 l
0.67 -0.09 l
0.67 -0.08 l
0.67 -0.08 l
0.67 -0.09 l
0.67 -0.09 l
0.68 -0.08 l
0.67 -0.08 l
0.67 -0.08 l
0.67 -0.07 l
0.67 -0.07 l
0.67 -0.07 l
0.67 -0.06 l
0.68 -0.05 l
0.67 -0.05 l
0.67 -0.04 l
0.67 -0.03 l
0.67 -0.03 l
0.67 -0.02 l
0.67 -0.01 l
0.68 -0.01 l
0.67 0 l
0.67 0.01 l
0.67 0.01 l
0.67 0.02 l
0.67 0.03 l
0.67 0.04 l
0.68 0.04 l
0.67 0.04 l
0.67 0.06 l
0.67 0.06 l
0.67 0.06 l
0.67 0.07 l
0.67 0.08 l
0.67 0.08 l
0.68 0.10 l
0.67 0.09 l
0.67 0.11 l
0.67 0.11 l
0.67 0.13 l
0.67 0.13 l
0.67 0.13 l
0.68 0.15 l
0.67 0.15 l
0.67 0.17 l
0.67 0.17 l
0.67 0.18 l
0.67 0.18 l
0.67 0.19 l
0.68 0.20 l
0.67 0.19 l
0.67 0.21 l
0.67 0.20 l
0.67 0.20 l
0.67 0.21 l
0.67 0.20 l
260.01 89.05 lineto
0.67 0.19 l
0.67 0.19 l
0.67 0.18 l
0.67 0.17 l
0.67 0.16 l
0.67 0.16 l
0.67 0.15 l
0.68 0.14 l
0.67 0.13 l
0.67 0.13 l
0.67 0.12 l
0.67 0.11 l
0.67 0.11 l
0.67 0.11 l
0.68 0.11 l
0.67 0.10 l
0.67 0.11 l
0.67 0.11 l
0.67 0.11 l
0.67 0.12 l
0.67 0.12 l
0.68 0.13 l
0.67 0.14 l
0.67 0.15 l
0.67 0.16 l
0.67 0.17 l
0.67 0.17 l
0.67 0.20 l
0.68 0.20 l
0.67 0.22 l
0.67 0.24 l
0.67 0.25 l
0.67 0.26 l
0.67 0.28 l
0.67 0.31 l
0.67 0.31 l
0.68 0.34 l
0.67 0.36 l
0.67 0.38 l
0.67 0.40 l
0.67 0.43 l
0.67 0.44 l
0.67 0.46 l
0.68 0.48 l
0.67 0.51 l
0.67 0.52 l
0.67 0.54 l
0.67 0.55 l
0.67 0.56 l
0.67 0.57 l
0.68 0.58 l
0.67 0.58 l
0.67 0.57 l
0.67 0.57 l
0.67 0.57 l
0.67 0.55 l
0.67 0.53 l
0.68 0.51 l
0.67 0.50 l
0.67 0.47 l
0.67 0.45 l
0.67 0.42 l
0.67 0.39 l
0.67 0.37 l
0.67 0.34 l
0.68 0.31 l
0.67 0.29 l
0.67 0.26 l
0.67 0.25 l
0.67 0.22 l
0.67 0.21 l
0.67 0.19 l
0.68 0.18 l
0.67 0.17 l
0.67 0.16 l
0.67 0.16 l
0.67 0.16 l
0.67 0.16 l
0.67 0.16 l
0.68 0.16 l
0.67 0.17 l
0.67 0.17 l
0.67 0.18 l
0.67 0.19 l
0.67 0.19 l
0.67 0.20 l
0.67 0.21 l
0.68 0.22 l
0.67 0.22 l
0.67 0.24 l
0.67 0.24 l
0.67 0.26 l
0.67 0.27 l
0.67 0.28 l
0.68 0.29 l
0.67 0.30 l
0.67 0.33 l
0.67 0.34 l
0.67 0.35 l
327.14 117.07 lineto
0.67 0.39 l
0.68 0.41 l
0.67 0.43 l
0.67 0.44 l
0.67 0.47 l
0.67 0.47 l
0.67 0.49 l
0.67 0.51 l
0.68 0.52 l
0.67 0.52 l
0.67 0.53 l
0.67 0.54 l
0.67 0.54 l
0.67 0.54 l
0.67 0.55 l
0.67 0.54 l
0.68 0.53 l
0.67 0.53 l
0.67 0.53 l
0.67 0.52 l
0.67 0.52 l
0.67 0.52 l
0.67 0.51 l
0.68 0.52 l
0.67 0.51 l
0.67 0.52 l
0.67 0.52 l
0.67 0.53 l
0.67 0.53 l
0.67 0.55 l
0.68 0.57 l
0.67 0.58 l
0.67 0.60 l
0.67 0.61 l
0.67 0.64 l
0.67 0.65 l
0.67 0.68 l
0.68 0.71 l
0.67 0.72 l
0.67 0.74 l
0.67 0.76 l
0.67 0.78 l
0.67 0.81 l
0.67 0.82 l
0.67 0.83 l
0.68 0.85 l
0.67 0.86 l
0.67 0.87 l
0.67 0.89 l
0.67 0.89 l
0.67 0.90 l
0.67 0.90 l
0.68 0.90 l
0.67 0.91 l
0.67 0.90 l
0.67 0.89 l
0.67 0.89 l
0.67 0.88 l
0.67 0.86 l
0.68 0.84 l
0.67 0.82 l
0.67 0.80 l
0.67 0.76 l
0.67 0.74 l
0.67 0.69 l
0.67 0.65 l
0.68 0.61 l
0.67 0.57 l
0.67 0.52 l
0.67 0.47 l
0.67 0.42 l
0.67 0.38 l
0.67 0.32 l
0.67 0.29 l
0.68 0.25 l
0.67 0.21 l
0.67 0.18 l
0.67 0.15 l
0.67 0.13 l
0.67 0.11 l
0.67 0.11 l
0.68 0.09 l
0.67 0.10 l
0.67 0.10 l
0.67 0.11 l
0.67 0.12 l
0.67 0.13 l
0.67 0.15 l
0.68 0.16 l
0.67 0.17 l
0.67 0.17 l
0.67 0.18 l
0.67 0.19 l
0.67 0.18 l
0.67 0.17 l
0.68 0.15 l
0.67 0.13 l
0.67 0.10 l
0.67 0.07 l
394.28 167.71 lineto
0.67 -0.03 l
0.67 -0.07 l
0.67 -0.13 l
0.68 -0.18 l
0.67 -0.25 l
0.67 -0.32 l
0.67 -0.38 l
0.67 -0.45 l
0.67 -0.51 l
0.67 -0.57 l
0.68 -0.65 l
0.67 -0.72 l
0.67 -0.77 l
0.67 -0.84 l
0.67 -0.89 l
0.67 -0.94 l
0.67 -1.01 l
0.68 -1.07 l
0.67 -1.11 l
0.67 -1.16 l
0.67 -1.21 l
0.67 -1.26 l
0.67 -1.30 l
0.67 -1.36 l
0.67 -1.39 l
0.68 -1.43 l
0.67 -1.47 l
0.67 -1.51 l
0.67 -1.54 l
0.67 -1.59 l
0.67 -1.60 l
0.67 -1.64 l
0.68 -1.66 l
0.67 -1.69 l
0.67 -1.71 l
0.67 -1.72 l
0.67 -1.73 l
0.67 -1.74 l
0.67 -1.75 l
0.68 -1.74 l
0.67 -1.74 l
0.67 -1.73 l
0.67 -1.72 l
0.67 -1.70 l
0.67 -1.67 l
0.67 -1.65 l
0.68 -1.62 l
0.67 -1.58 l
0.67 -1.54 l
0.67 -1.51 l
0.67 -1.46 l
0.67 -1.40 l
0.67 -1.36 l
0.67 -1.31 l
0.68 -1.26 l
0.67 -1.20 l
0.67 -1.14 l
0.67 -1.08 l
0.67 -1.03 l
0.67 -0.98 l
0.67 -0.92 l
0.68 -0.87 l
0.67 -0.81 l
0.67 -0.76 l
0.67 -0.71 l
0.67 -0.66 l
0.67 -0.63 l
0.67 -0.57 l
0.68 -0.53 l
0.67 -0.49 l
0.67 -0.46 l
0.67 -0.43 l
0.67 -0.39 l
0.67 -0.36 l
0.67 -0.33 l
0.68 -0.30 l
0.67 -0.28 l
0.67 -0.26 l
0.67 -0.23 l
0.67 -0.22 l
0.67 -0.19 l
0.67 -0.18 l
0.67 -0.16 l
0.68 -0.15 l
0.67 -0.13 l
0.67 -0.12 l
0.67 -0.11 l
0.67 -0.09 l
0.67 -0.09 l
0.67 -0.08 l
0.68 -0.07 l
0.67 -0.06 l
0.67 -0.05 l
0.67 -0.05 l
0.67 -0.04 l
0.67 -0.04 l
0.67 -0.03 l
0.68 -0.02 l
0.67 -0.03 l
461.42 84.02 lineto
0.67 -0.01 l
0.67 -0.02 l
0.67 -0.01 l
0.67 -0.01 l
0.68 -0.01 l
0.67 -0.01 l
0.67 0 l
0.67 -0.01 l
0.67 0 l
0.67 0 l
0.67 -0.01 l
o
0.00 0.00 579.75 415.50 cl
/Font2 findfont 14 s
0 0 0 srgb
304.27 380.95 (Aneboda) .5 0 t
59.04 73.44 549.51 356.46 cl
/bg { 1 1 1 srgb } def
0 0 0 srgb
0.75 setlinewidth
[] 0 setdash
1 setlinecap
1 setlinejoin
10.00 setmiterlimit
379.96 315.15 87.63 -34.56 r p3
np
388.60 303.63 m
17.28 0 l
o
0.75 setlinewidth
[ 2.25 3.75] 0 setdash
np
388.60 292.11 m
17.28 0 l
o
/Font1 findfont 10 s
414.52 300.04 (T) 0 ta
-1.200 (ur) tb
0.250 (no) tb
-0.150 (v) tb
-0.250 (er) tb gr
414.52 288.52 (Nestedness) 0 0 t
0.75 setlinewidth
[] 0 setdash
379.96 268.90 59.88 -57.60 r p3
0.6000 0.6000 0.6000 srgb
np
388.60 257.38 m
17.28 0 l
o
1 0 0 srgb
np
388.60 245.86 m
17.28 0 l
o
0 1 0 srgb
np
388.60 234.34 m
17.28 0 l
o
0 0 1 srgb
np
388.60 222.82 m
17.28 0 l
o
0 0 0 srgb
414.52 253.79 (1997) 0 0 t
414.52 242.27 (2002) 0 0 t
414.52 230.75 (2007) 0 0 t
414.52 219.23 (2012) 0 0 t
ep
%%Trailer
%%Pages: 1
%%EOF
