%!PS-Adobe-3.0 EPSF-3.0
%%DocumentNeededResources: font Helvetica
%%+ font Helvetica-Bold
%%+ font Helvetica-Oblique
%%+ font Helvetica-BoldOblique
%%+ font Symbol
%%Title: R Graphics Output
%%Creator: R Software
%%Pages: (atend)
%%BoundingBox: 0 0 580 415
%%EndComments
%%BeginProlog
/bp  { gs sRGB gs } def
% begin .ps.prolog
/gs  { gsave } bind def
/gr  { grestore } bind def
/ep  { showpage gr gr } bind def
/m   { moveto } bind def
/l  { rlineto } bind def
/np  { newpath } bind def
/cp  { closepath } bind def
/f   { fill } bind def
/o   { stroke } bind def
/c   { newpath 0 360 arc } bind def
/r   { 4 2 roll moveto 1 copy 3 -1 roll exch 0 exch rlineto 0 rlineto -1 mul 0 exch rlineto closepath } bind def
/p1  { stroke } bind def
/p2  { gsave bg fill grestore newpath } bind def
/p3  { gsave bg fill grestore stroke } bind def
/p6  { gsave bg eofill grestore newpath } bind def
/p7  { gsave bg eofill grestore stroke } bind def
/t   { 5 -2 roll moveto gsave rotate
       1 index stringwidth pop
       mul neg 0 rmoveto show grestore } bind def
/ta  { 4 -2 roll moveto gsave rotate show } bind def
/tb  { 2 -1 roll 0 rmoveto show } bind def
/cl  { grestore gsave newpath 3 index 3 index moveto 1 index
       4 -1 roll lineto  exch 1 index lineto lineto
       closepath clip newpath } bind def
/rgb { setrgbcolor } bind def
/s   { scalefont setfont } bind def
% end   .ps.prolog
/sRGB { [ /CIEBasedABC
          << /DecodeLMN
               [ { dup 0.03928 le
                        {12.92321 div}
                        {0.055 add 1.055 div 2.4 exp }
                     ifelse
                 } bind dup dup
               ]
             /MatrixLMN [0.412457 0.212673 0.019334
                         0.357576 0.715152 0.119192
                         0.180437 0.072175 0.950301]
             /WhitePoint [0.9505 1.0 1.0890]
           >>
         ] setcolorspace } bind def
/srgb { setcolor } bind def
%%IncludeResource: font Helvetica
/Helvetica findfont
dup length dict begin
  {1 index /FID ne {def} {pop pop} ifelse} forall
  /Encoding ISOLatin1Encoding def
  currentdict
  end
/Font1 exch definefont pop
%%IncludeResource: font Helvetica-Bold
/Helvetica-Bold findfont
dup length dict begin
  {1 index /FID ne {def} {pop pop} ifelse} forall
  /Encoding ISOLatin1Encoding def
  currentdict
  end
/Font2 exch definefont pop
%%IncludeResource: font Helvetica-Oblique
/Helvetica-Oblique findfont
dup length dict begin
  {1 index /FID ne {def} {pop pop} ifelse} forall
  /Encoding ISOLatin1Encoding def
  currentdict
  end
/Font3 exch definefont pop
%%IncludeResource: font Helvetica-BoldOblique
/Helvetica-BoldOblique findfont
dup length dict begin
  {1 index /FID ne {def} {pop pop} ifelse} forall
  /Encoding ISOLatin1Encoding def
  currentdict
  end
/Font4 exch definefont pop
%%IncludeResource: font Symbol
/Symbol findfont
dup length dict begin
  {1 index /FID ne {def} {pop pop} ifelse} forall
  currentdict
  end
/Font5 exch definefont pop
%%EndProlog
0.00 0.00 579.75 415.50 cl
%%Page: 1 1
bp
/bg { 1 1 1 srgb } def
0.00 0.00 579.75 415.50 r p2
59.04 73.44 549.51 356.46 cl
0.6000 0.6000 0.6000 srgb
1.50 setlinewidth
[] 0 setdash
1 setlinecap
1 setlinejoin
10.00 setmiterlimit
np
114.52 83.93 m
0.65 0 l
0.65 0 l
0.65 0.01 l
0.65 0 l
0.65 0 l
0.65 0.01 l
0.65 0 l
0.65 0.01 l
0.65 0 l
0.65 0.01 l
0.65 0.01 l
0.65 0.01 l
0.65 0.01 l
0.65 0.02 l
0.65 0.01 l
0.65 0.02 l
0.65 0.02 l
0.65 0.02 l
0.64 0.03 l
0.65 0.03 l
0.65 0.03 l
0.65 0.03 l
0.65 0.04 l
0.65 0.04 l
0.65 0.05 l
0.65 0.05 l
0.65 0.05 l
0.65 0.06 l
0.65 0.07 l
0.65 0.07 l
0.65 0.08 l
0.65 0.08 l
0.65 0.09 l
0.65 0.10 l
0.65 0.10 l
0.65 0.11 l
0.65 0.12 l
0.65 0.13 l
0.65 0.15 l
0.64 0.15 l
0.65 0.16 l
0.65 0.17 l
0.65 0.20 l
0.65 0.20 l
0.65 0.22 l
0.65 0.24 l
0.65 0.25 l
0.65 0.28 l
0.65 0.30 l
0.65 0.32 l
0.65 0.34 l
0.65 0.37 l
0.65 0.39 l
0.65 0.43 l
0.65 0.45 l
0.65 0.48 l
0.65 0.52 l
0.65 0.54 l
0.65 0.58 l
0.65 0.61 l
0.65 0.65 l
0.64 0.67 l
0.65 0.71 l
0.65 0.75 l
0.65 0.78 l
0.65 0.81 l
0.65 0.84 l
0.65 0.87 l
0.65 0.91 l
0.65 0.93 l
0.65 0.97 l
0.65 0.98 l
0.65 1.01 l
0.65 1.04 l
0.65 1.06 l
0.65 1.08 l
0.65 1.09 l
0.65 1.12 l
0.65 1.12 l
0.65 1.15 l
0.65 1.16 l
0.65 1.16 l
0.65 1.18 l
0.64 1.18 l
0.65 1.20 l
0.65 1.20 l
0.65 1.20 l
0.65 1.21 l
0.65 1.21 l
0.65 1.21 l
0.65 1.21 l
0.65 1.21 l
0.65 1.21 l
0.65 1.20 l
0.65 1.20 l
0.65 1.19 l
0.65 1.18 l
0.65 1.17 l
0.65 1.16 l
179.48 135.13 lineto
0.65 1.13 l
0.65 1.11 l
0.65 1.09 l
0.65 1.07 l
0.64 1.06 l
0.65 1.02 l
0.65 1.00 l
0.65 0.97 l
0.65 0.94 l
0.65 0.92 l
0.65 0.89 l
0.65 0.85 l
0.65 0.81 l
0.65 0.79 l
0.65 0.75 l
0.65 0.73 l
0.65 0.68 l
0.65 0.66 l
0.65 0.62 l
0.65 0.59 l
0.65 0.57 l
0.65 0.53 l
0.65 0.51 l
0.65 0.48 l
0.65 0.45 l
0.65 0.44 l
0.64 0.41 l
0.65 0.39 l
0.65 0.37 l
0.65 0.35 l
0.65 0.34 l
0.65 0.32 l
0.65 0.31 l
0.65 0.30 l
0.65 0.29 l
0.65 0.28 l
0.65 0.27 l
0.65 0.27 l
0.65 0.26 l
0.65 0.25 l
0.65 0.26 l
0.65 0.24 l
0.65 0.25 l
0.65 0.25 l
0.65 0.24 l
0.65 0.25 l
0.65 0.26 l
0.65 0.25 l
0.64 0.26 l
0.65 0.26 l
0.65 0.28 l
0.65 0.27 l
0.65 0.29 l
0.65 0.29 l
0.65 0.29 l
0.65 0.31 l
0.65 0.31 l
0.65 0.31 l
0.65 0.32 l
0.65 0.32 l
0.65 0.32 l
0.65 0.32 l
0.65 0.31 l
0.65 0.30 l
0.65 0.29 l
0.65 0.28 l
0.65 0.25 l
0.65 0.24 l
0.65 0.21 l
0.64 0.18 l
0.65 0.15 l
0.65 0.10 l
0.65 0.07 l
0.65 0.04 l
0.65 -0.02 l
0.65 -0.06 l
0.65 -0.11 l
0.65 -0.16 l
0.65 -0.21 l
0.65 -0.26 l
0.65 -0.30 l
0.65 -0.36 l
0.65 -0.41 l
0.65 -0.45 l
0.65 -0.50 l
0.65 -0.53 l
0.65 -0.58 l
0.65 -0.62 l
0.65 -0.65 l
0.65 -0.68 l
0.65 -0.70 l
0.64 -0.74 l
0.65 -0.76 l
0.65 -0.78 l
0.65 -0.79 l
0.65 -0.81 l
0.65 -0.82 l
0.65 -0.84 l
0.65 -0.84 l
244.43 154.94 lineto
0.65 -0.85 l
0.65 -0.86 l
0.65 -0.86 l
0.65 -0.86 l
0.65 -0.85 l
0.65 -0.86 l
0.65 -0.86 l
0.65 -0.85 l
0.65 -0.85 l
0.65 -0.84 l
0.65 -0.83 l
0.65 -0.83 l
0.65 -0.81 l
0.64 -0.81 l
0.65 -0.80 l
0.65 -0.78 l
0.65 -0.77 l
0.65 -0.76 l
0.65 -0.74 l
0.65 -0.72 l
0.65 -0.71 l
0.65 -0.69 l
0.65 -0.67 l
0.65 -0.65 l
0.65 -0.64 l
0.65 -0.62 l
0.65 -0.60 l
0.65 -0.58 l
0.65 -0.57 l
0.65 -0.55 l
0.65 -0.54 l
0.65 -0.52 l
0.65 -0.52 l
0.65 -0.50 l
0.64 -0.49 l
0.65 -0.48 l
0.65 -0.47 l
0.65 -0.47 l
0.65 -0.47 l
0.65 -0.45 l
0.65 -0.46 l
0.65 -0.45 l
0.65 -0.44 l
0.65 -0.45 l
0.65 -0.44 l
0.65 -0.44 l
0.65 -0.44 l
0.65 -0.43 l
0.65 -0.44 l
0.65 -0.43 l
0.65 -0.42 l
0.65 -0.43 l
0.65 -0.42 l
0.65 -0.42 l
0.65 -0.42 l
0.65 -0.42 l
0.64 -0.41 l
0.65 -0.42 l
0.65 -0.42 l
0.65 -0.42 l
0.65 -0.42 l
0.65 -0.43 l
0.65 -0.44 l
0.65 -0.45 l
0.65 -0.45 l
0.65 -0.46 l
0.65 -0.48 l
0.65 -0.48 l
0.65 -0.50 l
0.65 -0.52 l
0.65 -0.52 l
0.65 -0.54 l
0.65 -0.55 l
0.65 -0.56 l
0.65 -0.58 l
0.65 -0.58 l
0.65 -0.59 l
0.65 -0.59 l
0.64 -0.59 l
0.65 -0.60 l
0.65 -0.59 l
0.65 -0.59 l
0.65 -0.58 l
0.65 -0.57 l
0.65 -0.56 l
0.65 -0.54 l
0.65 -0.52 l
0.65 -0.51 l
0.65 -0.48 l
0.65 -0.46 l
0.65 -0.44 l
0.65 -0.42 l
0.65 -0.39 l
0.65 -0.37 l
0.65 -0.34 l
0.65 -0.32 l
0.65 -0.30 l
0.65 -0.29 l
0.65 -0.26 l
309.38 99.64 lineto
0.65 -0.22 l
0.65 -0.22 l
0.65 -0.20 l
0.65 -0.19 l
0.65 -0.18 l
0.65 -0.18 l
0.65 -0.17 l
0.65 -0.16 l
0.65 -0.16 l
0.65 -0.16 l
0.65 -0.17 l
0.65 -0.16 l
0.65 -0.16 l
0.65 -0.16 l
0.65 -0.17 l
0.65 -0.17 l
0.65 -0.17 l
0.65 -0.18 l
0.65 -0.18 l
0.65 -0.18 l
0.65 -0.19 l
0.64 -0.19 l
0.65 -0.19 l
0.65 -0.20 l
0.65 -0.21 l
0.65 -0.20 l
0.65 -0.21 l
0.65 -0.22 l
0.65 -0.22 l
0.65 -0.22 l
0.65 -0.22 l
0.65 -0.23 l
0.65 -0.23 l
0.65 -0.23 l
0.65 -0.23 l
0.65 -0.23 l
0.65 -0.24 l
0.65 -0.23 l
0.65 -0.23 l
0.65 -0.23 l
0.65 -0.23 l
0.65 -0.23 l
0.65 -0.22 l
0.64 -0.22 l
0.65 -0.22 l
0.65 -0.21 l
0.65 -0.20 l
0.65 -0.20 l
0.65 -0.20 l
0.65 -0.18 l
0.65 -0.19 l
0.65 -0.17 l
0.65 -0.17 l
0.65 -0.17 l
0.65 -0.15 l
0.65 -0.16 l
0.65 -0.15 l
0.65 -0.14 l
0.65 -0.13 l
0.65 -0.14 l
0.65 -0.13 l
0.65 -0.12 l
0.65 -0.12 l
0.65 -0.12 l
0.65 -0.11 l
0.64 -0.12 l
0.65 -0.10 l
0.65 -0.11 l
0.65 -0.10 l
0.65 -0.09 l
0.65 -0.10 l
0.65 -0.09 l
0.65 -0.08 l
0.65 -0.08 l
0.65 -0.08 l
0.65 -0.07 l
0.65 -0.07 l
0.65 -0.07 l
0.65 -0.06 l
0.65 -0.05 l
0.65 -0.05 l
0.65 -0.05 l
0.65 -0.04 l
0.65 -0.04 l
0.65 -0.04 l
0.65 -0.03 l
0.64 -0.04 l
0.65 -0.03 l
0.65 -0.03 l
0.65 -0.02 l
0.65 -0.03 l
0.65 -0.03 l
0.65 -0.03 l
0.65 -0.03 l
0.65 -0.03 l
0.65 -0.04 l
0.65 -0.03 l
0.65 -0.04 l
0.65 -0.04 l
374.34 85.49 lineto
0.65 -0.04 l
0.65 -0.04 l
0.65 -0.05 l
0.65 -0.04 l
0.65 -0.05 l
0.65 -0.05 l
0.65 -0.05 l
0.65 -0.05 l
0.64 -0.04 l
0.65 -0.05 l
0.65 -0.05 l
0.65 -0.04 l
0.65 -0.05 l
0.65 -0.04 l
0.65 -0.04 l
0.65 -0.04 l
0.65 -0.04 l
0.65 -0.04 l
0.65 -0.03 l
0.65 -0.03 l
0.65 -0.04 l
0.65 -0.03 l
0.65 -0.02 l
0.65 -0.03 l
0.65 -0.03 l
0.65 -0.02 l
0.65 -0.03 l
0.65 -0.02 l
0.65 -0.02 l
0.65 -0.03 l
0.64 -0.02 l
0.65 -0.02 l
0.65 -0.01 l
0.65 -0.02 l
0.65 -0.02 l
0.65 -0.01 l
0.65 -0.02 l
0.65 -0.01 l
0.65 -0.01 l
0.65 -0.01 l
0.65 -0.01 l
0.65 -0.01 l
0.65 0 l
0.65 -0.01 l
0.65 0 l
0.65 0 l
0.65 0 l
0.65 0 l
0.65 0 l
0.65 0.01 l
0.65 0 l
0.64 0.01 l
0.65 0.01 l
0.65 0.01 l
0.65 0.01 l
0.65 0 l
0.65 0.01 l
0.65 0.01 l
0.65 0.01 l
0.65 0.01 l
0.65 0 l
0.65 0.01 l
0.65 0.01 l
0.65 0 l
0.65 0 l
0.65 0 l
0.65 0 l
0.65 0 l
0.65 0 l
0.65 -0.01 l
0.65 0 l
0.65 -0.01 l
0.65 -0.01 l
0.64 -0.01 l
0.65 -0.01 l
0.65 -0.01 l
0.65 -0.02 l
0.65 -0.01 l
0.65 -0.02 l
0.65 -0.01 l
0.65 -0.02 l
0.65 -0.01 l
0.65 -0.02 l
0.65 -0.01 l
0.65 -0.02 l
0.65 -0.01 l
0.65 -0.01 l
0.65 -0.02 l
0.65 -0.01 l
0.65 -0.01 l
0.65 -0.01 l
0.65 -0.01 l
0.65 -0.01 l
0.65 -0.01 l
0.65 -0.01 l
0.64 -0.01 l
0.65 0 l
0.65 -0.01 l
0.65 0 l
439.29 83.95 lineto
0.65 0 l
0.65 -0.01 l
0.65 0 l
0.65 0 l
0.65 0 l
0.65 -0.01 l
0.65 0 l
0.65 0 l
0.65 0 l
0.65 0 l
0.65 0 l
o
0.00 0.00 579.75 415.50 cl
0 0 0 srgb
0.75 setlinewidth
[] 0 setdash
1 setlinecap
1 setlinejoin
10.00 setmiterlimit
np
77.21 73.44 m
454.13 0 l
o
np
77.21 73.44 m
0 -7.20 l
o
np
190.74 73.44 m
0 -7.20 l
o
np
304.27 73.44 m
0 -7.20 l
o
np
417.81 73.44 m
0 -7.20 l
o
np
531.34 73.44 m
0 -7.20 l
o
/Font1 findfont 12 s
77.21 47.52 (0.0) .5 0 t
190.74 47.52 (0.2) .5 0 t
304.27 47.52 (0.4) .5 0 t
417.81 47.52 (0.6) .5 0 t
531.34 47.52 (0.8) .5 0 t
np
59.04 83.92 m
0 231.23 l
o
np
59.04 83.92 m
-7.20 0 l
o
np
59.04 161.00 m
-7.20 0 l
o
np
59.04 238.07 m
-7.20 0 l
o
np
59.04 315.15 m
-7.20 0 l
o
41.76 83.92 (0) .5 90 t
41.76 161.00 (5) .5 90 t
41.76 238.07 (10) .5 90 t
41.76 315.15 (15) .5 90 t
np
59.04 73.44 m
490.47 0 l
0 283.02 l
-490.47 0 l
0 -283.02 l
o
0.00 0.00 579.75 415.50 cl
/Font1 findfont 12 s
0 0 0 srgb
268.26 18.72 (Beta div) 0 ta
-0.300 (ersity) tb gr
12.96 214.95 (Density) .5 90 t
59.04 73.44 549.51 356.46 cl
0.7451 0.7451 0.7451 srgb
0.08 setlinewidth
[] 0 setdash
1 setlinecap
1 setlinejoin
10.00 setmiterlimit
np
59.04 83.92 m
490.47 0 l
o
0.6000 0.6000 0.6000 srgb
1.50 setlinewidth
[] 0 setdash
np
114.52 83.93 m
0.65 0 l
0.65 0 l
0.65 0.01 l
0.65 0 l
0.65 0 l
0.65 0.01 l
0.65 0 l
0.65 0.01 l
0.65 0 l
0.65 0.01 l
0.65 0.01 l
0.65 0.01 l
0.65 0.01 l
0.65 0.02 l
0.65 0.01 l
0.65 0.02 l
0.65 0.02 l
0.65 0.02 l
0.64 0.03 l
0.65 0.03 l
0.65 0.03 l
0.65 0.03 l
0.65 0.04 l
0.65 0.04 l
0.65 0.05 l
0.65 0.05 l
0.65 0.05 l
0.65 0.06 l
0.65 0.07 l
0.65 0.07 l
0.65 0.08 l
0.65 0.08 l
0.65 0.09 l
0.65 0.10 l
0.65 0.10 l
0.65 0.11 l
0.65 0.12 l
0.65 0.13 l
0.65 0.15 l
0.64 0.15 l
0.65 0.16 l
0.65 0.17 l
0.65 0.20 l
0.65 0.20 l
0.65 0.22 l
0.65 0.24 l
0.65 0.25 l
0.65 0.28 l
0.65 0.30 l
0.65 0.32 l
0.65 0.34 l
0.65 0.37 l
0.65 0.39 l
0.65 0.43 l
0.65 0.45 l
0.65 0.48 l
0.65 0.52 l
0.65 0.54 l
0.65 0.58 l
0.65 0.61 l
0.65 0.65 l
0.64 0.67 l
0.65 0.71 l
0.65 0.75 l
0.65 0.78 l
0.65 0.81 l
0.65 0.84 l
0.65 0.87 l
0.65 0.91 l
0.65 0.93 l
0.65 0.97 l
0.65 0.98 l
0.65 1.01 l
0.65 1.04 l
0.65 1.06 l
0.65 1.08 l
0.65 1.09 l
0.65 1.12 l
0.65 1.12 l
0.65 1.15 l
0.65 1.16 l
0.65 1.16 l
0.65 1.18 l
0.64 1.18 l
0.65 1.20 l
0.65 1.20 l
0.65 1.20 l
0.65 1.21 l
0.65 1.21 l
0.65 1.21 l
0.65 1.21 l
0.65 1.21 l
0.65 1.21 l
0.65 1.20 l
0.65 1.20 l
0.65 1.19 l
0.65 1.18 l
0.65 1.17 l
0.65 1.16 l
179.48 135.13 lineto
0.65 1.13 l
0.65 1.11 l
0.65 1.09 l
0.65 1.07 l
0.64 1.06 l
0.65 1.02 l
0.65 1.00 l
0.65 0.97 l
0.65 0.94 l
0.65 0.92 l
0.65 0.89 l
0.65 0.85 l
0.65 0.81 l
0.65 0.79 l
0.65 0.75 l
0.65 0.73 l
0.65 0.68 l
0.65 0.66 l
0.65 0.62 l
0.65 0.59 l
0.65 0.57 l
0.65 0.53 l
0.65 0.51 l
0.65 0.48 l
0.65 0.45 l
0.65 0.44 l
0.64 0.41 l
0.65 0.39 l
0.65 0.37 l
0.65 0.35 l
0.65 0.34 l
0.65 0.32 l
0.65 0.31 l
0.65 0.30 l
0.65 0.29 l
0.65 0.28 l
0.65 0.27 l
0.65 0.27 l
0.65 0.26 l
0.65 0.25 l
0.65 0.26 l
0.65 0.24 l
0.65 0.25 l
0.65 0.25 l
0.65 0.24 l
0.65 0.25 l
0.65 0.26 l
0.65 0.25 l
0.64 0.26 l
0.65 0.26 l
0.65 0.28 l
0.65 0.27 l
0.65 0.29 l
0.65 0.29 l
0.65 0.29 l
0.65 0.31 l
0.65 0.31 l
0.65 0.31 l
0.65 0.32 l
0.65 0.32 l
0.65 0.32 l
0.65 0.32 l
0.65 0.31 l
0.65 0.30 l
0.65 0.29 l
0.65 0.28 l
0.65 0.25 l
0.65 0.24 l
0.65 0.21 l
0.64 0.18 l
0.65 0.15 l
0.65 0.10 l
0.65 0.07 l
0.65 0.04 l
0.65 -0.02 l
0.65 -0.06 l
0.65 -0.11 l
0.65 -0.16 l
0.65 -0.21 l
0.65 -0.26 l
0.65 -0.30 l
0.65 -0.36 l
0.65 -0.41 l
0.65 -0.45 l
0.65 -0.50 l
0.65 -0.53 l
0.65 -0.58 l
0.65 -0.62 l
0.65 -0.65 l
0.65 -0.68 l
0.65 -0.70 l
0.64 -0.74 l
0.65 -0.76 l
0.65 -0.78 l
0.65 -0.79 l
0.65 -0.81 l
0.65 -0.82 l
0.65 -0.84 l
0.65 -0.84 l
244.43 154.94 lineto
0.65 -0.85 l
0.65 -0.86 l
0.65 -0.86 l
0.65 -0.86 l
0.65 -0.85 l
0.65 -0.86 l
0.65 -0.86 l
0.65 -0.85 l
0.65 -0.85 l
0.65 -0.84 l
0.65 -0.83 l
0.65 -0.83 l
0.65 -0.81 l
0.64 -0.81 l
0.65 -0.80 l
0.65 -0.78 l
0.65 -0.77 l
0.65 -0.76 l
0.65 -0.74 l
0.65 -0.72 l
0.65 -0.71 l
0.65 -0.69 l
0.65 -0.67 l
0.65 -0.65 l
0.65 -0.64 l
0.65 -0.62 l
0.65 -0.60 l
0.65 -0.58 l
0.65 -0.57 l
0.65 -0.55 l
0.65 -0.54 l
0.65 -0.52 l
0.65 -0.52 l
0.65 -0.50 l
0.64 -0.49 l
0.65 -0.48 l
0.65 -0.47 l
0.65 -0.47 l
0.65 -0.47 l
0.65 -0.45 l
0.65 -0.46 l
0.65 -0.45 l
0.65 -0.44 l
0.65 -0.45 l
0.65 -0.44 l
0.65 -0.44 l
0.65 -0.44 l
0.65 -0.43 l
0.65 -0.44 l
0.65 -0.43 l
0.65 -0.42 l
0.65 -0.43 l
0.65 -0.42 l
0.65 -0.42 l
0.65 -0.42 l
0.65 -0.42 l
0.64 -0.41 l
0.65 -0.42 l
0.65 -0.42 l
0.65 -0.42 l
0.65 -0.42 l
0.65 -0.43 l
0.65 -0.44 l
0.65 -0.45 l
0.65 -0.45 l
0.65 -0.46 l
0.65 -0.48 l
0.65 -0.48 l
0.65 -0.50 l
0.65 -0.52 l
0.65 -0.52 l
0.65 -0.54 l
0.65 -0.55 l
0.65 -0.56 l
0.65 -0.58 l
0.65 -0.58 l
0.65 -0.59 l
0.65 -0.59 l
0.64 -0.59 l
0.65 -0.60 l
0.65 -0.59 l
0.65 -0.59 l
0.65 -0.58 l
0.65 -0.57 l
0.65 -0.56 l
0.65 -0.54 l
0.65 -0.52 l
0.65 -0.51 l
0.65 -0.48 l
0.65 -0.46 l
0.65 -0.44 l
0.65 -0.42 l
0.65 -0.39 l
0.65 -0.37 l
0.65 -0.34 l
0.65 -0.32 l
0.65 -0.30 l
0.65 -0.29 l
0.65 -0.26 l
309.38 99.64 lineto
0.65 -0.22 l
0.65 -0.22 l
0.65 -0.20 l
0.65 -0.19 l
0.65 -0.18 l
0.65 -0.18 l
0.65 -0.17 l
0.65 -0.16 l
0.65 -0.16 l
0.65 -0.16 l
0.65 -0.17 l
0.65 -0.16 l
0.65 -0.16 l
0.65 -0.16 l
0.65 -0.17 l
0.65 -0.17 l
0.65 -0.17 l
0.65 -0.18 l
0.65 -0.18 l
0.65 -0.18 l
0.65 -0.19 l
0.64 -0.19 l
0.65 -0.19 l
0.65 -0.20 l
0.65 -0.21 l
0.65 -0.20 l
0.65 -0.21 l
0.65 -0.22 l
0.65 -0.22 l
0.65 -0.22 l
0.65 -0.22 l
0.65 -0.23 l
0.65 -0.23 l
0.65 -0.23 l
0.65 -0.23 l
0.65 -0.23 l
0.65 -0.24 l
0.65 -0.23 l
0.65 -0.23 l
0.65 -0.23 l
0.65 -0.23 l
0.65 -0.23 l
0.65 -0.22 l
0.64 -0.22 l
0.65 -0.22 l
0.65 -0.21 l
0.65 -0.20 l
0.65 -0.20 l
0.65 -0.20 l
0.65 -0.18 l
0.65 -0.19 l
0.65 -0.17 l
0.65 -0.17 l
0.65 -0.17 l
0.65 -0.15 l
0.65 -0.16 l
0.65 -0.15 l
0.65 -0.14 l
0.65 -0.13 l
0.65 -0.14 l
0.65 -0.13 l
0.65 -0.12 l
0.65 -0.12 l
0.65 -0.12 l
0.65 -0.11 l
0.64 -0.12 l
0.65 -0.10 l
0.65 -0.11 l
0.65 -0.10 l
0.65 -0.09 l
0.65 -0.10 l
0.65 -0.09 l
0.65 -0.08 l
0.65 -0.08 l
0.65 -0.08 l
0.65 -0.07 l
0.65 -0.07 l
0.65 -0.07 l
0.65 -0.06 l
0.65 -0.05 l
0.65 -0.05 l
0.65 -0.05 l
0.65 -0.04 l
0.65 -0.04 l
0.65 -0.04 l
0.65 -0.03 l
0.64 -0.04 l
0.65 -0.03 l
0.65 -0.03 l
0.65 -0.02 l
0.65 -0.03 l
0.65 -0.03 l
0.65 -0.03 l
0.65 -0.03 l
0.65 -0.03 l
0.65 -0.04 l
0.65 -0.03 l
0.65 -0.04 l
0.65 -0.04 l
374.34 85.49 lineto
0.65 -0.04 l
0.65 -0.04 l
0.65 -0.05 l
0.65 -0.04 l
0.65 -0.05 l
0.65 -0.05 l
0.65 -0.05 l
0.65 -0.05 l
0.64 -0.04 l
0.65 -0.05 l
0.65 -0.05 l
0.65 -0.04 l
0.65 -0.05 l
0.65 -0.04 l
0.65 -0.04 l
0.65 -0.04 l
0.65 -0.04 l
0.65 -0.04 l
0.65 -0.03 l
0.65 -0.03 l
0.65 -0.04 l
0.65 -0.03 l
0.65 -0.02 l
0.65 -0.03 l
0.65 -0.03 l
0.65 -0.02 l
0.65 -0.03 l
0.65 -0.02 l
0.65 -0.02 l
0.65 -0.03 l
0.64 -0.02 l
0.65 -0.02 l
0.65 -0.01 l
0.65 -0.02 l
0.65 -0.02 l
0.65 -0.01 l
0.65 -0.02 l
0.65 -0.01 l
0.65 -0.01 l
0.65 -0.01 l
0.65 -0.01 l
0.65 -0.01 l
0.65 0 l
0.65 -0.01 l
0.65 0 l
0.65 0 l
0.65 0 l
0.65 0 l
0.65 0 l
0.65 0.01 l
0.65 0 l
0.64 0.01 l
0.65 0.01 l
0.65 0.01 l
0.65 0.01 l
0.65 0 l
0.65 0.01 l
0.65 0.01 l
0.65 0.01 l
0.65 0.01 l
0.65 0 l
0.65 0.01 l
0.65 0.01 l
0.65 0 l
0.65 0 l
0.65 0 l
0.65 0 l
0.65 0 l
0.65 0 l
0.65 -0.01 l
0.65 0 l
0.65 -0.01 l
0.65 -0.01 l
0.64 -0.01 l
0.65 -0.01 l
0.65 -0.01 l
0.65 -0.02 l
0.65 -0.01 l
0.65 -0.02 l
0.65 -0.01 l
0.65 -0.02 l
0.65 -0.01 l
0.65 -0.02 l
0.65 -0.01 l
0.65 -0.02 l
0.65 -0.01 l
0.65 -0.01 l
0.65 -0.02 l
0.65 -0.01 l
0.65 -0.01 l
0.65 -0.01 l
0.65 -0.01 l
0.65 -0.01 l
0.65 -0.01 l
0.65 -0.01 l
0.64 -0.01 l
0.65 0 l
0.65 -0.01 l
0.65 0 l
439.29 83.95 lineto
0.65 0 l
0.65 -0.01 l
0.65 0 l
0.65 0 l
0.65 0 l
0.65 -0.01 l
0.65 0 l
0.65 0 l
0.65 0 l
0.65 0 l
0.65 0 l
o
1.50 setlinewidth
[ 4.50 7.50] 0 setdash
np
41.29 83.93 m
0.86 0 l
0.85 0 l
0.86 0 l
0.85 0 l
0.86 0 l
0.86 0 l
0.85 0.01 l
0.86 0 l
0.85 0 l
0.86 0 l
0.86 0.01 l
0.85 0 l
0.86 0.01 l
0.85 0 l
0.86 0.01 l
0.85 0 l
0.86 0.01 l
0.86 0.01 l
0.85 0.01 l
0.86 0.01 l
0.85 0.01 l
0.86 0.01 l
0.85 0.01 l
0.86 0.01 l
0.86 0.01 l
0.85 0.01 l
0.86 0.02 l
0.85 0.01 l
0.86 0.01 l
0.86 0.01 l
0.85 0.02 l
0.86 0.01 l
0.85 0.01 l
0.86 0.01 l
0.85 0.01 l
0.86 0.01 l
0.86 0.01 l
0.85 0 l
0.86 0.01 l
0.85 0 l
0.86 0 l
0.86 0 l
0.85 0 l
0.86 0 l
0.85 0 l
0.86 -0.01 l
0.85 0 l
0.86 -0.01 l
0.86 -0.01 l
0.85 -0.01 l
0.86 -0.01 l
0.85 -0.01 l
0.86 -0.01 l
0.85 -0.01 l
0.86 -0.01 l
0.86 -0.02 l
0.85 -0.01 l
0.86 -0.01 l
0.85 -0.01 l
0.86 -0.01 l
0.86 -0.01 l
0.85 0 l
0.86 -0.01 l
0.85 -0.01 l
0.86 0 l
0.85 -0.01 l
0.86 0 l
0.86 0 l
0.85 0 l
0.86 0 l
0.85 0.01 l
0.86 0 l
0.86 0 l
0.85 0.01 l
0.86 0.01 l
0.85 0.01 l
0.86 0.01 l
0.85 0.01 l
0.86 0.01 l
0.86 0.02 l
0.85 0.01 l
0.86 0.01 l
0.85 0.02 l
0.86 0.01 l
0.85 0.02 l
0.86 0.01 l
0.86 0.02 l
0.85 0.01 l
0.86 0.02 l
0.85 0.01 l
0.86 0.02 l
0.86 0.01 l
0.85 0.01 l
0.86 0.02 l
0.85 0.01 l
0.86 0.01 l
0.85 0.01 l
0.86 0.01 l
0.86 0.01 l
126.87 84.37 lineto
0.86 0.01 l
0.85 0 l
0.86 0.01 l
0.86 0.01 l
0.85 0.01 l
0.86 0 l
0.85 0.01 l
0.86 0.01 l
0.85 0.01 l
0.86 0 l
0.86 0.01 l
0.85 0.01 l
0.86 0.02 l
0.85 0.01 l
0.86 0.01 l
0.85 0.02 l
0.86 0.02 l
0.86 0.02 l
0.85 0.02 l
0.86 0.02 l
0.85 0.03 l
0.86 0.03 l
0.86 0.03 l
0.85 0.04 l
0.86 0.04 l
0.85 0.04 l
0.86 0.05 l
0.85 0.05 l
0.86 0.05 l
0.86 0.06 l
0.85 0.07 l
0.86 0.06 l
0.85 0.07 l
0.86 0.08 l
0.86 0.08 l
0.85 0.08 l
0.86 0.08 l
0.85 0.09 l
0.86 0.09 l
0.85 0.10 l
0.86 0.10 l
0.86 0.10 l
0.85 0.10 l
0.86 0.10 l
0.85 0.10 l
0.86 0.11 l
0.85 0.10 l
0.86 0.11 l
0.86 0.10 l
0.85 0.10 l
0.86 0.11 l
0.85 0.10 l
0.86 0.10 l
0.86 0.10 l
0.85 0.10 l
0.86 0.09 l
0.85 0.10 l
0.86 0.09 l
0.85 0.09 l
0.86 0.09 l
0.86 0.10 l
0.85 0.09 l
0.86 0.09 l
0.85 0.10 l
0.86 0.09 l
0.86 0.10 l
0.85 0.10 l
0.86 0.10 l
0.85 0.11 l
0.86 0.11 l
0.85 0.12 l
0.86 0.12 l
0.86 0.13 l
0.85 0.14 l
0.86 0.14 l
0.85 0.14 l
0.86 0.16 l
0.85 0.16 l
0.86 0.16 l
0.86 0.17 l
0.85 0.18 l
0.86 0.18 l
0.85 0.19 l
0.86 0.19 l
0.86 0.20 l
0.85 0.20 l
0.86 0.20 l
0.85 0.21 l
0.86 0.21 l
0.85 0.21 l
0.86 0.21 l
0.86 0.21 l
0.85 0.22 l
0.86 0.21 l
0.85 0.21 l
0.86 0.21 l
0.86 0.21 l
0.85 0.21 l
0.86 0.21 l
212.45 94.32 lineto
0.86 0.21 l
0.85 0.21 l
0.86 0.20 l
0.86 0.21 l
0.85 0.20 l
0.86 0.20 l
0.85 0.21 l
0.86 0.20 l
0.85 0.20 l
0.86 0.20 l
0.86 0.21 l
0.85 0.20 l
0.86 0.21 l
0.85 0.20 l
0.86 0.21 l
0.86 0.22 l
0.85 0.21 l
0.86 0.23 l
0.85 0.22 l
0.86 0.24 l
0.85 0.24 l
0.86 0.24 l
0.86 0.26 l
0.85 0.27 l
0.86 0.27 l
0.85 0.29 l
0.86 0.29 l
0.86 0.31 l
0.85 0.32 l
0.86 0.33 l
0.85 0.34 l
0.86 0.35 l
0.85 0.37 l
0.86 0.37 l
0.86 0.38 l
0.85 0.40 l
0.86 0.40 l
0.85 0.41 l
0.86 0.41 l
0.85 0.42 l
0.86 0.43 l
0.86 0.43 l
0.85 0.43 l
0.86 0.44 l
0.85 0.44 l
0.86 0.44 l
0.86 0.45 l
0.85 0.44 l
0.86 0.45 l
0.85 0.45 l
0.86 0.44 l
0.85 0.45 l
0.86 0.45 l
0.86 0.45 l
0.85 0.46 l
0.86 0.45 l
0.85 0.46 l
0.86 0.46 l
0.86 0.46 l
0.85 0.46 l
0.86 0.47 l
0.85 0.47 l
0.86 0.48 l
0.85 0.49 l
0.86 0.49 l
0.86 0.50 l
0.85 0.51 l
0.86 0.53 l
0.85 0.53 l
0.86 0.55 l
0.85 0.56 l
0.86 0.57 l
0.86 0.59 l
0.85 0.61 l
0.86 0.62 l
0.85 0.64 l
0.86 0.66 l
0.86 0.68 l
0.85 0.69 l
0.86 0.70 l
0.85 0.72 l
0.86 0.72 l
0.85 0.73 l
0.86 0.74 l
0.86 0.74 l
0.85 0.73 l
0.86 0.73 l
0.85 0.72 l
0.86 0.70 l
0.86 0.68 l
0.85 0.65 l
0.86 0.64 l
0.85 0.60 l
0.86 0.57 l
0.85 0.54 l
0.86 0.49 l
0.86 0.46 l
0.85 0.43 l
0.86 0.39 l
298.03 137.79 lineto
0.86 0.32 l
0.85 0.29 l
0.86 0.25 l
0.86 0.24 l
0.85 0.22 l
0.86 0.19 l
0.85 0.19 l
0.86 0.17 l
0.86 0.18 l
0.85 0.17 l
0.86 0.17 l
0.85 0.18 l
0.86 0.19 l
0.85 0.20 l
0.86 0.21 l
0.86 0.22 l
0.85 0.23 l
0.86 0.24 l
0.85 0.26 l
0.86 0.26 l
0.86 0.27 l
0.85 0.27 l
0.86 0.27 l
0.85 0.26 l
0.86 0.26 l
0.85 0.25 l
0.86 0.23 l
0.86 0.21 l
0.85 0.19 l
0.86 0.16 l
0.85 0.14 l
0.86 0.11 l
0.85 0.08 l
0.86 0.04 l
0.86 0.01 l
0.85 -0.01 l
0.86 -0.05 l
0.85 -0.07 l
0.86 -0.10 l
0.86 -0.13 l
0.85 -0.14 l
0.86 -0.17 l
0.85 -0.17 l
0.86 -0.19 l
0.85 -0.20 l
0.86 -0.20 l
0.86 -0.20 l
0.85 -0.20 l
0.86 -0.20 l
0.85 -0.19 l
0.86 -0.18 l
0.85 -0.18 l
0.86 -0.16 l
0.86 -0.15 l
0.85 -0.15 l
0.86 -0.13 l
0.85 -0.12 l
0.86 -0.12 l
0.86 -0.11 l
0.85 -0.11 l
0.86 -0.11 l
0.85 -0.11 l
0.86 -0.11 l
0.85 -0.12 l
0.86 -0.12 l
0.86 -0.13 l
0.85 -0.15 l
0.86 -0.16 l
0.85 -0.17 l
0.86 -0.19 l
0.86 -0.21 l
0.85 -0.22 l
0.86 -0.24 l
0.85 -0.27 l
0.86 -0.27 l
0.85 -0.30 l
0.86 -0.31 l
0.86 -0.32 l
0.85 -0.35 l
0.86 -0.36 l
0.85 -0.37 l
0.86 -0.38 l
0.85 -0.40 l
0.86 -0.41 l
0.86 -0.43 l
0.85 -0.43 l
0.86 -0.45 l
0.85 -0.46 l
0.86 -0.48 l
0.86 -0.49 l
0.85 -0.50 l
0.86 -0.51 l
0.85 -0.53 l
0.86 -0.55 l
0.85 -0.55 l
0.86 -0.58 l
0.86 -0.58 l
0.85 -0.60 l
0.86 -0.62 l
383.61 127.13 lineto
0.86 -0.64 l
0.86 -0.64 l
0.85 -0.66 l
0.86 -0.66 l
0.85 -0.66 l
0.86 -0.67 l
0.85 -0.67 l
0.86 -0.67 l
0.86 -0.66 l
0.85 -0.66 l
0.86 -0.66 l
0.85 -0.65 l
0.86 -0.65 l
0.85 -0.63 l
0.86 -0.63 l
0.86 -0.63 l
0.85 -0.61 l
0.86 -0.61 l
0.85 -0.60 l
0.86 -0.60 l
0.86 -0.59 l
0.85 -0.59 l
0.86 -0.60 l
0.85 -0.59 l
0.86 -0.59 l
0.85 -0.60 l
0.86 -0.61 l
0.86 -0.61 l
0.85 -0.62 l
0.86 -0.63 l
0.85 -0.64 l
0.86 -0.65 l
0.86 -0.66 l
0.85 -0.68 l
0.86 -0.68 l
0.85 -0.70 l
0.86 -0.71 l
0.85 -0.71 l
0.86 -0.72 l
0.86 -0.73 l
0.85 -0.73 l
0.86 -0.73 l
0.85 -0.74 l
0.86 -0.73 l
0.85 -0.72 l
0.86 -0.72 l
0.86 -0.71 l
0.85 -0.69 l
0.86 -0.69 l
0.85 -0.66 l
0.86 -0.65 l
0.86 -0.63 l
0.85 -0.60 l
0.86 -0.59 l
0.85 -0.56 l
0.86 -0.53 l
0.85 -0.51 l
0.86 -0.48 l
0.86 -0.45 l
0.85 -0.43 l
0.86 -0.41 l
0.85 -0.38 l
0.86 -0.35 l
0.86 -0.32 l
0.85 -0.31 l
0.86 -0.28 l
0.85 -0.26 l
0.86 -0.24 l
0.85 -0.22 l
0.86 -0.20 l
0.86 -0.19 l
0.85 -0.17 l
0.86 -0.15 l
0.85 -0.15 l
0.86 -0.12 l
0.85 -0.12 l
0.86 -0.11 l
0.86 -0.10 l
0.85 -0.08 l
0.86 -0.08 l
0.85 -0.07 l
0.86 -0.07 l
0.86 -0.06 l
0.85 -0.05 l
0.86 -0.05 l
0.85 -0.04 l
0.86 -0.04 l
0.85 -0.03 l
0.86 -0.03 l
0.86 -0.03 l
0.85 -0.02 l
0.86 -0.02 l
0.85 -0.02 l
0.86 -0.02 l
0.86 -0.01 l
0.85 -0.02 l
0.86 -0.01 l
0.85 -0.01 l
0.86 0 l
469.19 83.96 lineto
0.86 -0.01 l
0.86 0 l
0.85 -0.01 l
0.86 0 l
0.85 0 l
0.86 -0.01 l
0.85 0 l
0.86 0 l
0.86 0 l
0.85 0 l
0.86 0 l
o
1 0 0 srgb
1.50 setlinewidth
[] 0 setdash
np
106.77 83.93 m
0.60 0 l
0.61 0 l
0.60 0 l
0.60 0 l
0.60 0 l
0.60 0.01 l
0.60 0 l
0.60 0 l
0.60 0 l
0.60 0.01 l
0.60 0 l
0.60 0.01 l
0.60 0 l
0.60 0.01 l
0.60 0.01 l
0.60 0 l
0.60 0.01 l
0.60 0.01 l
0.60 0.01 l
0.60 0.01 l
0.60 0.01 l
0.61 0.02 l
0.60 0.01 l
0.60 0.01 l
0.60 0.02 l
0.60 0.02 l
0.60 0.01 l
0.60 0.02 l
0.60 0.02 l
0.60 0.02 l
0.60 0.02 l
0.60 0.02 l
0.60 0.02 l
0.60 0.02 l
0.60 0.03 l
0.60 0.02 l
0.60 0.02 l
0.60 0.03 l
0.60 0.03 l
0.60 0.03 l
0.61 0.03 l
0.60 0.03 l
0.60 0.04 l
0.60 0.04 l
0.60 0.04 l
0.60 0.04 l
0.60 0.06 l
0.60 0.05 l
0.60 0.07 l
0.60 0.07 l
0.60 0.08 l
0.60 0.09 l
0.60 0.09 l
0.60 0.11 l
0.60 0.12 l
0.60 0.14 l
0.60 0.15 l
0.60 0.16 l
0.60 0.18 l
0.60 0.20 l
0.61 0.21 l
0.60 0.24 l
0.60 0.25 l
0.60 0.27 l
0.60 0.30 l
0.60 0.31 l
0.60 0.34 l
0.60 0.36 l
0.60 0.39 l
0.60 0.40 l
0.60 0.43 l
0.60 0.45 l
0.60 0.47 l
0.60 0.49 l
0.60 0.52 l
0.60 0.53 l
0.60 0.55 l
0.60 0.58 l
0.60 0.58 l
0.61 0.61 l
0.60 0.62 l
0.60 0.64 l
0.60 0.65 l
0.60 0.66 l
0.60 0.67 l
0.60 0.68 l
0.60 0.70 l
0.60 0.70 l
0.60 0.71 l
0.60 0.72 l
0.60 0.73 l
0.60 0.73 l
0.60 0.74 l
0.60 0.75 l
0.60 0.75 l
0.60 0.76 l
0.60 0.77 l
0.60 0.77 l
0.61 0.78 l
166.83 108.81 lineto
0.60 0.79 l
0.60 0.80 l
0.60 0.81 l
0.60 0.82 l
0.60 0.82 l
0.60 0.83 l
0.60 0.83 l
0.60 0.84 l
0.60 0.85 l
0.60 0.84 l
0.60 0.85 l
0.60 0.85 l
0.60 0.85 l
0.60 0.84 l
0.60 0.84 l
0.60 0.84 l
0.60 0.82 l
0.60 0.81 l
0.61 0.81 l
0.60 0.78 l
0.60 0.77 l
0.60 0.76 l
0.60 0.74 l
0.60 0.73 l
0.60 0.70 l
0.60 0.69 l
0.60 0.67 l
0.60 0.65 l
0.60 0.64 l
0.60 0.63 l
0.60 0.61 l
0.60 0.61 l
0.60 0.59 l
0.60 0.60 l
0.60 0.59 l
0.60 0.59 l
0.60 0.60 l
0.61 0.60 l
0.60 0.61 l
0.60 0.63 l
0.60 0.64 l
0.60 0.65 l
0.60 0.67 l
0.60 0.69 l
0.60 0.70 l
0.60 0.73 l
0.60 0.76 l
0.60 0.77 l
0.60 0.79 l
0.60 0.80 l
0.60 0.84 l
0.60 0.84 l
0.60 0.86 l
0.60 0.88 l
0.60 0.88 l
0.60 0.90 l
0.60 0.91 l
0.61 0.90 l
0.60 0.91 l
0.60 0.91 l
0.60 0.90 l
0.60 0.90 l
0.60 0.89 l
0.60 0.88 l
0.60 0.86 l
0.60 0.85 l
0.60 0.83 l
0.60 0.80 l
0.60 0.78 l
0.60 0.76 l
0.60 0.73 l
0.60 0.70 l
0.60 0.67 l
0.60 0.64 l
0.60 0.61 l
0.60 0.57 l
0.61 0.54 l
0.60 0.50 l
0.60 0.47 l
0.60 0.43 l
0.60 0.39 l
0.60 0.36 l
0.60 0.32 l
0.60 0.28 l
0.60 0.25 l
0.60 0.22 l
0.60 0.18 l
0.60 0.14 l
0.60 0.11 l
0.60 0.09 l
0.60 0.05 l
0.60 0.02 l
0.60 -0.01 l
0.60 -0.03 l
0.60 -0.06 l
0.60 -0.09 l
0.61 -0.10 l
0.60 -0.13 l
0.60 -0.15 l
226.88 170.35 lineto
0.60 -0.18 l
0.60 -0.20 l
0.60 -0.22 l
0.60 -0.23 l
0.60 -0.24 l
0.60 -0.25 l
0.60 -0.26 l
0.60 -0.27 l
0.60 -0.28 l
0.60 -0.29 l
0.60 -0.29 l
0.60 -0.30 l
0.60 -0.31 l
0.60 -0.30 l
0.60 -0.32 l
0.61 -0.31 l
0.60 -0.32 l
0.60 -0.32 l
0.60 -0.32 l
0.60 -0.33 l
0.60 -0.33 l
0.60 -0.33 l
0.60 -0.34 l
0.60 -0.33 l
0.60 -0.35 l
0.60 -0.34 l
0.60 -0.35 l
0.60 -0.36 l
0.60 -0.37 l
0.60 -0.37 l
0.60 -0.39 l
0.60 -0.40 l
0.60 -0.40 l
0.60 -0.43 l
0.61 -0.43 l
0.60 -0.46 l
0.60 -0.47 l
0.60 -0.49 l
0.60 -0.52 l
0.60 -0.53 l
0.60 -0.56 l
0.60 -0.58 l
0.60 -0.60 l
0.60 -0.63 l
0.60 -0.65 l
0.60 -0.69 l
0.60 -0.70 l
0.60 -0.73 l
0.60 -0.75 l
0.60 -0.78 l
0.60 -0.80 l
0.60 -0.82 l
0.60 -0.84 l
0.60 -0.86 l
0.61 -0.86 l
0.60 -0.89 l
0.60 -0.89 l
0.60 -0.90 l
0.60 -0.90 l
0.60 -0.90 l
0.60 -0.90 l
0.60 -0.89 l
0.60 -0.88 l
0.60 -0.87 l
0.60 -0.84 l
0.60 -0.84 l
0.60 -0.80 l
0.60 -0.77 l
0.60 -0.75 l
0.60 -0.71 l
0.60 -0.69 l
0.60 -0.64 l
0.60 -0.61 l
0.61 -0.57 l
0.60 -0.53 l
0.60 -0.51 l
0.60 -0.46 l
0.60 -0.43 l
0.60 -0.39 l
0.60 -0.37 l
0.60 -0.34 l
0.60 -0.32 l
0.60 -0.30 l
0.60 -0.28 l
0.60 -0.27 l
0.60 -0.26 l
0.60 -0.26 l
0.60 -0.25 l
0.60 -0.26 l
0.60 -0.27 l
0.60 -0.28 l
0.60 -0.29 l
0.60 -0.31 l
0.61 -0.33 l
0.60 -0.36 l
0.60 -0.37 l
0.60 -0.41 l
0.60 -0.43 l
0.60 -0.46 l
286.93 121.51 lineto
0.60 -0.51 l
0.60 -0.54 l
0.60 -0.56 l
0.60 -0.59 l
0.60 -0.61 l
0.60 -0.63 l
0.60 -0.65 l
0.60 -0.67 l
0.60 -0.67 l
0.60 -0.70 l
0.60 -0.69 l
0.60 -0.71 l
0.61 -0.71 l
0.60 -0.71 l
0.60 -0.72 l
0.60 -0.71 l
0.60 -0.71 l
0.60 -0.71 l
0.60 -0.70 l
0.60 -0.69 l
0.60 -0.69 l
0.60 -0.68 l
0.60 -0.68 l
0.60 -0.66 l
0.60 -0.66 l
0.60 -0.65 l
0.60 -0.63 l
0.60 -0.63 l
0.60 -0.62 l
0.60 -0.61 l
0.60 -0.60 l
0.60 -0.58 l
0.61 -0.58 l
0.60 -0.56 l
0.60 -0.55 l
0.60 -0.53 l
0.60 -0.52 l
0.60 -0.51 l
0.60 -0.49 l
0.60 -0.48 l
0.60 -0.45 l
0.60 -0.44 l
0.60 -0.42 l
0.60 -0.41 l
0.60 -0.38 l
0.60 -0.37 l
0.60 -0.34 l
0.60 -0.33 l
0.60 -0.30 l
0.60 -0.29 l
0.60 -0.27 l
0.61 -0.25 l
0.60 -0.23 l
0.60 -0.22 l
0.60 -0.20 l
0.60 -0.19 l
0.60 -0.16 l
0.60 -0.16 l
0.60 -0.14 l
0.60 -0.13 l
0.60 -0.12 l
0.60 -0.10 l
0.60 -0.10 l
0.60 -0.08 l
0.60 -0.08 l
0.60 -0.07 l
0.60 -0.06 l
0.60 -0.05 l
0.60 -0.05 l
0.60 -0.04 l
0.61 -0.03 l
0.60 -0.03 l
0.60 -0.02 l
0.60 -0.02 l
0.60 -0.01 l
0.60 -0.01 l
0.60 0 l
0.60 0.01 l
0.60 0 l
0.60 0.01 l
0.60 0.02 l
0.60 0.01 l
0.60 0.02 l
0.60 0.02 l
0.60 0.02 l
0.60 0.02 l
0.60 0.02 l
0.60 0.02 l
0.60 0.01 l
0.60 0.01 l
0.61 0.01 l
0.60 0 l
0.60 0 l
0.60 -0.02 l
0.60 -0.02 l
0.60 -0.03 l
0.60 -0.04 l
0.60 -0.05 l
0.60 -0.06 l
346.98 89.77 lineto
0.60 -0.08 l
0.60 -0.10 l
0.60 -0.10 l
0.60 -0.12 l
0.60 -0.12 l
0.60 -0.14 l
0.60 -0.14 l
0.60 -0.16 l
0.60 -0.16 l
0.61 -0.17 l
0.60 -0.17 l
0.60 -0.18 l
0.60 -0.18 l
0.60 -0.18 l
0.60 -0.19 l
0.60 -0.18 l
0.60 -0.18 l
0.60 -0.18 l
0.60 -0.18 l
0.60 -0.17 l
0.60 -0.17 l
0.60 -0.16 l
0.60 -0.15 l
0.60 -0.15 l
0.60 -0.13 l
0.60 -0.13 l
0.60 -0.12 l
0.60 -0.11 l
0.60 -0.11 l
0.61 -0.09 l
0.60 -0.09 l
0.60 -0.07 l
0.60 -0.07 l
0.60 -0.06 l
0.60 -0.06 l
0.60 -0.04 l
0.60 -0.04 l
0.60 -0.04 l
0.60 -0.03 l
0.60 -0.02 l
0.60 -0.02 l
0.60 -0.02 l
0.60 -0.01 l
0.60 -0.01 l
0.60 0 l
0.60 -0.01 l
0.60 0 l
0.60 0 l
0.61 0 l
0.60 0 l
0.60 0.01 l
0.60 0 l
0.60 0 l
0.60 0 l
0.60 0 l
0.60 0 l
0.60 0 l
0.60 0 l
0.60 -0.01 l
0.60 -0.01 l
0.60 0 l
0.60 -0.02 l
0.60 -0.01 l
0.60 -0.01 l
0.60 -0.02 l
0.60 -0.02 l
0.60 -0.02 l
0.61 -0.02 l
0.60 -0.03 l
0.60 -0.02 l
0.60 -0.03 l
0.60 -0.03 l
0.60 -0.03 l
0.60 -0.03 l
0.60 -0.03 l
0.60 -0.03 l
0.60 -0.03 l
0.60 -0.03 l
0.60 -0.03 l
0.60 -0.03 l
0.60 -0.03 l
0.60 -0.02 l
0.60 -0.03 l
0.60 -0.03 l
0.60 -0.02 l
0.60 -0.02 l
0.60 -0.03 l
0.61 -0.02 l
0.60 -0.02 l
0.60 -0.01 l
0.60 -0.02 l
0.60 -0.01 l
0.60 -0.02 l
0.60 -0.01 l
0.60 -0.01 l
0.60 -0.01 l
0.60 -0.01 l
0.60 -0.01 l
0.60 0 l
407.03 83.96 lineto
0.60 -0.01 l
0.60 0 l
0.60 -0.01 l
0.60 0 l
0.60 0 l
0.60 0 l
0.61 -0.01 l
0.60 0 l
0.60 0 l
0.60 0 l
0.60 0 l
o
1.50 setlinewidth
[ 4.50 7.50] 0 setdash
np
108.36 83.93 m
0.69 0 l
0.70 0 l
0.69 0 l
0.69 0 l
0.70 0.01 l
0.69 0 l
0.69 0 l
0.70 0.01 l
0.69 0 l
0.69 0 l
0.70 0.01 l
0.69 0.01 l
0.69 0 l
0.70 0.01 l
0.69 0.01 l
0.69 0.01 l
0.70 0.01 l
0.69 0.01 l
0.69 0.02 l
0.70 0.01 l
0.69 0.02 l
0.69 0.01 l
0.70 0.02 l
0.69 0.02 l
0.69 0.02 l
0.70 0.03 l
0.69 0.02 l
0.69 0.03 l
0.69 0.03 l
0.70 0.03 l
0.69 0.03 l
0.69 0.03 l
0.70 0.04 l
0.69 0.03 l
0.69 0.04 l
0.70 0.03 l
0.69 0.04 l
0.69 0.04 l
0.70 0.04 l
0.69 0.04 l
0.69 0.05 l
0.70 0.04 l
0.69 0.04 l
0.69 0.04 l
0.70 0.04 l
0.69 0.04 l
0.69 0.04 l
0.70 0.04 l
0.69 0.04 l
0.69 0.04 l
0.70 0.04 l
0.69 0.04 l
0.69 0.04 l
0.70 0.03 l
0.69 0.04 l
0.69 0.04 l
0.70 0.03 l
0.69 0.04 l
0.69 0.03 l
0.70 0.04 l
0.69 0.03 l
0.69 0.03 l
0.70 0.04 l
0.69 0.03 l
0.69 0.04 l
0.70 0.03 l
0.69 0.03 l
0.69 0.04 l
0.70 0.03 l
0.69 0.04 l
0.69 0.03 l
0.69 0.03 l
0.70 0.04 l
0.69 0.03 l
0.69 0.04 l
0.70 0.03 l
0.69 0.03 l
0.69 0.04 l
0.70 0.03 l
0.69 0.03 l
0.69 0.04 l
0.70 0.03 l
0.69 0.04 l
0.69 0.03 l
0.70 0.03 l
0.69 0.04 l
0.69 0.03 l
0.70 0.04 l
0.69 0.04 l
0.69 0.04 l
0.70 0.03 l
0.69 0.05 l
0.69 0.04 l
0.70 0.04 l
0.69 0.05 l
0.69 0.05 l
0.70 0.05 l
0.69 0.05 l
0.69 0.05 l
177.69 86.92 lineto
0.69 0.06 l
0.69 0.06 l
0.70 0.06 l
0.69 0.07 l
0.69 0.07 l
0.70 0.07 l
0.69 0.07 l
0.69 0.07 l
0.70 0.08 l
0.69 0.07 l
0.69 0.08 l
0.69 0.09 l
0.70 0.08 l
0.69 0.08 l
0.69 0.09 l
0.70 0.09 l
0.69 0.09 l
0.69 0.10 l
0.70 0.09 l
0.69 0.10 l
0.69 0.10 l
0.70 0.10 l
0.69 0.11 l
0.69 0.10 l
0.70 0.11 l
0.69 0.12 l
0.69 0.11 l
0.70 0.12 l
0.69 0.13 l
0.69 0.13 l
0.70 0.13 l
0.69 0.13 l
0.69 0.14 l
0.70 0.14 l
0.69 0.15 l
0.69 0.15 l
0.70 0.16 l
0.69 0.16 l
0.69 0.16 l
0.70 0.17 l
0.69 0.17 l
0.69 0.18 l
0.70 0.18 l
0.69 0.19 l
0.69 0.19 l
0.70 0.19 l
0.69 0.20 l
0.69 0.20 l
0.70 0.21 l
0.69 0.21 l
0.69 0.21 l
0.69 0.22 l
0.70 0.22 l
0.69 0.23 l
0.69 0.22 l
0.70 0.24 l
0.69 0.23 l
0.69 0.24 l
0.70 0.24 l
0.69 0.24 l
0.69 0.25 l
0.70 0.25 l
0.69 0.25 l
0.69 0.25 l
0.70 0.26 l
0.69 0.26 l
0.69 0.26 l
0.70 0.27 l
0.69 0.27 l
0.69 0.27 l
0.70 0.28 l
0.69 0.28 l
0.69 0.28 l
0.70 0.29 l
0.69 0.29 l
0.69 0.29 l
0.70 0.30 l
0.69 0.30 l
0.69 0.31 l
0.70 0.30 l
0.69 0.32 l
0.69 0.31 l
0.70 0.32 l
0.69 0.33 l
0.69 0.32 l
0.70 0.34 l
0.69 0.33 l
0.69 0.34 l
0.70 0.34 l
0.69 0.35 l
0.69 0.35 l
0.69 0.35 l
0.70 0.36 l
0.69 0.37 l
0.69 0.36 l
0.70 0.38 l
0.69 0.38 l
0.69 0.38 l
0.70 0.40 l
247.01 107.86 lineto
0.69 0.40 l
0.70 0.42 l
0.69 0.42 l
0.69 0.43 l
0.70 0.44 l
0.69 0.45 l
0.69 0.46 l
0.70 0.47 l
0.69 0.48 l
0.69 0.49 l
0.70 0.50 l
0.69 0.51 l
0.69 0.52 l
0.70 0.52 l
0.69 0.54 l
0.69 0.54 l
0.70 0.55 l
0.69 0.55 l
0.69 0.56 l
0.70 0.56 l
0.69 0.57 l
0.69 0.56 l
0.70 0.57 l
0.69 0.57 l
0.69 0.56 l
0.70 0.56 l
0.69 0.56 l
0.69 0.55 l
0.70 0.54 l
0.69 0.54 l
0.69 0.53 l
0.70 0.52 l
0.69 0.50 l
0.69 0.50 l
0.69 0.48 l
0.70 0.48 l
0.69 0.46 l
0.69 0.44 l
0.70 0.44 l
0.69 0.42 l
0.69 0.41 l
0.70 0.39 l
0.69 0.38 l
0.69 0.37 l
0.70 0.36 l
0.69 0.35 l
0.69 0.33 l
0.70 0.33 l
0.69 0.32 l
0.69 0.31 l
0.70 0.30 l
0.69 0.30 l
0.69 0.30 l
0.70 0.29 l
0.69 0.28 l
0.69 0.29 l
0.70 0.29 l
0.69 0.28 l
0.69 0.29 l
0.70 0.29 l
0.69 0.30 l
0.69 0.29 l
0.70 0.30 l
0.69 0.31 l
0.69 0.31 l
0.70 0.31 l
0.69 0.32 l
0.69 0.32 l
0.70 0.33 l
0.69 0.33 l
0.69 0.33 l
0.70 0.33 l
0.69 0.34 l
0.69 0.34 l
0.69 0.34 l
0.70 0.33 l
0.69 0.34 l
0.69 0.33 l
0.70 0.33 l
0.69 0.33 l
0.69 0.33 l
0.70 0.32 l
0.69 0.32 l
0.69 0.31 l
0.70 0.30 l
0.69 0.31 l
0.69 0.29 l
0.70 0.29 l
0.69 0.29 l
0.69 0.28 l
0.70 0.28 l
0.69 0.27 l
0.69 0.26 l
0.70 0.27 l
0.69 0.25 l
0.69 0.26 l
0.70 0.25 l
0.69 0.24 l
0.69 0.25 l
316.34 146.55 lineto
0.69 0.23 l
0.69 0.23 l
0.70 0.23 l
0.69 0.23 l
0.69 0.22 l
0.70 0.22 l
0.69 0.22 l
0.69 0.21 l
0.70 0.21 l
0.69 0.21 l
0.69 0.20 l
0.70 0.20 l
0.69 0.20 l
0.69 0.19 l
0.69 0.19 l
0.70 0.19 l
0.69 0.18 l
0.69 0.18 l
0.70 0.17 l
0.69 0.17 l
0.69 0.16 l
0.70 0.16 l
0.69 0.15 l
0.69 0.14 l
0.70 0.13 l
0.69 0.12 l
0.69 0.12 l
0.70 0.10 l
0.69 0.09 l
0.69 0.07 l
0.70 0.06 l
0.69 0.04 l
0.69 0.02 l
0.70 0 l
0.69 -0.01 l
0.69 -0.04 l
0.70 -0.06 l
0.69 -0.08 l
0.69 -0.11 l
0.70 -0.14 l
0.69 -0.16 l
0.69 -0.18 l
0.70 -0.20 l
0.69 -0.24 l
0.69 -0.26 l
0.70 -0.29 l
0.69 -0.30 l
0.69 -0.33 l
0.70 -0.36 l
0.69 -0.38 l
0.69 -0.40 l
0.70 -0.42 l
0.69 -0.44 l
0.69 -0.47 l
0.70 -0.48 l
0.69 -0.50 l
0.69 -0.51 l
0.69 -0.53 l
0.70 -0.55 l
0.69 -0.56 l
0.69 -0.58 l
0.70 -0.59 l
0.69 -0.60 l
0.69 -0.62 l
0.70 -0.63 l
0.69 -0.64 l
0.69 -0.65 l
0.70 -0.67 l
0.69 -0.68 l
0.69 -0.68 l
0.70 -0.70 l
0.69 -0.71 l
0.69 -0.72 l
0.70 -0.72 l
0.69 -0.74 l
0.69 -0.74 l
0.70 -0.75 l
0.69 -0.76 l
0.69 -0.76 l
0.70 -0.77 l
0.69 -0.76 l
0.69 -0.77 l
0.70 -0.77 l
0.69 -0.77 l
0.69 -0.76 l
0.70 -0.77 l
0.69 -0.75 l
0.69 -0.75 l
0.70 -0.74 l
0.69 -0.73 l
0.69 -0.72 l
0.70 -0.71 l
0.69 -0.70 l
0.69 -0.68 l
0.70 -0.67 l
0.69 -0.65 l
0.69 -0.64 l
0.69 -0.63 l
0.70 -0.60 l
385.66 116.11 lineto
0.69 -0.58 l
0.70 -0.57 l
0.69 -0.55 l
0.69 -0.54 l
0.70 -0.53 l
0.69 -0.52 l
0.69 -0.50 l
0.70 -0.50 l
0.69 -0.49 l
0.69 -0.49 l
0.70 -0.48 l
0.69 -0.48 l
0.69 -0.47 l
0.70 -0.47 l
0.69 -0.47 l
0.69 -0.47 l
0.70 -0.48 l
0.69 -0.47 l
0.69 -0.47 l
0.70 -0.48 l
0.69 -0.48 l
0.69 -0.49 l
0.70 -0.48 l
0.69 -0.49 l
0.69 -0.50 l
0.70 -0.49 l
0.69 -0.50 l
0.69 -0.51 l
0.70 -0.50 l
0.69 -0.50 l
0.69 -0.51 l
0.70 -0.51 l
0.69 -0.51 l
0.69 -0.50 l
0.70 -0.51 l
0.69 -0.50 l
0.69 -0.50 l
0.69 -0.50 l
0.70 -0.49 l
0.69 -0.50 l
0.69 -0.48 l
0.70 -0.48 l
0.69 -0.47 l
0.69 -0.47 l
0.70 -0.46 l
0.69 -0.45 l
0.69 -0.45 l
0.70 -0.43 l
0.69 -0.43 l
0.69 -0.41 l
0.70 -0.41 l
0.69 -0.39 l
0.69 -0.38 l
0.70 -0.38 l
0.69 -0.36 l
0.69 -0.35 l
0.70 -0.33 l
0.69 -0.33 l
0.69 -0.31 l
0.70 -0.30 l
0.69 -0.28 l
0.69 -0.27 l
0.70 -0.27 l
0.69 -0.24 l
0.69 -0.24 l
0.70 -0.22 l
0.69 -0.21 l
0.69 -0.20 l
0.70 -0.18 l
0.69 -0.18 l
0.69 -0.16 l
0.70 -0.15 l
0.69 -0.14 l
0.69 -0.13 l
0.70 -0.13 l
0.69 -0.11 l
0.69 -0.10 l
0.70 -0.09 l
0.69 -0.09 l
0.69 -0.08 l
0.69 -0.07 l
0.70 -0.07 l
0.69 -0.06 l
0.69 -0.05 l
0.70 -0.05 l
0.69 -0.04 l
0.69 -0.04 l
0.70 -0.04 l
0.69 -0.03 l
0.69 -0.03 l
0.70 -0.02 l
0.69 -0.03 l
0.69 -0.01 l
0.70 -0.02 l
0.69 -0.02 l
0.69 -0.01 l
0.70 -0.01 l
0.69 -0.01 l
0.69 -0.01 l
454.99 83.96 lineto
0.69 0 l
0.69 -0.01 l
0.70 0 l
0.69 -0.01 l
0.69 0 l
0.70 0 l
0.69 -0.01 l
0.69 0 l
0.70 0 l
0.69 0 l
0.69 0 l
o
0 1 0 srgb
1.50 setlinewidth
[] 0 setdash
np
96.05 83.93 m
0.40 0 l
0.40 0 l
0.40 0 l
0.40 0.01 l
0.40 0 l
0.40 0 l
0.41 0.01 l
0.40 0 l
0.40 0.01 l
0.40 0 l
0.40 0.01 l
0.40 0.01 l
0.40 0 l
0.40 0.01 l
0.40 0.01 l
0.40 0.02 l
0.40 0.01 l
0.40 0.01 l
0.40 0.02 l
0.40 0.02 l
0.40 0.02 l
0.40 0.02 l
0.40 0.02 l
0.40 0.02 l
0.40 0.03 l
0.40 0.03 l
0.40 0.03 l
0.40 0.03 l
0.40 0.03 l
0.40 0.04 l
0.40 0.03 l
0.40 0.04 l
0.41 0.04 l
0.40 0.05 l
0.40 0.04 l
0.40 0.05 l
0.40 0.05 l
0.40 0.05 l
0.40 0.05 l
0.40 0.05 l
0.40 0.06 l
0.40 0.06 l
0.40 0.06 l
0.40 0.06 l
0.40 0.06 l
0.40 0.06 l
0.40 0.07 l
0.40 0.07 l
0.40 0.07 l
0.40 0.07 l
0.40 0.08 l
0.40 0.07 l
0.40 0.08 l
0.40 0.08 l
0.40 0.08 l
0.40 0.09 l
0.40 0.08 l
0.40 0.09 l
0.40 0.09 l
0.41 0.10 l
0.40 0.10 l
0.40 0.10 l
0.40 0.11 l
0.40 0.11 l
0.40 0.11 l
0.40 0.12 l
0.40 0.13 l
0.40 0.13 l
0.40 0.15 l
0.40 0.15 l
0.40 0.16 l
0.40 0.17 l
0.40 0.18 l
0.40 0.20 l
0.40 0.21 l
0.40 0.22 l
0.40 0.24 l
0.40 0.25 l
0.40 0.28 l
0.40 0.29 l
0.40 0.32 l
0.40 0.33 l
0.40 0.35 l
0.40 0.38 l
0.40 0.40 l
0.41 0.42 l
0.40 0.45 l
0.40 0.47 l
0.40 0.50 l
0.40 0.53 l
0.40 0.55 l
0.40 0.58 l
0.40 0.60 l
0.40 0.63 l
0.40 0.67 l
0.40 0.69 l
0.40 0.72 l
0.40 0.74 l
0.40 0.78 l
136.09 100.60 lineto
0.40 0.84 l
0.40 0.87 l
0.40 0.89 l
0.40 0.92 l
0.40 0.96 l
0.40 0.99 l
0.40 1.02 l
0.40 1.05 l
0.40 1.08 l
0.40 1.12 l
0.40 1.15 l
0.41 1.18 l
0.40 1.22 l
0.40 1.25 l
0.40 1.28 l
0.40 1.33 l
0.40 1.35 l
0.40 1.39 l
0.40 1.43 l
0.40 1.45 l
0.40 1.50 l
0.40 1.53 l
0.40 1.56 l
0.40 1.59 l
0.40 1.62 l
0.40 1.66 l
0.40 1.68 l
0.40 1.71 l
0.40 1.74 l
0.40 1.75 l
0.40 1.78 l
0.40 1.80 l
0.40 1.82 l
0.40 1.82 l
0.40 1.84 l
0.40 1.85 l
0.40 1.85 l
0.41 1.85 l
0.40 1.85 l
0.40 1.84 l
0.40 1.84 l
0.40 1.82 l
0.40 1.81 l
0.40 1.79 l
0.40 1.77 l
0.40 1.75 l
0.40 1.71 l
0.40 1.68 l
0.40 1.65 l
0.40 1.61 l
0.40 1.57 l
0.40 1.53 l
0.40 1.47 l
0.40 1.43 l
0.40 1.37 l
0.40 1.33 l
0.40 1.26 l
0.40 1.20 l
0.40 1.15 l
0.40 1.08 l
0.40 1.03 l
0.40 0.97 l
0.40 0.89 l
0.41 0.83 l
0.40 0.78 l
0.40 0.72 l
0.40 0.66 l
0.40 0.60 l
0.40 0.54 l
0.40 0.50 l
0.40 0.46 l
0.40 0.41 l
0.40 0.37 l
0.40 0.34 l
0.40 0.30 l
0.40 0.28 l
0.40 0.26 l
0.40 0.24 l
0.40 0.23 l
0.40 0.21 l
0.40 0.21 l
0.40 0.21 l
0.40 0.21 l
0.40 0.21 l
0.40 0.21 l
0.40 0.22 l
0.40 0.23 l
0.40 0.23 l
0.40 0.24 l
0.40 0.25 l
0.41 0.25 l
0.40 0.26 l
0.40 0.26 l
0.40 0.26 l
0.40 0.26 l
0.40 0.26 l
0.40 0.26 l
0.40 0.25 l
0.40 0.24 l
176.13 204.20 lineto
0.40 0.22 l
0.40 0.21 l
0.40 0.19 l
0.40 0.18 l
0.40 0.16 l
0.40 0.14 l
0.40 0.13 l
0.40 0.12 l
0.40 0.10 l
0.40 0.08 l
0.40 0.08 l
0.40 0.06 l
0.40 0.04 l
0.40 0.04 l
0.40 0.02 l
0.40 0.02 l
0.41 0.01 l
0.40 0 l
0.40 -0.01 l
0.40 -0.01 l
0.40 -0.03 l
0.40 -0.03 l
0.40 -0.04 l
0.40 -0.05 l
0.40 -0.07 l
0.40 -0.08 l
0.40 -0.09 l
0.40 -0.11 l
0.40 -0.13 l
0.40 -0.16 l
0.40 -0.18 l
0.40 -0.21 l
0.40 -0.24 l
0.40 -0.26 l
0.40 -0.30 l
0.40 -0.34 l
0.40 -0.38 l
0.40 -0.41 l
0.40 -0.45 l
0.40 -0.49 l
0.40 -0.53 l
0.40 -0.58 l
0.41 -0.61 l
0.40 -0.64 l
0.40 -0.68 l
0.40 -0.73 l
0.40 -0.76 l
0.40 -0.79 l
0.40 -0.82 l
0.40 -0.85 l
0.40 -0.87 l
0.40 -0.91 l
0.40 -0.92 l
0.40 -0.95 l
0.40 -0.96 l
0.40 -0.98 l
0.40 -1.00 l
0.40 -1.00 l
0.40 -1.02 l
0.40 -1.03 l
0.40 -1.03 l
0.40 -1.04 l
0.40 -1.04 l
0.40 -1.05 l
0.40 -1.05 l
0.40 -1.05 l
0.40 -1.04 l
0.40 -1.05 l
0.41 -1.04 l
0.40 -1.04 l
0.40 -1.04 l
0.40 -1.02 l
0.40 -1.02 l
0.40 -1.01 l
0.40 -1.00 l
0.40 -0.98 l
0.40 -0.98 l
0.40 -0.95 l
0.40 -0.94 l
0.40 -0.93 l
0.40 -0.91 l
0.40 -0.89 l
0.40 -0.87 l
0.40 -0.85 l
0.40 -0.83 l
0.40 -0.82 l
0.40 -0.79 l
0.40 -0.78 l
0.40 -0.76 l
0.40 -0.76 l
0.40 -0.74 l
0.40 -0.73 l
0.40 -0.72 l
0.40 -0.73 l
0.40 -0.72 l
0.41 -0.73 l
0.40 -0.73 l
0.40 -0.75 l
0.40 -0.76 l
216.17 149.35 lineto
0.40 -0.80 l
0.40 -0.82 l
0.40 -0.85 l
0.40 -0.88 l
0.40 -0.91 l
0.40 -0.94 l
0.40 -0.97 l
0.40 -1.00 l
0.40 -1.04 l
0.40 -1.07 l
0.40 -1.09 l
0.40 -1.12 l
0.40 -1.15 l
0.40 -1.17 l
0.40 -1.18 l
0.40 -1.20 l
0.40 -1.20 l
0.40 -1.20 l
0.40 -1.21 l
0.40 -1.19 l
0.40 -1.18 l
0.41 -1.17 l
0.40 -1.14 l
0.40 -1.12 l
0.40 -1.08 l
0.40 -1.04 l
0.40 -1.01 l
0.40 -0.97 l
0.40 -0.92 l
0.40 -0.87 l
0.40 -0.83 l
0.40 -0.78 l
0.40 -0.73 l
0.40 -0.69 l
0.40 -0.63 l
0.40 -0.58 l
0.40 -0.55 l
0.40 -0.51 l
0.40 -0.48 l
0.40 -0.43 l
0.40 -0.40 l
0.40 -0.39 l
0.40 -0.35 l
0.40 -0.35 l
0.40 -0.32 l
0.40 -0.32 l
0.40 -0.30 l
0.41 -0.31 l
0.40 -0.30 l
0.40 -0.31 l
0.40 -0.31 l
0.40 -0.32 l
0.40 -0.33 l
0.40 -0.34 l
0.40 -0.35 l
0.40 -0.36 l
0.40 -0.37 l
0.40 -0.39 l
0.40 -0.39 l
0.40 -0.40 l
0.40 -0.41 l
0.40 -0.42 l
0.40 -0.42 l
0.40 -0.43 l
0.40 -0.42 l
0.40 -0.42 l
0.40 -0.42 l
0.40 -0.42 l
0.40 -0.40 l
0.40 -0.40 l
0.40 -0.39 l
0.40 -0.37 l
0.40 -0.36 l
0.41 -0.35 l
0.40 -0.33 l
0.40 -0.32 l
0.40 -0.30 l
0.40 -0.29 l
0.40 -0.27 l
0.40 -0.25 l
0.40 -0.24 l
0.40 -0.23 l
0.40 -0.21 l
0.40 -0.21 l
0.40 -0.19 l
0.40 -0.18 l
0.40 -0.18 l
0.40 -0.17 l
0.40 -0.16 l
0.40 -0.16 l
0.40 -0.16 l
0.40 -0.16 l
0.40 -0.15 l
0.40 -0.16 l
0.40 -0.16 l
0.40 -0.16 l
0.40 -0.16 l
0.40 -0.16 l
0.40 -0.17 l
256.21 93.81 lineto
0.40 -0.18 l
0.40 -0.18 l
0.40 -0.19 l
0.40 -0.19 l
0.40 -0.19 l
0.40 -0.20 l
0.40 -0.20 l
0.40 -0.21 l
0.40 -0.21 l
0.40 -0.21 l
0.40 -0.22 l
0.40 -0.22 l
0.40 -0.22 l
0.40 -0.22 l
0.40 -0.23 l
0.40 -0.23 l
0.40 -0.22 l
0.40 -0.23 l
0.40 -0.23 l
0.40 -0.23 l
0.40 -0.22 l
0.40 -0.23 l
0.40 -0.22 l
0.40 -0.22 l
0.40 -0.21 l
0.40 -0.22 l
0.41 -0.20 l
0.40 -0.21 l
0.40 -0.19 l
0.40 -0.19 l
0.40 -0.19 l
0.40 -0.17 l
0.40 -0.17 l
0.40 -0.16 l
0.40 -0.15 l
0.40 -0.15 l
0.40 -0.13 l
0.40 -0.13 l
0.40 -0.11 l
0.40 -0.11 l
0.40 -0.10 l
0.40 -0.09 l
0.40 -0.08 l
0.40 -0.08 l
0.40 -0.06 l
0.40 -0.06 l
0.40 -0.06 l
0.40 -0.04 l
0.40 -0.05 l
0.40 -0.03 l
0.40 -0.04 l
0.40 -0.03 l
0.41 -0.03 l
0.40 -0.02 l
0.40 -0.03 l
0.40 -0.02 l
0.40 -0.02 l
0.40 -0.02 l
0.40 -0.03 l
0.40 -0.02 l
0.40 -0.02 l
0.40 -0.03 l
0.40 -0.03 l
0.40 -0.02 l
0.40 -0.03 l
0.40 -0.03 l
0.40 -0.04 l
0.40 -0.03 l
0.40 -0.04 l
0.40 -0.04 l
0.40 -0.03 l
0.40 -0.04 l
0.40 -0.04 l
0.40 -0.04 l
0.40 -0.04 l
0.40 -0.04 l
0.40 -0.04 l
0.40 -0.04 l
0.41 -0.04 l
0.40 -0.04 l
0.40 -0.04 l
0.40 -0.03 l
0.40 -0.04 l
0.40 -0.03 l
0.40 -0.03 l
0.40 -0.03 l
0.40 -0.03 l
0.40 -0.02 l
0.40 -0.03 l
0.40 -0.02 l
0.40 -0.02 l
0.40 -0.02 l
0.40 -0.02 l
0.40 -0.01 l
0.40 -0.02 l
0.40 -0.01 l
0.40 -0.01 l
0.40 -0.01 l
0.40 -0.01 l
296.24 83.97 lineto
0.40 -0.01 l
0.40 0 l
0.40 -0.01 l
0.40 0 l
0.41 -0.01 l
0.40 0 l
0.40 0 l
0.40 -0.01 l
0.40 0 l
0.40 0 l
0.40 0 l
o
1.50 setlinewidth
[ 4.50 7.50] 0 setdash
np
210.68 83.93 m
0.47 0 l
0.48 0 l
0.47 0 l
0.48 0.01 l
0.47 0 l
0.48 0 l
0.47 0 l
0.48 0.01 l
0.47 0 l
0.48 0.01 l
0.47 0.01 l
0.48 0 l
0.47 0.01 l
0.48 0.01 l
0.47 0.01 l
0.48 0.01 l
0.47 0.01 l
0.48 0.02 l
0.47 0.01 l
0.48 0.02 l
0.47 0.02 l
0.47 0.02 l
0.48 0.02 l
0.47 0.02 l
0.48 0.03 l
0.47 0.03 l
0.48 0.02 l
0.47 0.03 l
0.48 0.04 l
0.47 0.03 l
0.48 0.03 l
0.47 0.04 l
0.48 0.03 l
0.47 0.04 l
0.48 0.04 l
0.47 0.04 l
0.48 0.04 l
0.47 0.04 l
0.48 0.03 l
0.47 0.04 l
0.48 0.04 l
0.47 0.04 l
0.48 0.04 l
0.47 0.04 l
0.48 0.04 l
0.47 0.03 l
0.48 0.04 l
0.47 0.04 l
0.48 0.03 l
0.47 0.04 l
0.48 0.04 l
0.47 0.04 l
0.48 0.03 l
0.47 0.04 l
0.48 0.04 l
0.47 0.05 l
0.48 0.04 l
0.47 0.05 l
0.48 0.04 l
0.47 0.06 l
0.48 0.05 l
0.47 0.06 l
0.48 0.06 l
0.47 0.06 l
0.48 0.07 l
0.47 0.07 l
0.48 0.08 l
0.47 0.08 l
0.48 0.08 l
0.47 0.09 l
0.47 0.09 l
0.48 0.09 l
0.47 0.09 l
0.48 0.10 l
0.47 0.09 l
0.48 0.10 l
0.47 0.10 l
0.48 0.10 l
0.47 0.09 l
0.48 0.10 l
0.47 0.09 l
0.48 0.10 l
0.47 0.09 l
0.48 0.08 l
0.47 0.09 l
0.48 0.08 l
0.47 0.08 l
0.48 0.07 l
0.47 0.07 l
0.48 0.06 l
0.47 0.07 l
0.48 0.06 l
0.47 0.05 l
0.48 0.05 l
0.47 0.05 l
0.48 0.04 l
0.47 0.05 l
0.48 0.04 l
0.47 0.04 l
258.17 88.45 lineto
0.47 0.04 l
0.48 0.04 l
0.47 0.04 l
0.48 0.04 l
0.47 0.04 l
0.48 0.04 l
0.47 0.05 l
0.48 0.05 l
0.47 0.05 l
0.48 0.06 l
0.47 0.07 l
0.48 0.07 l
0.47 0.08 l
0.48 0.08 l
0.47 0.09 l
0.48 0.10 l
0.47 0.11 l
0.48 0.11 l
0.47 0.13 l
0.47 0.13 l
0.48 0.15 l
0.47 0.15 l
0.48 0.16 l
0.47 0.17 l
0.48 0.19 l
0.47 0.19 l
0.48 0.20 l
0.47 0.22 l
0.48 0.22 l
0.47 0.23 l
0.48 0.24 l
0.47 0.25 l
0.48 0.26 l
0.47 0.27 l
0.48 0.27 l
0.47 0.28 l
0.48 0.28 l
0.47 0.29 l
0.48 0.29 l
0.47 0.29 l
0.48 0.30 l
0.47 0.29 l
0.48 0.29 l
0.47 0.29 l
0.48 0.28 l
0.47 0.27 l
0.48 0.26 l
0.47 0.26 l
0.48 0.24 l
0.47 0.24 l
0.48 0.22 l
0.47 0.20 l
0.48 0.19 l
0.47 0.18 l
0.48 0.17 l
0.47 0.15 l
0.48 0.13 l
0.47 0.12 l
0.48 0.11 l
0.47 0.11 l
0.48 0.09 l
0.47 0.08 l
0.48 0.08 l
0.47 0.08 l
0.48 0.07 l
0.47 0.08 l
0.48 0.08 l
0.47 0.08 l
0.47 0.09 l
0.48 0.10 l
0.47 0.12 l
0.48 0.13 l
0.47 0.14 l
0.48 0.16 l
0.47 0.18 l
0.48 0.20 l
0.47 0.21 l
0.48 0.24 l
0.47 0.26 l
0.48 0.29 l
0.47 0.30 l
0.48 0.32 l
0.47 0.34 l
0.48 0.37 l
0.47 0.38 l
0.48 0.40 l
0.47 0.42 l
0.48 0.43 l
0.47 0.45 l
0.48 0.47 l
0.47 0.48 l
0.48 0.49 l
0.47 0.51 l
0.48 0.52 l
0.47 0.53 l
0.48 0.55 l
0.47 0.55 l
0.48 0.57 l
0.47 0.58 l
305.66 110.79 lineto
0.47 0.60 l
0.48 0.62 l
0.47 0.63 l
0.48 0.65 l
0.47 0.66 l
0.48 0.67 l
0.47 0.68 l
0.48 0.70 l
0.47 0.71 l
0.48 0.73 l
0.47 0.74 l
0.48 0.75 l
0.47 0.76 l
0.48 0.78 l
0.47 0.78 l
0.48 0.80 l
0.47 0.80 l
0.47 0.81 l
0.48 0.81 l
0.47 0.83 l
0.48 0.82 l
0.47 0.83 l
0.48 0.83 l
0.47 0.83 l
0.48 0.83 l
0.47 0.83 l
0.48 0.82 l
0.47 0.83 l
0.48 0.82 l
0.47 0.81 l
0.48 0.82 l
0.47 0.81 l
0.48 0.80 l
0.47 0.81 l
0.48 0.80 l
0.47 0.79 l
0.48 0.80 l
0.47 0.80 l
0.48 0.80 l
0.47 0.80 l
0.48 0.81 l
0.47 0.81 l
0.48 0.82 l
0.47 0.83 l
0.48 0.84 l
0.47 0.85 l
0.48 0.86 l
0.47 0.88 l
0.48 0.89 l
0.47 0.90 l
0.48 0.93 l
0.47 0.94 l
0.48 0.96 l
0.47 0.98 l
0.48 0.99 l
0.47 1.01 l
0.48 1.03 l
0.47 1.04 l
0.48 1.06 l
0.47 1.07 l
0.48 1.08 l
0.47 1.10 l
0.48 1.10 l
0.47 1.11 l
0.47 1.12 l
0.48 1.11 l
0.47 1.12 l
0.48 1.12 l
0.47 1.11 l
0.48 1.10 l
0.47 1.09 l
0.48 1.08 l
0.47 1.07 l
0.48 1.04 l
0.47 1.03 l
0.48 1.00 l
0.47 0.98 l
0.48 0.94 l
0.47 0.92 l
0.48 0.88 l
0.47 0.84 l
0.48 0.81 l
0.47 0.76 l
0.48 0.72 l
0.47 0.68 l
0.48 0.63 l
0.47 0.60 l
0.48 0.53 l
0.47 0.48 l
0.48 0.44 l
0.47 0.39 l
0.48 0.35 l
0.47 0.29 l
0.48 0.24 l
0.47 0.20 l
0.48 0.15 l
0.47 0.12 l
0.48 0.07 l
0.47 0.02 l
353.15 189.49 lineto
0.47 -0.04 l
0.48 -0.07 l
0.47 -0.10 l
0.48 -0.14 l
0.47 -0.15 l
0.48 -0.17 l
0.47 -0.19 l
0.48 -0.21 l
0.47 -0.21 l
0.48 -0.23 l
0.47 -0.23 l
0.48 -0.23 l
0.47 -0.23 l
0.47 -0.23 l
0.48 -0.22 l
0.47 -0.21 l
0.48 -0.20 l
0.47 -0.19 l
0.48 -0.17 l
0.47 -0.16 l
0.48 -0.14 l
0.47 -0.11 l
0.48 -0.10 l
0.47 -0.07 l
0.48 -0.05 l
0.47 -0.02 l
0.48 0 l
0.47 0.02 l
0.48 0.04 l
0.47 0.07 l
0.48 0.08 l
0.47 0.11 l
0.48 0.11 l
0.47 0.13 l
0.48 0.13 l
0.47 0.14 l
0.48 0.14 l
0.47 0.14 l
0.48 0.12 l
0.47 0.11 l
0.48 0.09 l
0.47 0.06 l
0.48 0.04 l
0.47 0 l
0.48 -0.04 l
0.47 -0.09 l
0.48 -0.13 l
0.47 -0.19 l
0.48 -0.24 l
0.47 -0.29 l
0.48 -0.35 l
0.47 -0.42 l
0.48 -0.48 l
0.47 -0.53 l
0.48 -0.59 l
0.47 -0.66 l
0.48 -0.71 l
0.47 -0.77 l
0.48 -0.81 l
0.47 -0.86 l
0.48 -0.90 l
0.47 -0.95 l
0.47 -0.99 l
0.48 -1.01 l
0.47 -1.04 l
0.48 -1.07 l
0.47 -1.08 l
0.48 -1.11 l
0.47 -1.12 l
0.48 -1.12 l
0.47 -1.14 l
0.48 -1.14 l
0.47 -1.14 l
0.48 -1.15 l
0.47 -1.15 l
0.48 -1.15 l
0.47 -1.15 l
0.48 -1.16 l
0.47 -1.15 l
0.48 -1.16 l
0.47 -1.16 l
0.48 -1.17 l
0.47 -1.17 l
0.48 -1.18 l
0.47 -1.19 l
0.48 -1.19 l
0.47 -1.20 l
0.48 -1.21 l
0.47 -1.22 l
0.48 -1.23 l
0.47 -1.24 l
0.48 -1.25 l
0.47 -1.26 l
0.48 -1.27 l
0.47 -1.27 l
0.48 -1.29 l
0.47 -1.29 l
0.48 -1.30 l
0.47 -1.30 l
400.64 133.21 lineto
0.47 -1.32 l
0.48 -1.31 l
0.47 -1.32 l
0.48 -1.32 l
0.47 -1.32 l
0.48 -1.31 l
0.47 -1.32 l
0.48 -1.32 l
0.47 -1.30 l
0.48 -1.31 l
0.47 -1.30 l
0.47 -1.29 l
0.48 -1.28 l
0.47 -1.27 l
0.48 -1.25 l
0.47 -1.24 l
0.48 -1.23 l
0.47 -1.21 l
0.48 -1.19 l
0.47 -1.16 l
0.48 -1.14 l
0.47 -1.11 l
0.48 -1.09 l
0.47 -1.06 l
0.48 -1.02 l
0.47 -0.99 l
0.48 -0.95 l
0.47 -0.93 l
0.48 -0.88 l
0.47 -0.85 l
0.48 -0.80 l
0.47 -0.77 l
0.48 -0.73 l
0.47 -0.70 l
0.48 -0.65 l
0.47 -0.62 l
0.48 -0.58 l
0.47 -0.55 l
0.48 -0.52 l
0.47 -0.48 l
0.48 -0.45 l
0.47 -0.42 l
0.48 -0.39 l
0.47 -0.36 l
0.48 -0.35 l
0.47 -0.31 l
0.48 -0.29 l
0.47 -0.27 l
0.48 -0.25 l
0.47 -0.24 l
0.48 -0.22 l
0.47 -0.20 l
0.48 -0.18 l
0.47 -0.18 l
0.48 -0.16 l
0.47 -0.15 l
0.48 -0.15 l
0.47 -0.13 l
0.48 -0.12 l
0.47 -0.12 l
0.47 -0.12 l
0.48 -0.10 l
0.47 -0.11 l
0.48 -0.10 l
0.47 -0.09 l
0.48 -0.09 l
0.47 -0.09 l
0.48 -0.09 l
0.47 -0.08 l
0.48 -0.08 l
0.47 -0.08 l
0.48 -0.08 l
0.47 -0.07 l
0.48 -0.08 l
0.47 -0.07 l
0.48 -0.07 l
0.47 -0.07 l
0.48 -0.06 l
0.47 -0.06 l
0.48 -0.06 l
0.47 -0.06 l
0.48 -0.05 l
0.47 -0.06 l
0.48 -0.04 l
0.47 -0.05 l
0.48 -0.04 l
0.47 -0.04 l
0.48 -0.04 l
0.47 -0.04 l
0.48 -0.03 l
0.47 -0.03 l
0.48 -0.03 l
0.47 -0.02 l
0.48 -0.02 l
0.47 -0.02 l
0.48 -0.02 l
0.47 -0.02 l
0.48 -0.01 l
0.47 -0.01 l
448.13 83.99 lineto
0.47 -0.01 l
0.48 -0.01 l
0.47 -0.01 l
0.48 0 l
0.47 -0.01 l
0.48 0 l
0.47 -0.01 l
0.48 0 l
0.47 0 l
0.47 -0.01 l
0.48 0 l
o
0 0 1 srgb
1.50 setlinewidth
[] 0 setdash
np
91.72 83.94 m
0.44 0 l
0.45 0.01 l
0.45 0 l
0.45 0.01 l
0.44 0 l
0.45 0.01 l
0.45 0.01 l
0.45 0.01 l
0.45 0.02 l
0.44 0.01 l
0.45 0.02 l
0.45 0.02 l
0.45 0.02 l
0.44 0.03 l
0.45 0.03 l
0.45 0.04 l
0.45 0.04 l
0.45 0.04 l
0.44 0.05 l
0.45 0.06 l
0.45 0.06 l
0.45 0.07 l
0.44 0.08 l
0.45 0.09 l
0.45 0.09 l
0.45 0.11 l
0.45 0.11 l
0.44 0.13 l
0.45 0.14 l
0.45 0.15 l
0.45 0.16 l
0.44 0.18 l
0.45 0.19 l
0.45 0.21 l
0.45 0.23 l
0.44 0.24 l
0.45 0.26 l
0.45 0.28 l
0.45 0.30 l
0.45 0.32 l
0.44 0.34 l
0.45 0.37 l
0.45 0.39 l
0.45 0.42 l
0.44 0.44 l
0.45 0.47 l
0.45 0.50 l
0.45 0.53 l
0.45 0.55 l
0.44 0.59 l
0.45 0.62 l
0.45 0.65 l
0.45 0.69 l
0.44 0.72 l
0.45 0.75 l
0.45 0.78 l
0.45 0.82 l
0.44 0.85 l
0.45 0.88 l
0.45 0.91 l
0.45 0.94 l
0.45 0.98 l
0.44 0.99 l
0.45 1.02 l
0.45 1.05 l
0.45 1.05 l
0.44 1.08 l
0.45 1.10 l
0.45 1.10 l
0.45 1.11 l
0.45 1.11 l
0.44 1.12 l
0.45 1.11 l
0.45 1.10 l
0.45 1.10 l
0.44 1.08 l
0.45 1.07 l
0.45 1.05 l
0.45 1.02 l
0.44 1.01 l
0.45 0.97 l
0.45 0.95 l
0.45 0.92 l
0.45 0.89 l
0.44 0.86 l
0.45 0.83 l
0.45 0.79 l
0.45 0.76 l
0.44 0.73 l
0.45 0.70 l
0.45 0.68 l
0.45 0.65 l
0.45 0.62 l
0.44 0.60 l
0.45 0.59 l
0.45 0.56 l
0.45 0.56 l
0.44 0.53 l
0.45 0.54 l
136.49 135.48 lineto
0.45 0.52 l
0.45 0.52 l
0.44 0.53 l
0.45 0.52 l
0.45 0.54 l
0.45 0.54 l
0.44 0.54 l
0.45 0.57 l
0.45 0.57 l
0.45 0.59 l
0.44 0.59 l
0.45 0.62 l
0.45 0.62 l
0.45 0.65 l
0.45 0.65 l
0.44 0.67 l
0.45 0.68 l
0.45 0.69 l
0.45 0.71 l
0.44 0.72 l
0.45 0.73 l
0.45 0.74 l
0.45 0.76 l
0.45 0.76 l
0.44 0.77 l
0.45 0.79 l
0.45 0.79 l
0.45 0.80 l
0.44 0.81 l
0.45 0.82 l
0.45 0.83 l
0.45 0.83 l
0.44 0.85 l
0.45 0.85 l
0.45 0.87 l
0.45 0.87 l
0.45 0.88 l
0.44 0.89 l
0.45 0.91 l
0.45 0.91 l
0.45 0.91 l
0.44 0.93 l
0.45 0.93 l
0.45 0.95 l
0.45 0.95 l
0.45 0.96 l
0.44 0.97 l
0.45 0.98 l
0.45 0.99 l
0.45 0.99 l
0.44 1.01 l
0.45 1.01 l
0.45 1.01 l
0.45 1.03 l
0.44 1.03 l
0.45 1.03 l
0.45 1.04 l
0.45 1.04 l
0.45 1.04 l
0.44 1.03 l
0.45 1.04 l
0.45 1.03 l
0.45 1.02 l
0.44 1.00 l
0.45 0.99 l
0.45 0.97 l
0.45 0.95 l
0.45 0.92 l
0.44 0.89 l
0.45 0.85 l
0.45 0.80 l
0.45 0.77 l
0.44 0.72 l
0.45 0.67 l
0.45 0.60 l
0.45 0.54 l
0.44 0.48 l
0.45 0.42 l
0.45 0.35 l
0.45 0.27 l
0.45 0.20 l
0.44 0.13 l
0.45 0.06 l
0.45 -0.02 l
0.45 -0.10 l
0.44 -0.17 l
0.45 -0.23 l
0.45 -0.30 l
0.45 -0.36 l
0.45 -0.43 l
0.44 -0.49 l
0.45 -0.53 l
0.45 -0.58 l
0.45 -0.62 l
0.44 -0.66 l
0.45 -0.70 l
0.45 -0.71 l
0.45 -0.73 l
0.45 -0.75 l
181.26 191.34 lineto
0.45 -0.76 l
0.45 -0.76 l
0.45 -0.75 l
0.44 -0.74 l
0.45 -0.73 l
0.45 -0.71 l
0.45 -0.68 l
0.44 -0.67 l
0.45 -0.64 l
0.45 -0.62 l
0.45 -0.58 l
0.45 -0.56 l
0.44 -0.54 l
0.45 -0.52 l
0.45 -0.49 l
0.45 -0.46 l
0.44 -0.45 l
0.45 -0.44 l
0.45 -0.42 l
0.45 -0.41 l
0.45 -0.40 l
0.44 -0.39 l
0.45 -0.39 l
0.45 -0.39 l
0.45 -0.40 l
0.44 -0.39 l
0.45 -0.41 l
0.45 -0.41 l
0.45 -0.43 l
0.44 -0.43 l
0.45 -0.45 l
0.45 -0.46 l
0.45 -0.48 l
0.45 -0.49 l
0.44 -0.51 l
0.45 -0.52 l
0.45 -0.54 l
0.45 -0.55 l
0.44 -0.56 l
0.45 -0.58 l
0.45 -0.59 l
0.45 -0.61 l
0.45 -0.61 l
0.44 -0.63 l
0.45 -0.63 l
0.45 -0.64 l
0.45 -0.65 l
0.44 -0.66 l
0.45 -0.66 l
0.45 -0.67 l
0.45 -0.67 l
0.44 -0.67 l
0.45 -0.68 l
0.45 -0.69 l
0.45 -0.68 l
0.45 -0.69 l
0.44 -0.70 l
0.45 -0.70 l
0.45 -0.71 l
0.45 -0.72 l
0.44 -0.72 l
0.45 -0.74 l
0.45 -0.75 l
0.45 -0.76 l
0.45 -0.77 l
0.44 -0.79 l
0.45 -0.81 l
0.45 -0.83 l
0.45 -0.85 l
0.44 -0.88 l
0.45 -0.89 l
0.45 -0.92 l
0.45 -0.95 l
0.45 -0.97 l
0.44 -0.99 l
0.45 -1.02 l
0.45 -1.04 l
0.45 -1.06 l
0.44 -1.08 l
0.45 -1.10 l
0.45 -1.11 l
0.45 -1.12 l
0.44 -1.14 l
0.45 -1.14 l
0.45 -1.14 l
0.45 -1.15 l
0.45 -1.14 l
0.44 -1.13 l
0.45 -1.13 l
0.45 -1.11 l
0.45 -1.10 l
0.44 -1.08 l
0.45 -1.05 l
0.45 -1.04 l
0.45 -1.01 l
0.45 -0.98 l
0.44 -0.96 l
0.45 -0.92 l
0.45 -0.90 l
226.04 117.84 lineto
0.44 -0.84 l
0.45 -0.81 l
0.45 -0.78 l
0.45 -0.75 l
0.44 -0.72 l
0.45 -0.70 l
0.45 -0.67 l
0.45 -0.64 l
0.45 -0.62 l
0.44 -0.60 l
0.45 -0.58 l
0.45 -0.57 l
0.45 -0.53 l
0.44 -0.53 l
0.45 -0.51 l
0.45 -0.49 l
0.45 -0.48 l
0.45 -0.46 l
0.44 -0.45 l
0.45 -0.45 l
0.45 -0.43 l
0.45 -0.42 l
0.44 -0.41 l
0.45 -0.40 l
0.45 -0.39 l
0.45 -0.38 l
0.44 -0.38 l
0.45 -0.36 l
0.45 -0.36 l
0.45 -0.35 l
0.45 -0.34 l
0.44 -0.34 l
0.45 -0.32 l
0.45 -0.32 l
0.45 -0.31 l
0.44 -0.30 l
0.45 -0.29 l
0.45 -0.29 l
0.45 -0.27 l
0.45 -0.27 l
0.44 -0.25 l
0.45 -0.26 l
0.45 -0.24 l
0.45 -0.23 l
0.44 -0.22 l
0.45 -0.22 l
0.45 -0.21 l
0.45 -0.20 l
0.44 -0.20 l
0.45 -0.18 l
0.45 -0.19 l
0.45 -0.18 l
0.45 -0.17 l
0.44 -0.18 l
0.45 -0.17 l
0.45 -0.17 l
0.45 -0.17 l
0.44 -0.16 l
0.45 -0.18 l
0.45 -0.17 l
0.45 -0.17 l
0.45 -0.18 l
0.44 -0.18 l
0.45 -0.19 l
0.45 -0.19 l
0.45 -0.20 l
0.44 -0.20 l
0.45 -0.21 l
0.45 -0.21 l
0.45 -0.21 l
0.45 -0.23 l
0.44 -0.22 l
0.45 -0.23 l
0.45 -0.23 l
0.45 -0.24 l
0.44 -0.23 l
0.45 -0.24 l
0.45 -0.24 l
0.45 -0.23 l
0.44 -0.24 l
0.45 -0.24 l
0.45 -0.23 l
0.45 -0.23 l
0.45 -0.22 l
0.44 -0.22 l
0.45 -0.22 l
0.45 -0.21 l
0.45 -0.21 l
0.44 -0.20 l
0.45 -0.19 l
0.45 -0.19 l
0.45 -0.18 l
0.45 -0.17 l
0.44 -0.17 l
0.45 -0.16 l
0.45 -0.16 l
0.45 -0.15 l
0.44 -0.14 l
0.45 -0.14 l
270.81 86.75 lineto
0.45 -0.13 l
0.44 -0.12 l
0.45 -0.12 l
0.45 -0.12 l
0.45 -0.11 l
0.45 -0.10 l
0.44 -0.11 l
0.45 -0.10 l
0.45 -0.09 l
0.45 -0.10 l
0.44 -0.09 l
0.45 -0.08 l
0.45 -0.09 l
0.45 -0.08 l
0.45 -0.08 l
0.44 -0.08 l
0.45 -0.07 l
0.45 -0.08 l
0.45 -0.07 l
0.44 -0.06 l
0.45 -0.07 l
0.45 -0.06 l
0.45 -0.06 l
0.44 -0.05 l
0.45 -0.05 l
0.45 -0.05 l
0.45 -0.05 l
0.45 -0.04 l
0.44 -0.04 l
0.45 -0.04 l
0.45 -0.03 l
0.45 -0.03 l
0.44 -0.02 l
0.45 -0.02 l
0.45 -0.02 l
0.45 -0.02 l
0.45 -0.01 l
0.44 -0.01 l
0.45 0 l
0.45 -0.01 l
0.45 0 l
0.44 0 l
0.45 0.01 l
0.45 0 l
0.45 0.01 l
0.45 0.01 l
0.44 0.01 l
0.45 0.02 l
0.45 0.01 l
0.45 0.01 l
0.44 0.02 l
0.45 0.02 l
0.45 0.01 l
0.45 0.02 l
0.44 0.01 l
0.45 0.01 l
0.45 0.02 l
0.45 0.01 l
0.45 0.01 l
0.44 0.01 l
0.45 0.01 l
0.45 0 l
0.45 0 l
0.44 0.01 l
0.45 0 l
0.45 -0.01 l
0.45 0 l
0.45 -0.01 l
0.44 -0.01 l
0.45 -0.01 l
0.45 -0.01 l
0.45 -0.01 l
0.44 -0.02 l
0.45 -0.01 l
0.45 -0.02 l
0.45 -0.02 l
0.44 -0.02 l
0.45 -0.01 l
0.45 -0.02 l
0.45 -0.02 l
0.45 -0.02 l
0.44 -0.02 l
0.45 -0.02 l
0.45 -0.02 l
0.45 -0.02 l
0.44 -0.02 l
0.45 -0.01 l
0.45 -0.02 l
0.45 -0.01 l
0.45 -0.02 l
0.44 -0.01 l
0.45 -0.01 l
0.45 -0.01 l
0.45 -0.02 l
0.44 0 l
0.45 -0.01 l
0.45 -0.01 l
0.45 -0.01 l
0.44 -0.01 l
315.58 83.96 lineto
0.45 -0.01 l
0.45 0 l
0.45 0 l
0.44 -0.01 l
0.45 0 l
0.45 0 l
0.45 -0.01 l
0.44 0 l
0.45 0 l
0.45 0 l
0.45 0 l
o
1.50 setlinewidth
[ 4.50 7.50] 0 setdash
np
149.58 83.93 m
0.57 0 l
0.57 0 l
0.57 0 l
0.57 0 l
0.57 0 l
0.57 0.01 l
0.57 0 l
0.57 0 l
0.57 0.01 l
0.57 0 l
0.57 0.01 l
0.57 0 l
0.57 0.01 l
0.57 0 l
0.57 0.01 l
0.57 0.01 l
0.57 0.01 l
0.58 0.01 l
0.57 0.01 l
0.57 0.01 l
0.57 0.02 l
0.57 0.01 l
0.57 0.02 l
0.57 0.01 l
0.57 0.02 l
0.57 0.01 l
0.57 0.02 l
0.57 0.02 l
0.57 0.01 l
0.57 0.02 l
0.57 0.02 l
0.57 0.02 l
0.57 0.01 l
0.57 0.02 l
0.57 0.01 l
0.57 0.02 l
0.57 0.01 l
0.57 0.01 l
0.57 0.01 l
0.57 0.01 l
0.57 0.01 l
0.58 0 l
0.57 0.01 l
0.57 0 l
0.57 0 l
0.57 -0.01 l
0.57 0 l
0.57 0 l
0.57 -0.01 l
0.57 -0.01 l
0.57 -0.01 l
0.57 0 l
0.57 -0.01 l
0.57 -0.01 l
0.57 -0.01 l
0.57 -0.01 l
0.57 -0.01 l
0.57 -0.01 l
0.57 -0.01 l
0.57 0 l
0.57 0 l
0.57 -0.01 l
0.57 0 l
0.57 0.01 l
0.57 0 l
0.58 0.01 l
0.57 0.01 l
0.57 0.01 l
0.57 0.02 l
0.57 0.01 l
0.57 0.02 l
0.57 0.02 l
0.57 0.03 l
0.57 0.02 l
0.57 0.03 l
0.57 0.02 l
0.57 0.03 l
0.57 0.03 l
0.57 0.03 l
0.57 0.03 l
0.57 0.03 l
0.57 0.02 l
0.57 0.03 l
0.57 0.02 l
0.57 0.02 l
0.57 0.02 l
0.57 0.02 l
0.57 0.01 l
0.57 0.01 l
0.57 0.01 l
0.58 0 l
0.57 0 l
0.57 0 l
0.57 -0.01 l
0.57 -0.01 l
0.57 -0.01 l
0.57 -0.01 l
0.57 -0.02 l
0.57 -0.02 l
206.62 84.65 lineto
0.57 -0.02 l
0.57 -0.03 l
0.57 -0.02 l
0.57 -0.02 l
0.57 -0.02 l
0.57 -0.03 l
0.57 -0.01 l
0.57 -0.02 l
0.57 -0.02 l
0.57 -0.01 l
0.57 -0.01 l
0.57 -0.01 l
0.57 0 l
0.57 0 l
0.58 0.01 l
0.57 0.01 l
0.57 0.01 l
0.57 0.02 l
0.57 0.03 l
0.57 0.03 l
0.57 0.04 l
0.57 0.04 l
0.57 0.04 l
0.57 0.06 l
0.57 0.05 l
0.57 0.07 l
0.57 0.07 l
0.57 0.07 l
0.57 0.08 l
0.57 0.09 l
0.57 0.09 l
0.57 0.09 l
0.57 0.11 l
0.57 0.11 l
0.57 0.11 l
0.57 0.12 l
0.57 0.12 l
0.57 0.13 l
0.58 0.13 l
0.57 0.14 l
0.57 0.14 l
0.57 0.14 l
0.57 0.15 l
0.57 0.15 l
0.57 0.16 l
0.57 0.16 l
0.57 0.16 l
0.57 0.16 l
0.57 0.16 l
0.57 0.17 l
0.57 0.16 l
0.57 0.17 l
0.57 0.16 l
0.57 0.17 l
0.57 0.16 l
0.57 0.17 l
0.57 0.16 l
0.57 0.16 l
0.57 0.15 l
0.57 0.16 l
0.57 0.15 l
0.57 0.15 l
0.57 0.15 l
0.58 0.14 l
0.57 0.14 l
0.57 0.15 l
0.57 0.14 l
0.57 0.14 l
0.57 0.14 l
0.57 0.14 l
0.57 0.14 l
0.57 0.15 l
0.57 0.15 l
0.57 0.16 l
0.57 0.16 l
0.57 0.18 l
0.57 0.18 l
0.57 0.19 l
0.57 0.21 l
0.57 0.21 l
0.57 0.23 l
0.57 0.25 l
0.57 0.26 l
0.57 0.27 l
0.57 0.29 l
0.57 0.30 l
0.57 0.32 l
0.58 0.33 l
0.57 0.34 l
0.57 0.36 l
0.57 0.36 l
0.57 0.38 l
0.57 0.38 l
0.57 0.39 l
0.57 0.40 l
0.57 0.40 l
0.57 0.40 l
0.57 0.41 l
0.57 0.40 l
263.66 99.51 lineto
0.57 0.40 l
0.57 0.39 l
0.57 0.39 l
0.57 0.39 l
0.57 0.38 l
0.57 0.37 l
0.57 0.36 l
0.57 0.36 l
0.57 0.35 l
0.57 0.35 l
0.57 0.34 l
0.58 0.33 l
0.57 0.32 l
0.57 0.32 l
0.57 0.32 l
0.57 0.31 l
0.57 0.30 l
0.57 0.30 l
0.57 0.30 l
0.57 0.29 l
0.57 0.29 l
0.57 0.29 l
0.57 0.29 l
0.57 0.29 l
0.57 0.29 l
0.57 0.29 l
0.57 0.29 l
0.57 0.29 l
0.57 0.30 l
0.57 0.29 l
0.57 0.31 l
0.57 0.31 l
0.57 0.31 l
0.57 0.32 l
0.57 0.34 l
0.57 0.34 l
0.58 0.35 l
0.57 0.36 l
0.57 0.37 l
0.57 0.39 l
0.57 0.41 l
0.57 0.42 l
0.57 0.43 l
0.57 0.46 l
0.57 0.47 l
0.57 0.50 l
0.57 0.52 l
0.57 0.54 l
0.57 0.57 l
0.57 0.58 l
0.57 0.62 l
0.57 0.65 l
0.57 0.67 l
0.57 0.69 l
0.57 0.72 l
0.57 0.75 l
0.57 0.78 l
0.57 0.80 l
0.57 0.83 l
0.57 0.86 l
0.58 0.87 l
0.57 0.91 l
0.57 0.92 l
0.57 0.94 l
0.57 0.96 l
0.57 0.98 l
0.57 0.98 l
0.57 1.00 l
0.57 1.00 l
0.57 1.01 l
0.57 1.00 l
0.57 1.01 l
0.57 1.00 l
0.57 0.99 l
0.57 0.98 l
0.57 0.96 l
0.57 0.95 l
0.57 0.93 l
0.57 0.90 l
0.57 0.89 l
0.57 0.86 l
0.57 0.83 l
0.57 0.81 l
0.57 0.78 l
0.58 0.75 l
0.57 0.72 l
0.57 0.71 l
0.57 0.67 l
0.57 0.65 l
0.57 0.63 l
0.57 0.61 l
0.57 0.60 l
0.57 0.58 l
0.57 0.56 l
0.57 0.55 l
0.57 0.55 l
0.57 0.53 l
0.57 0.54 l
0.57 0.53 l
320.70 157.13 lineto
0.57 0.54 l
0.57 0.53 l
0.57 0.55 l
0.57 0.55 l
0.57 0.55 l
0.57 0.57 l
0.57 0.57 l
0.57 0.58 l
0.57 0.59 l
0.58 0.60 l
0.57 0.61 l
0.57 0.62 l
0.57 0.62 l
0.57 0.63 l
0.57 0.63 l
0.57 0.63 l
0.57 0.64 l
0.57 0.63 l
0.57 0.63 l
0.57 0.62 l
0.57 0.62 l
0.57 0.61 l
0.57 0.59 l
0.57 0.59 l
0.57 0.57 l
0.57 0.55 l
0.57 0.54 l
0.57 0.51 l
0.57 0.50 l
0.57 0.49 l
0.57 0.46 l
0.57 0.43 l
0.57 0.42 l
0.58 0.40 l
0.57 0.38 l
0.57 0.36 l
0.57 0.33 l
0.57 0.31 l
0.57 0.30 l
0.57 0.27 l
0.57 0.25 l
0.57 0.23 l
0.57 0.20 l
0.57 0.18 l
0.57 0.16 l
0.57 0.13 l
0.57 0.10 l
0.57 0.07 l
0.57 0.03 l
0.57 0.01 l
0.57 -0.03 l
0.57 -0.07 l
0.57 -0.11 l
0.57 -0.15 l
0.57 -0.19 l
0.57 -0.23 l
0.57 -0.28 l
0.58 -0.31 l
0.57 -0.37 l
0.57 -0.41 l
0.57 -0.45 l
0.57 -0.49 l
0.57 -0.53 l
0.57 -0.58 l
0.57 -0.60 l
0.57 -0.64 l
0.57 -0.67 l
0.57 -0.69 l
0.57 -0.72 l
0.57 -0.74 l
0.57 -0.76 l
0.57 -0.76 l
0.57 -0.78 l
0.57 -0.78 l
0.57 -0.78 l
0.57 -0.79 l
0.57 -0.78 l
0.57 -0.77 l
0.57 -0.76 l
0.57 -0.75 l
0.57 -0.74 l
0.58 -0.73 l
0.57 -0.71 l
0.57 -0.70 l
0.57 -0.68 l
0.57 -0.67 l
0.57 -0.65 l
0.57 -0.64 l
0.57 -0.63 l
0.57 -0.61 l
0.57 -0.61 l
0.57 -0.60 l
0.57 -0.59 l
0.57 -0.60 l
0.57 -0.59 l
0.57 -0.59 l
0.57 -0.60 l
0.57 -0.60 l
0.57 -0.61 l
377.74 150.86 lineto
0.57 -0.63 l
0.57 -0.66 l
0.57 -0.67 l
0.57 -0.69 l
0.57 -0.71 l
0.57 -0.73 l
0.58 -0.76 l
0.57 -0.79 l
0.57 -0.82 l
0.57 -0.84 l
0.57 -0.87 l
0.57 -0.89 l
0.57 -0.94 l
0.57 -0.96 l
0.57 -0.98 l
0.57 -1.02 l
0.57 -1.04 l
0.57 -1.07 l
0.57 -1.10 l
0.57 -1.12 l
0.57 -1.14 l
0.57 -1.15 l
0.57 -1.18 l
0.57 -1.19 l
0.57 -1.20 l
0.57 -1.21 l
0.57 -1.22 l
0.57 -1.22 l
0.57 -1.22 l
0.57 -1.22 l
0.58 -1.21 l
0.57 -1.21 l
0.57 -1.19 l
0.57 -1.18 l
0.57 -1.17 l
0.57 -1.14 l
0.57 -1.13 l
0.57 -1.11 l
0.57 -1.09 l
0.57 -1.07 l
0.57 -1.04 l
0.57 -1.01 l
0.57 -1.00 l
0.57 -0.97 l
0.57 -0.94 l
0.57 -0.92 l
0.57 -0.90 l
0.57 -0.87 l
0.57 -0.85 l
0.57 -0.82 l
0.57 -0.81 l
0.57 -0.78 l
0.57 -0.76 l
0.57 -0.74 l
0.58 -0.72 l
0.57 -0.70 l
0.57 -0.67 l
0.57 -0.66 l
0.57 -0.64 l
0.57 -0.63 l
0.57 -0.59 l
0.57 -0.58 l
0.57 -0.56 l
0.57 -0.54 l
0.57 -0.52 l
0.57 -0.50 l
0.57 -0.48 l
0.57 -0.45 l
0.57 -0.43 l
0.57 -0.42 l
0.57 -0.39 l
0.57 -0.37 l
0.57 -0.35 l
0.57 -0.32 l
0.57 -0.31 l
0.57 -0.29 l
0.57 -0.26 l
0.57 -0.24 l
0.57 -0.23 l
0.58 -0.21 l
0.57 -0.19 l
0.57 -0.18 l
0.57 -0.15 l
0.57 -0.15 l
0.57 -0.13 l
0.57 -0.12 l
0.57 -0.10 l
0.57 -0.09 l
0.57 -0.09 l
0.57 -0.07 l
0.57 -0.06 l
0.57 -0.06 l
0.57 -0.05 l
0.57 -0.04 l
0.57 -0.04 l
0.57 -0.03 l
0.57 -0.03 l
0.57 -0.02 l
0.57 -0.02 l
434.78 84.01 lineto
0.57 -0.02 l
0.57 -0.01 l
0.57 -0.01 l
0.58 -0.01 l
0.57 -0.01 l
0.57 0 l
0.57 -0.01 l
0.57 0 l
0.57 0 l
0.57 -0.01 l
0.57 0 l
o
0.00 0.00 579.75 415.50 cl
/Font2 findfont 14 s
0 0 0 srgb
304.27 380.95 (Kindla) .5 0 t
59.04 73.44 549.51 356.46 cl
/bg { 1 1 1 srgb } def
0 0 0 srgb
0.75 setlinewidth
[] 0 setdash
1 setlinecap
1 setlinejoin
10.00 setmiterlimit
361.04 315.15 87.63 -34.56 r p3
np
369.68 303.63 m
17.28 0 l
o
0.75 setlinewidth
[ 2.25 3.75] 0 setdash
np
369.68 292.11 m
17.28 0 l
o
/Font1 findfont 10 s
395.60 300.04 (T) 0 ta
-1.200 (ur) tb
0.250 (no) tb
-0.150 (v) tb
-0.250 (er) tb gr
395.60 288.52 (Nestedness) 0 0 t
0.75 setlinewidth
[] 0 setdash
361.04 268.90 59.88 -57.60 r p3
0.6000 0.6000 0.6000 srgb
np
369.68 257.38 m
17.28 0 l
o
1 0 0 srgb
np
369.68 245.86 m
17.28 0 l
o
0 1 0 srgb
np
369.68 234.34 m
17.28 0 l
o
0 0 1 srgb
np
369.68 222.82 m
17.28 0 l
o
0 0 0 srgb
395.60 253.79 (1998) 0 0 t
395.60 242.27 (2004) 0 0 t
395.60 230.75 (2008) 0 0 t
395.60 219.23 (2013) 0 0 t
ep
%%Trailer
%%Pages: 1
%%EOF
