%!PS-Adobe-3.0 EPSF-3.0
%%DocumentNeededResources: font Helvetica
%%+ font Helvetica-Bold
%%+ font Helvetica-Oblique
%%+ font Helvetica-BoldOblique
%%+ font Symbol
%%Title: R Graphics Output
%%Creator: R Software
%%Pages: (atend)
%%BoundingBox: 0 0 580 415
%%EndComments
%%BeginProlog
/bp  { gs sRGB gs } def
% begin .ps.prolog
/gs  { gsave } bind def
/gr  { grestore } bind def
/ep  { showpage gr gr } bind def
/m   { moveto } bind def
/l  { rlineto } bind def
/np  { newpath } bind def
/cp  { closepath } bind def
/f   { fill } bind def
/o   { stroke } bind def
/c   { newpath 0 360 arc } bind def
/r   { 4 2 roll moveto 1 copy 3 -1 roll exch 0 exch rlineto 0 rlineto -1 mul 0 exch rlineto closepath } bind def
/p1  { stroke } bind def
/p2  { gsave bg fill grestore newpath } bind def
/p3  { gsave bg fill grestore stroke } bind def
/p6  { gsave bg eofill grestore newpath } bind def
/p7  { gsave bg eofill grestore stroke } bind def
/t   { 5 -2 roll moveto gsave rotate
       1 index stringwidth pop
       mul neg 0 rmoveto show grestore } bind def
/ta  { 4 -2 roll moveto gsave rotate show } bind def
/tb  { 2 -1 roll 0 rmoveto show } bind def
/cl  { grestore gsave newpath 3 index 3 index moveto 1 index
       4 -1 roll lineto  exch 1 index lineto lineto
       closepath clip newpath } bind def
/rgb { setrgbcolor } bind def
/s   { scalefont setfont } bind def
% end   .ps.prolog
/sRGB { [ /CIEBasedABC
          << /DecodeLMN
               [ { dup 0.03928 le
                        {12.92321 div}
                        {0.055 add 1.055 div 2.4 exp }
                     ifelse
                 } bind dup dup
               ]
             /MatrixLMN [0.412457 0.212673 0.019334
                         0.357576 0.715152 0.119192
                         0.180437 0.072175 0.950301]
             /WhitePoint [0.9505 1.0 1.0890]
           >>
         ] setcolorspace } bind def
/srgb { setcolor } bind def
%%IncludeResource: font Helvetica
/Helvetica findfont
dup length dict begin
  {1 index /FID ne {def} {pop pop} ifelse} forall
  /Encoding ISOLatin1Encoding def
  currentdict
  end
/Font1 exch definefont pop
%%IncludeResource: font Helvetica-Bold
/Helvetica-Bold findfont
dup length dict begin
  {1 index /FID ne {def} {pop pop} ifelse} forall
  /Encoding ISOLatin1Encoding def
  currentdict
  end
/Font2 exch definefont pop
%%IncludeResource: font Helvetica-Oblique
/Helvetica-Oblique findfont
dup length dict begin
  {1 index /FID ne {def} {pop pop} ifelse} forall
  /Encoding ISOLatin1Encoding def
  currentdict
  end
/Font3 exch definefont pop
%%IncludeResource: font Helvetica-BoldOblique
/Helvetica-BoldOblique findfont
dup length dict begin
  {1 index /FID ne {def} {pop pop} ifelse} forall
  /Encoding ISOLatin1Encoding def
  currentdict
  end
/Font4 exch definefont pop
%%IncludeResource: font Symbol
/Symbol findfont
dup length dict begin
  {1 index /FID ne {def} {pop pop} ifelse} forall
  currentdict
  end
/Font5 exch definefont pop
%%EndProlog
0.00 0.00 579.75 415.50 cl
%%Page: 1 1
bp
/bg { 1 1 1 srgb } def
0.00 0.00 579.75 415.50 r p2
59.04 73.44 549.51 356.46 cl
0.6000 0.6000 0.6000 srgb
1.50 setlinewidth
[] 0 setdash
1 setlinecap
1 setlinejoin
10.00 setmiterlimit
np
82.47 83.95 m
0.26 0 l
0.26 0.01 l
0.26 0.01 l
0.26 0.01 l
0.26 0.01 l
0.26 0.02 l
0.26 0.01 l
0.26 0.03 l
0.26 0.02 l
0.26 0.03 l
0.26 0.04 l
0.26 0.04 l
0.26 0.05 l
0.26 0.06 l
0.26 0.07 l
0.26 0.08 l
0.26 0.09 l
0.26 0.10 l
0.26 0.12 l
0.26 0.13 l
0.26 0.15 l
0.26 0.17 l
0.26 0.19 l
0.26 0.21 l
0.26 0.23 l
0.26 0.26 l
0.26 0.29 l
0.26 0.31 l
0.26 0.35 l
0.26 0.38 l
0.26 0.41 l
0.26 0.43 l
0.26 0.48 l
0.26 0.51 l
0.26 0.55 l
0.26 0.59 l
0.26 0.61 l
0.26 0.66 l
0.26 0.70 l
0.26 0.73 l
0.26 0.77 l
0.26 0.81 l
0.26 0.84 l
0.26 0.88 l
0.26 0.91 l
0.26 0.95 l
0.26 0.99 l
0.26 1.01 l
0.26 1.05 l
0.26 1.09 l
0.26 1.13 l
0.26 1.15 l
0.26 1.19 l
0.26 1.23 l
0.25 1.27 l
0.26 1.31 l
0.26 1.34 l
0.26 1.39 l
0.26 1.42 l
0.26 1.48 l
0.26 1.53 l
0.26 1.58 l
0.26 1.63 l
0.26 1.68 l
0.26 1.75 l
0.26 1.81 l
0.26 1.87 l
0.26 1.94 l
0.26 2.00 l
0.26 2.07 l
0.26 2.15 l
0.26 2.22 l
0.26 2.30 l
0.26 2.36 l
0.26 2.43 l
0.26 2.51 l
0.26 2.58 l
0.26 2.65 l
0.26 2.71 l
0.26 2.77 l
0.26 2.83 l
0.26 2.89 l
0.26 2.93 l
0.26 2.98 l
0.26 3.00 l
0.26 3.04 l
0.26 3.05 l
0.26 3.07 l
0.26 3.07 l
0.26 3.06 l
0.26 3.05 l
0.26 3.02 l
0.26 2.99 l
0.26 2.95 l
0.26 2.89 l
0.26 2.84 l
0.26 2.76 l
0.26 2.68 l
0.26 2.59 l
108.46 216.04 lineto
0.26 2.41 l
0.26 2.31 l
0.26 2.18 l
0.26 2.08 l
0.26 1.96 l
0.26 1.86 l
0.26 1.75 l
0.26 1.60 l
0.26 1.50 l
0.26 1.39 l
0.26 1.29 l
0.26 1.19 l
0.26 1.07 l
0.26 0.98 l
0.26 0.90 l
0.26 0.82 l
0.26 0.74 l
0.26 0.68 l
0.26 0.61 l
0.26 0.55 l
0.26 0.52 l
0.26 0.47 l
0.26 0.44 l
0.26 0.41 l
0.26 0.38 l
0.26 0.37 l
0.26 0.35 l
0.26 0.35 l
0.26 0.33 l
0.26 0.34 l
0.26 0.32 l
0.26 0.33 l
0.26 0.32 l
0.26 0.32 l
0.26 0.32 l
0.26 0.32 l
0.26 0.31 l
0.26 0.30 l
0.26 0.29 l
0.26 0.28 l
0.25 0.26 l
0.26 0.25 l
0.26 0.23 l
0.26 0.20 l
0.26 0.18 l
0.26 0.14 l
0.26 0.12 l
0.26 0.09 l
0.26 0.06 l
0.26 0.02 l
0.26 -0.02 l
0.26 -0.05 l
0.26 -0.09 l
0.26 -0.12 l
0.26 -0.16 l
0.26 -0.19 l
0.26 -0.23 l
0.26 -0.26 l
0.26 -0.29 l
0.26 -0.32 l
0.26 -0.35 l
0.26 -0.38 l
0.26 -0.41 l
0.26 -0.43 l
0.26 -0.46 l
0.26 -0.48 l
0.26 -0.51 l
0.26 -0.54 l
0.26 -0.56 l
0.26 -0.58 l
0.26 -0.62 l
0.26 -0.64 l
0.26 -0.68 l
0.26 -0.70 l
0.26 -0.74 l
0.26 -0.77 l
0.26 -0.81 l
0.26 -0.84 l
0.26 -0.89 l
0.26 -0.92 l
0.26 -0.96 l
0.26 -1.01 l
0.26 -1.05 l
0.26 -1.10 l
0.26 -1.13 l
0.26 -1.17 l
0.26 -1.22 l
0.26 -1.25 l
0.26 -1.30 l
0.26 -1.32 l
0.26 -1.36 l
0.26 -1.39 l
0.26 -1.41 l
0.26 -1.44 l
0.26 -1.45 l
0.26 -1.46 l
0.26 -1.48 l
0.26 -1.47 l
0.26 -1.48 l
134.45 212.57 lineto
0.26 -1.46 l
0.26 -1.44 l
0.26 -1.43 l
0.26 -1.39 l
0.26 -1.37 l
0.26 -1.34 l
0.26 -1.30 l
0.26 -1.27 l
0.26 -1.22 l
0.26 -1.18 l
0.26 -1.14 l
0.26 -1.10 l
0.26 -1.05 l
0.26 -1.01 l
0.26 -0.97 l
0.26 -0.93 l
0.26 -0.90 l
0.26 -0.87 l
0.26 -0.84 l
0.26 -0.81 l
0.26 -0.80 l
0.26 -0.78 l
0.26 -0.77 l
0.26 -0.77 l
0.26 -0.78 l
0.26 -0.77 l
0.26 -0.79 l
0.25 -0.80 l
0.26 -0.82 l
0.26 -0.84 l
0.26 -0.87 l
0.26 -0.89 l
0.26 -0.92 l
0.26 -0.95 l
0.26 -0.98 l
0.26 -1.01 l
0.26 -1.04 l
0.26 -1.07 l
0.26 -1.09 l
0.26 -1.11 l
0.26 -1.14 l
0.26 -1.16 l
0.26 -1.18 l
0.26 -1.18 l
0.26 -1.20 l
0.26 -1.20 l
0.26 -1.21 l
0.26 -1.20 l
0.26 -1.20 l
0.26 -1.19 l
0.26 -1.19 l
0.26 -1.16 l
0.26 -1.15 l
0.26 -1.14 l
0.26 -1.11 l
0.26 -1.09 l
0.26 -1.06 l
0.26 -1.04 l
0.26 -1.01 l
0.26 -0.98 l
0.26 -0.95 l
0.26 -0.92 l
0.26 -0.89 l
0.26 -0.87 l
0.26 -0.84 l
0.26 -0.82 l
0.26 -0.80 l
0.26 -0.77 l
0.26 -0.76 l
0.26 -0.75 l
0.26 -0.73 l
0.26 -0.73 l
0.26 -0.72 l
0.26 -0.72 l
0.26 -0.73 l
0.26 -0.74 l
0.26 -0.74 l
0.26 -0.76 l
0.26 -0.77 l
0.26 -0.79 l
0.26 -0.81 l
0.26 -0.83 l
0.26 -0.85 l
0.26 -0.88 l
0.26 -0.89 l
0.26 -0.91 l
0.26 -0.92 l
0.26 -0.94 l
0.26 -0.95 l
0.26 -0.96 l
0.26 -0.96 l
0.26 -0.97 l
0.26 -0.96 l
0.26 -0.95 l
0.26 -0.93 l
0.26 -0.93 l
0.26 -0.90 l
0.26 -0.88 l
0.26 -0.85 l
160.44 115.02 lineto
0.26 -0.79 l
0.26 -0.76 l
0.26 -0.73 l
0.26 -0.69 l
0.26 -0.65 l
0.26 -0.62 l
0.26 -0.59 l
0.26 -0.57 l
0.26 -0.52 l
0.26 -0.50 l
0.26 -0.48 l
0.26 -0.45 l
0.26 -0.44 l
0.26 -0.41 l
0.25 -0.40 l
0.26 -0.39 l
0.26 -0.38 l
0.26 -0.37 l
0.26 -0.36 l
0.26 -0.36 l
0.26 -0.35 l
0.26 -0.36 l
0.26 -0.34 l
0.26 -0.35 l
0.26 -0.34 l
0.26 -0.34 l
0.26 -0.34 l
0.26 -0.33 l
0.26 -0.33 l
0.26 -0.33 l
0.26 -0.31 l
0.26 -0.31 l
0.26 -0.30 l
0.26 -0.29 l
0.26 -0.28 l
0.26 -0.26 l
0.26 -0.26 l
0.26 -0.25 l
0.26 -0.23 l
0.26 -0.23 l
0.26 -0.22 l
0.26 -0.21 l
0.26 -0.20 l
0.26 -0.19 l
0.26 -0.20 l
0.26 -0.18 l
0.26 -0.19 l
0.26 -0.19 l
0.26 -0.19 l
0.26 -0.20 l
0.26 -0.19 l
0.26 -0.21 l
0.26 -0.22 l
0.26 -0.22 l
0.26 -0.23 l
0.26 -0.24 l
0.26 -0.25 l
0.26 -0.26 l
0.26 -0.27 l
0.26 -0.28 l
0.26 -0.29 l
0.26 -0.30 l
0.26 -0.31 l
0.26 -0.31 l
0.26 -0.32 l
0.26 -0.32 l
0.26 -0.33 l
0.26 -0.33 l
0.26 -0.33 l
0.26 -0.32 l
0.26 -0.33 l
0.26 -0.33 l
0.26 -0.32 l
0.26 -0.31 l
0.26 -0.31 l
0.26 -0.31 l
0.26 -0.29 l
0.26 -0.29 l
0.26 -0.28 l
0.26 -0.27 l
0.26 -0.26 l
0.26 -0.26 l
0.26 -0.24 l
0.26 -0.23 l
0.26 -0.22 l
0.26 -0.21 l
0.26 -0.20 l
0.26 -0.19 l
0.26 -0.18 l
0.26 -0.16 l
0.26 -0.16 l
0.26 -0.15 l
0.26 -0.14 l
0.26 -0.13 l
0.26 -0.12 l
0.26 -0.11 l
0.26 -0.10 l
0.26 -0.10 l
0.26 -0.09 l
186.43 84.57 lineto
0.25 -0.08 l
0.26 -0.06 l
0.26 -0.06 l
0.26 -0.06 l
0.26 -0.05 l
0.26 -0.04 l
0.26 -0.04 l
0.26 -0.03 l
0.26 -0.03 l
0.26 -0.03 l
0.26 -0.02 l
0.26 -0.03 l
0.26 -0.01 l
0.26 -0.02 l
0.26 -0.01 l
0.26 -0.01 l
0.26 -0.01 l
0.26 -0.01 l
0.26 -0.01 l
0.26 0 l
0.26 -0.01 l
0.26 0 l
0.26 0 l
0.26 0 l
0.26 0 l
0.26 0 l
0.26 0 l
0.26 0 l
0.26 0.01 l
0.26 0 l
0.26 0.01 l
0.26 0.01 l
0.26 0 l
0.26 0.01 l
0.26 0.01 l
0.26 0.02 l
0.26 0.01 l
0.26 0.01 l
0.26 0.02 l
0.26 0.02 l
0.26 0.02 l
0.26 0.02 l
0.26 0.02 l
0.26 0.02 l
0.26 0.03 l
0.26 0.03 l
0.26 0.02 l
0.26 0.03 l
0.26 0.03 l
0.26 0.03 l
0.26 0.03 l
0.26 0.04 l
0.26 0.03 l
0.26 0.03 l
0.26 0.03 l
0.26 0.02 l
0.26 0.03 l
0.26 0.03 l
0.26 0.02 l
0.26 0.02 l
0.26 0.02 l
0.26 0.02 l
0.26 0.01 l
0.26 0.01 l
0.26 0.01 l
0.26 0 l
0.26 0 l
0.26 0 l
0.26 -0.01 l
0.26 -0.01 l
0.26 -0.01 l
0.26 -0.02 l
0.26 -0.02 l
0.26 -0.02 l
0.26 -0.02 l
0.26 -0.03 l
0.26 -0.03 l
0.26 -0.03 l
0.26 -0.03 l
0.26 -0.03 l
0.26 -0.03 l
0.26 -0.03 l
0.26 -0.03 l
0.26 -0.03 l
0.26 -0.03 l
0.26 -0.03 l
0.26 -0.02 l
0.25 -0.03 l
0.26 -0.03 l
0.26 -0.02 l
0.26 -0.02 l
0.26 -0.02 l
0.26 -0.02 l
0.26 -0.02 l
0.26 -0.02 l
0.26 -0.01 l
0.26 -0.02 l
0.26 -0.01 l
0.26 -0.01 l
212.41 83.98 lineto
0.26 -0.01 l
0.26 0 l
0.26 -0.01 l
0.26 -0.01 l
0.26 0 l
0.26 -0.01 l
0.26 0 l
0.26 0 l
0.26 -0.01 l
0.26 0 l
0.26 0 l
o
0.00 0.00 579.75 415.50 cl
0 0 0 srgb
0.75 setlinewidth
[] 0 setdash
1 setlinecap
1 setlinejoin
10.00 setmiterlimit
np
77.21 73.44 m
403.67 0 l
o
np
77.21 73.44 m
0 -7.20 l
o
np
178.13 73.44 m
0 -7.20 l
o
np
279.04 73.44 m
0 -7.20 l
o
np
379.96 73.44 m
0 -7.20 l
o
np
480.88 73.44 m
0 -7.20 l
o
/Font1 findfont 12 s
77.21 47.52 (0.0) .5 0 t
178.13 47.52 (0.2) .5 0 t
279.04 47.52 (0.4) .5 0 t
379.96 47.52 (0.6) .5 0 t
480.88 47.52 (0.8) .5 0 t
np
59.04 83.92 m
0 218.38 l
o
np
59.04 83.92 m
-7.20 0 l
o
np
59.04 156.72 m
-7.20 0 l
o
np
59.04 229.51 m
-7.20 0 l
o
np
59.04 302.30 m
-7.20 0 l
o
41.76 83.92 (0) .5 90 t
41.76 156.72 (5) .5 90 t
41.76 229.51 (10) .5 90 t
41.76 302.30 (15) .5 90 t
np
59.04 73.44 m
490.47 0 l
0 283.02 l
-490.47 0 l
0 -283.02 l
o
0.00 0.00 579.75 415.50 cl
/Font1 findfont 12 s
0 0 0 srgb
268.26 18.72 (Beta div) 0 ta
-0.300 (ersity) tb gr
12.96 214.95 (Density) .5 90 t
59.04 73.44 549.51 356.46 cl
0.7451 0.7451 0.7451 srgb
0.08 setlinewidth
[] 0 setdash
1 setlinecap
1 setlinejoin
10.00 setmiterlimit
np
59.04 83.92 m
490.47 0 l
o
0.6000 0.6000 0.6000 srgb
1.50 setlinewidth
[] 0 setdash
np
82.47 83.95 m
0.26 0 l
0.26 0.01 l
0.26 0.01 l
0.26 0.01 l
0.26 0.01 l
0.26 0.02 l
0.26 0.01 l
0.26 0.03 l
0.26 0.02 l
0.26 0.03 l
0.26 0.04 l
0.26 0.04 l
0.26 0.05 l
0.26 0.06 l
0.26 0.07 l
0.26 0.08 l
0.26 0.09 l
0.26 0.10 l
0.26 0.12 l
0.26 0.13 l
0.26 0.15 l
0.26 0.17 l
0.26 0.19 l
0.26 0.21 l
0.26 0.23 l
0.26 0.26 l
0.26 0.29 l
0.26 0.31 l
0.26 0.35 l
0.26 0.38 l
0.26 0.41 l
0.26 0.43 l
0.26 0.48 l
0.26 0.51 l
0.26 0.55 l
0.26 0.59 l
0.26 0.61 l
0.26 0.66 l
0.26 0.70 l
0.26 0.73 l
0.26 0.77 l
0.26 0.81 l
0.26 0.84 l
0.26 0.88 l
0.26 0.91 l
0.26 0.95 l
0.26 0.99 l
0.26 1.01 l
0.26 1.05 l
0.26 1.09 l
0.26 1.13 l
0.26 1.15 l
0.26 1.19 l
0.26 1.23 l
0.25 1.27 l
0.26 1.31 l
0.26 1.34 l
0.26 1.39 l
0.26 1.42 l
0.26 1.48 l
0.26 1.53 l
0.26 1.58 l
0.26 1.63 l
0.26 1.68 l
0.26 1.75 l
0.26 1.81 l
0.26 1.87 l
0.26 1.94 l
0.26 2.00 l
0.26 2.07 l
0.26 2.15 l
0.26 2.22 l
0.26 2.30 l
0.26 2.36 l
0.26 2.43 l
0.26 2.51 l
0.26 2.58 l
0.26 2.65 l
0.26 2.71 l
0.26 2.77 l
0.26 2.83 l
0.26 2.89 l
0.26 2.93 l
0.26 2.98 l
0.26 3.00 l
0.26 3.04 l
0.26 3.05 l
0.26 3.07 l
0.26 3.07 l
0.26 3.06 l
0.26 3.05 l
0.26 3.02 l
0.26 2.99 l
0.26 2.95 l
0.26 2.89 l
0.26 2.84 l
0.26 2.76 l
0.26 2.68 l
0.26 2.59 l
108.46 216.04 lineto
0.26 2.41 l
0.26 2.31 l
0.26 2.18 l
0.26 2.08 l
0.26 1.96 l
0.26 1.86 l
0.26 1.75 l
0.26 1.60 l
0.26 1.50 l
0.26 1.39 l
0.26 1.29 l
0.26 1.19 l
0.26 1.07 l
0.26 0.98 l
0.26 0.90 l
0.26 0.82 l
0.26 0.74 l
0.26 0.68 l
0.26 0.61 l
0.26 0.55 l
0.26 0.52 l
0.26 0.47 l
0.26 0.44 l
0.26 0.41 l
0.26 0.38 l
0.26 0.37 l
0.26 0.35 l
0.26 0.35 l
0.26 0.33 l
0.26 0.34 l
0.26 0.32 l
0.26 0.33 l
0.26 0.32 l
0.26 0.32 l
0.26 0.32 l
0.26 0.32 l
0.26 0.31 l
0.26 0.30 l
0.26 0.29 l
0.26 0.28 l
0.25 0.26 l
0.26 0.25 l
0.26 0.23 l
0.26 0.20 l
0.26 0.18 l
0.26 0.14 l
0.26 0.12 l
0.26 0.09 l
0.26 0.06 l
0.26 0.02 l
0.26 -0.02 l
0.26 -0.05 l
0.26 -0.09 l
0.26 -0.12 l
0.26 -0.16 l
0.26 -0.19 l
0.26 -0.23 l
0.26 -0.26 l
0.26 -0.29 l
0.26 -0.32 l
0.26 -0.35 l
0.26 -0.38 l
0.26 -0.41 l
0.26 -0.43 l
0.26 -0.46 l
0.26 -0.48 l
0.26 -0.51 l
0.26 -0.54 l
0.26 -0.56 l
0.26 -0.58 l
0.26 -0.62 l
0.26 -0.64 l
0.26 -0.68 l
0.26 -0.70 l
0.26 -0.74 l
0.26 -0.77 l
0.26 -0.81 l
0.26 -0.84 l
0.26 -0.89 l
0.26 -0.92 l
0.26 -0.96 l
0.26 -1.01 l
0.26 -1.05 l
0.26 -1.10 l
0.26 -1.13 l
0.26 -1.17 l
0.26 -1.22 l
0.26 -1.25 l
0.26 -1.30 l
0.26 -1.32 l
0.26 -1.36 l
0.26 -1.39 l
0.26 -1.41 l
0.26 -1.44 l
0.26 -1.45 l
0.26 -1.46 l
0.26 -1.48 l
0.26 -1.47 l
0.26 -1.48 l
134.45 212.57 lineto
0.26 -1.46 l
0.26 -1.44 l
0.26 -1.43 l
0.26 -1.39 l
0.26 -1.37 l
0.26 -1.34 l
0.26 -1.30 l
0.26 -1.27 l
0.26 -1.22 l
0.26 -1.18 l
0.26 -1.14 l
0.26 -1.10 l
0.26 -1.05 l
0.26 -1.01 l
0.26 -0.97 l
0.26 -0.93 l
0.26 -0.90 l
0.26 -0.87 l
0.26 -0.84 l
0.26 -0.81 l
0.26 -0.80 l
0.26 -0.78 l
0.26 -0.77 l
0.26 -0.77 l
0.26 -0.78 l
0.26 -0.77 l
0.26 -0.79 l
0.25 -0.80 l
0.26 -0.82 l
0.26 -0.84 l
0.26 -0.87 l
0.26 -0.89 l
0.26 -0.92 l
0.26 -0.95 l
0.26 -0.98 l
0.26 -1.01 l
0.26 -1.04 l
0.26 -1.07 l
0.26 -1.09 l
0.26 -1.11 l
0.26 -1.14 l
0.26 -1.16 l
0.26 -1.18 l
0.26 -1.18 l
0.26 -1.20 l
0.26 -1.20 l
0.26 -1.21 l
0.26 -1.20 l
0.26 -1.20 l
0.26 -1.19 l
0.26 -1.19 l
0.26 -1.16 l
0.26 -1.15 l
0.26 -1.14 l
0.26 -1.11 l
0.26 -1.09 l
0.26 -1.06 l
0.26 -1.04 l
0.26 -1.01 l
0.26 -0.98 l
0.26 -0.95 l
0.26 -0.92 l
0.26 -0.89 l
0.26 -0.87 l
0.26 -0.84 l
0.26 -0.82 l
0.26 -0.80 l
0.26 -0.77 l
0.26 -0.76 l
0.26 -0.75 l
0.26 -0.73 l
0.26 -0.73 l
0.26 -0.72 l
0.26 -0.72 l
0.26 -0.73 l
0.26 -0.74 l
0.26 -0.74 l
0.26 -0.76 l
0.26 -0.77 l
0.26 -0.79 l
0.26 -0.81 l
0.26 -0.83 l
0.26 -0.85 l
0.26 -0.88 l
0.26 -0.89 l
0.26 -0.91 l
0.26 -0.92 l
0.26 -0.94 l
0.26 -0.95 l
0.26 -0.96 l
0.26 -0.96 l
0.26 -0.97 l
0.26 -0.96 l
0.26 -0.95 l
0.26 -0.93 l
0.26 -0.93 l
0.26 -0.90 l
0.26 -0.88 l
0.26 -0.85 l
160.44 115.02 lineto
0.26 -0.79 l
0.26 -0.76 l
0.26 -0.73 l
0.26 -0.69 l
0.26 -0.65 l
0.26 -0.62 l
0.26 -0.59 l
0.26 -0.57 l
0.26 -0.52 l
0.26 -0.50 l
0.26 -0.48 l
0.26 -0.45 l
0.26 -0.44 l
0.26 -0.41 l
0.25 -0.40 l
0.26 -0.39 l
0.26 -0.38 l
0.26 -0.37 l
0.26 -0.36 l
0.26 -0.36 l
0.26 -0.35 l
0.26 -0.36 l
0.26 -0.34 l
0.26 -0.35 l
0.26 -0.34 l
0.26 -0.34 l
0.26 -0.34 l
0.26 -0.33 l
0.26 -0.33 l
0.26 -0.33 l
0.26 -0.31 l
0.26 -0.31 l
0.26 -0.30 l
0.26 -0.29 l
0.26 -0.28 l
0.26 -0.26 l
0.26 -0.26 l
0.26 -0.25 l
0.26 -0.23 l
0.26 -0.23 l
0.26 -0.22 l
0.26 -0.21 l
0.26 -0.20 l
0.26 -0.19 l
0.26 -0.20 l
0.26 -0.18 l
0.26 -0.19 l
0.26 -0.19 l
0.26 -0.19 l
0.26 -0.20 l
0.26 -0.19 l
0.26 -0.21 l
0.26 -0.22 l
0.26 -0.22 l
0.26 -0.23 l
0.26 -0.24 l
0.26 -0.25 l
0.26 -0.26 l
0.26 -0.27 l
0.26 -0.28 l
0.26 -0.29 l
0.26 -0.30 l
0.26 -0.31 l
0.26 -0.31 l
0.26 -0.32 l
0.26 -0.32 l
0.26 -0.33 l
0.26 -0.33 l
0.26 -0.33 l
0.26 -0.32 l
0.26 -0.33 l
0.26 -0.33 l
0.26 -0.32 l
0.26 -0.31 l
0.26 -0.31 l
0.26 -0.31 l
0.26 -0.29 l
0.26 -0.29 l
0.26 -0.28 l
0.26 -0.27 l
0.26 -0.26 l
0.26 -0.26 l
0.26 -0.24 l
0.26 -0.23 l
0.26 -0.22 l
0.26 -0.21 l
0.26 -0.20 l
0.26 -0.19 l
0.26 -0.18 l
0.26 -0.16 l
0.26 -0.16 l
0.26 -0.15 l
0.26 -0.14 l
0.26 -0.13 l
0.26 -0.12 l
0.26 -0.11 l
0.26 -0.10 l
0.26 -0.10 l
0.26 -0.09 l
186.43 84.57 lineto
0.25 -0.08 l
0.26 -0.06 l
0.26 -0.06 l
0.26 -0.06 l
0.26 -0.05 l
0.26 -0.04 l
0.26 -0.04 l
0.26 -0.03 l
0.26 -0.03 l
0.26 -0.03 l
0.26 -0.02 l
0.26 -0.03 l
0.26 -0.01 l
0.26 -0.02 l
0.26 -0.01 l
0.26 -0.01 l
0.26 -0.01 l
0.26 -0.01 l
0.26 -0.01 l
0.26 0 l
0.26 -0.01 l
0.26 0 l
0.26 0 l
0.26 0 l
0.26 0 l
0.26 0 l
0.26 0 l
0.26 0 l
0.26 0.01 l
0.26 0 l
0.26 0.01 l
0.26 0.01 l
0.26 0 l
0.26 0.01 l
0.26 0.01 l
0.26 0.02 l
0.26 0.01 l
0.26 0.01 l
0.26 0.02 l
0.26 0.02 l
0.26 0.02 l
0.26 0.02 l
0.26 0.02 l
0.26 0.02 l
0.26 0.03 l
0.26 0.03 l
0.26 0.02 l
0.26 0.03 l
0.26 0.03 l
0.26 0.03 l
0.26 0.03 l
0.26 0.04 l
0.26 0.03 l
0.26 0.03 l
0.26 0.03 l
0.26 0.02 l
0.26 0.03 l
0.26 0.03 l
0.26 0.02 l
0.26 0.02 l
0.26 0.02 l
0.26 0.02 l
0.26 0.01 l
0.26 0.01 l
0.26 0.01 l
0.26 0 l
0.26 0 l
0.26 0 l
0.26 -0.01 l
0.26 -0.01 l
0.26 -0.01 l
0.26 -0.02 l
0.26 -0.02 l
0.26 -0.02 l
0.26 -0.02 l
0.26 -0.03 l
0.26 -0.03 l
0.26 -0.03 l
0.26 -0.03 l
0.26 -0.03 l
0.26 -0.03 l
0.26 -0.03 l
0.26 -0.03 l
0.26 -0.03 l
0.26 -0.03 l
0.26 -0.03 l
0.26 -0.02 l
0.25 -0.03 l
0.26 -0.03 l
0.26 -0.02 l
0.26 -0.02 l
0.26 -0.02 l
0.26 -0.02 l
0.26 -0.02 l
0.26 -0.02 l
0.26 -0.01 l
0.26 -0.02 l
0.26 -0.01 l
0.26 -0.01 l
212.41 83.98 lineto
0.26 -0.01 l
0.26 0 l
0.26 -0.01 l
0.26 -0.01 l
0.26 0 l
0.26 -0.01 l
0.26 0 l
0.26 0 l
0.26 -0.01 l
0.26 0 l
0.26 0 l
o
1.50 setlinewidth
[ 4.50 7.50] 0 setdash
np
262.64 83.93 m
0.47 0 l
0.48 0 l
0.47 0 l
0.47 0 l
0.48 0 l
0.47 0.01 l
0.48 0 l
0.47 0 l
0.47 0 l
0.48 0.01 l
0.47 0 l
0.48 0 l
0.47 0.01 l
0.47 0.01 l
0.48 0 l
0.47 0.01 l
0.48 0.01 l
0.47 0 l
0.47 0.01 l
0.48 0.01 l
0.47 0.01 l
0.48 0.01 l
0.47 0.01 l
0.47 0.02 l
0.48 0.01 l
0.47 0.01 l
0.47 0.02 l
0.48 0.01 l
0.47 0.01 l
0.48 0.02 l
0.47 0.01 l
0.47 0.02 l
0.48 0.01 l
0.47 0.02 l
0.48 0.01 l
0.47 0.02 l
0.47 0.01 l
0.48 0.01 l
0.47 0.02 l
0.48 0.01 l
0.47 0.01 l
0.47 0.01 l
0.48 0 l
0.47 0.01 l
0.48 0 l
0.47 0.01 l
0.47 0 l
0.48 0 l
0.47 -0.01 l
0.48 0 l
0.47 0 l
0.47 -0.01 l
0.48 -0.01 l
0.47 0 l
0.47 -0.01 l
0.48 -0.01 l
0.47 -0.01 l
0.48 -0.02 l
0.47 -0.01 l
0.47 -0.01 l
0.48 -0.01 l
0.47 -0.01 l
0.48 -0.01 l
0.47 -0.01 l
0.47 -0.01 l
0.48 -0.01 l
0.47 -0.01 l
0.48 -0.01 l
0.47 0 l
0.47 -0.01 l
0.48 0 l
0.47 0 l
0.48 0 l
0.47 0 l
0.47 0.01 l
0.48 0 l
0.47 0.01 l
0.48 0.01 l
0.47 0.01 l
0.47 0.02 l
0.48 0.01 l
0.47 0.02 l
0.47 0.02 l
0.48 0.02 l
0.47 0.02 l
0.48 0.03 l
0.47 0.02 l
0.47 0.03 l
0.48 0.03 l
0.47 0.03 l
0.48 0.03 l
0.47 0.03 l
0.47 0.03 l
0.48 0.03 l
0.47 0.03 l
0.48 0.03 l
0.47 0.03 l
0.47 0.03 l
0.48 0.04 l
310.03 84.73 lineto
0.48 0.03 l
0.47 0.03 l
0.47 0.03 l
0.48 0.04 l
0.47 0.03 l
0.48 0.03 l
0.47 0.04 l
0.47 0.03 l
0.48 0.04 l
0.47 0.03 l
0.47 0.04 l
0.48 0.04 l
0.47 0.04 l
0.48 0.04 l
0.47 0.04 l
0.47 0.05 l
0.48 0.05 l
0.47 0.05 l
0.48 0.05 l
0.47 0.06 l
0.47 0.06 l
0.48 0.07 l
0.47 0.07 l
0.48 0.07 l
0.47 0.08 l
0.47 0.08 l
0.48 0.09 l
0.47 0.09 l
0.48 0.09 l
0.47 0.10 l
0.47 0.11 l
0.48 0.11 l
0.47 0.12 l
0.48 0.12 l
0.47 0.12 l
0.47 0.14 l
0.48 0.13 l
0.47 0.15 l
0.47 0.15 l
0.48 0.16 l
0.47 0.16 l
0.48 0.17 l
0.47 0.17 l
0.47 0.19 l
0.48 0.19 l
0.47 0.20 l
0.48 0.21 l
0.47 0.21 l
0.47 0.23 l
0.48 0.23 l
0.47 0.25 l
0.48 0.25 l
0.47 0.27 l
0.47 0.27 l
0.48 0.29 l
0.47 0.30 l
0.48 0.31 l
0.47 0.32 l
0.47 0.33 l
0.48 0.35 l
0.47 0.36 l
0.48 0.37 l
0.47 0.38 l
0.47 0.39 l
0.48 0.41 l
0.47 0.41 l
0.47 0.43 l
0.48 0.44 l
0.47 0.45 l
0.48 0.45 l
0.47 0.47 l
0.47 0.47 l
0.48 0.48 l
0.47 0.49 l
0.48 0.49 l
0.47 0.49 l
0.47 0.49 l
0.48 0.50 l
0.47 0.49 l
0.48 0.50 l
0.47 0.48 l
0.47 0.49 l
0.48 0.47 l
0.47 0.47 l
0.48 0.46 l
0.47 0.45 l
0.47 0.44 l
0.48 0.43 l
0.47 0.42 l
0.48 0.41 l
0.47 0.39 l
0.47 0.38 l
0.48 0.37 l
0.47 0.36 l
0.47 0.35 l
0.48 0.35 l
0.47 0.33 l
0.48 0.33 l
0.47 0.33 l
357.42 109.52 lineto
0.48 0.32 l
0.47 0.33 l
0.48 0.32 l
0.47 0.34 l
0.47 0.34 l
0.48 0.35 l
0.47 0.36 l
0.48 0.38 l
0.47 0.39 l
0.47 0.40 l
0.48 0.42 l
0.47 0.44 l
0.48 0.46 l
0.47 0.48 l
0.47 0.49 l
0.48 0.51 l
0.47 0.53 l
0.48 0.54 l
0.47 0.56 l
0.47 0.57 l
0.48 0.59 l
0.47 0.60 l
0.47 0.61 l
0.48 0.61 l
0.47 0.63 l
0.48 0.62 l
0.47 0.63 l
0.47 0.63 l
0.48 0.63 l
0.47 0.63 l
0.48 0.63 l
0.47 0.62 l
0.47 0.61 l
0.48 0.61 l
0.47 0.60 l
0.48 0.60 l
0.47 0.58 l
0.47 0.58 l
0.48 0.57 l
0.47 0.56 l
0.48 0.55 l
0.47 0.54 l
0.47 0.53 l
0.48 0.53 l
0.47 0.51 l
0.48 0.50 l
0.47 0.49 l
0.47 0.48 l
0.48 0.47 l
0.47 0.46 l
0.47 0.44 l
0.48 0.43 l
0.47 0.42 l
0.48 0.41 l
0.47 0.39 l
0.47 0.38 l
0.48 0.36 l
0.47 0.34 l
0.48 0.34 l
0.47 0.31 l
0.47 0.31 l
0.48 0.28 l
0.47 0.27 l
0.48 0.26 l
0.47 0.24 l
0.47 0.24 l
0.48 0.22 l
0.47 0.21 l
0.48 0.20 l
0.47 0.20 l
0.47 0.19 l
0.48 0.19 l
0.47 0.19 l
0.48 0.19 l
0.47 0.19 l
0.47 0.20 l
0.48 0.20 l
0.47 0.22 l
0.47 0.22 l
0.48 0.24 l
0.47 0.25 l
0.48 0.26 l
0.47 0.28 l
0.47 0.30 l
0.48 0.32 l
0.47 0.34 l
0.48 0.36 l
0.47 0.38 l
0.47 0.39 l
0.48 0.42 l
0.47 0.44 l
0.48 0.46 l
0.47 0.47 l
0.47 0.49 l
0.48 0.50 l
0.47 0.52 l
0.48 0.53 l
0.47 0.54 l
0.47 0.54 l
404.82 151.87 lineto
0.47 0.55 l
0.48 0.54 l
0.47 0.54 l
0.47 0.53 l
0.48 0.53 l
0.47 0.50 l
0.47 0.49 l
0.48 0.47 l
0.47 0.44 l
0.48 0.42 l
0.47 0.39 l
0.47 0.36 l
0.48 0.33 l
0.47 0.29 l
0.48 0.27 l
0.47 0.23 l
0.47 0.19 l
0.48 0.15 l
0.47 0.12 l
0.48 0.09 l
0.47 0.05 l
0.47 0.02 l
0.48 0 l
0.47 -0.04 l
0.48 -0.05 l
0.47 -0.08 l
0.47 -0.10 l
0.48 -0.11 l
0.47 -0.13 l
0.48 -0.14 l
0.47 -0.14 l
0.47 -0.14 l
0.48 -0.14 l
0.47 -0.14 l
0.47 -0.13 l
0.48 -0.13 l
0.47 -0.11 l
0.48 -0.09 l
0.47 -0.07 l
0.47 -0.06 l
0.48 -0.03 l
0.47 -0.01 l
0.48 0.02 l
0.47 0.05 l
0.47 0.07 l
0.48 0.10 l
0.47 0.13 l
0.48 0.17 l
0.47 0.20 l
0.47 0.23 l
0.48 0.25 l
0.47 0.29 l
0.48 0.32 l
0.47 0.35 l
0.47 0.37 l
0.48 0.39 l
0.47 0.42 l
0.48 0.45 l
0.47 0.46 l
0.47 0.48 l
0.48 0.50 l
0.47 0.50 l
0.47 0.52 l
0.48 0.52 l
0.47 0.52 l
0.48 0.52 l
0.47 0.51 l
0.47 0.50 l
0.48 0.49 l
0.47 0.47 l
0.48 0.45 l
0.47 0.43 l
0.47 0.38 l
0.48 0.36 l
0.47 0.32 l
0.48 0.28 l
0.47 0.23 l
0.47 0.18 l
0.48 0.12 l
0.47 0.06 l
0.48 0.02 l
0.47 -0.05 l
0.47 -0.13 l
0.48 -0.20 l
0.47 -0.26 l
0.48 -0.33 l
0.47 -0.40 l
0.47 -0.48 l
0.48 -0.56 l
0.47 -0.63 l
0.47 -0.70 l
0.48 -0.76 l
0.47 -0.85 l
0.48 -0.93 l
0.47 -0.98 l
0.47 -1.05 l
0.48 -1.10 l
0.47 -1.18 l
0.48 -1.23 l
452.21 157.06 lineto
0.47 -1.33 l
0.48 -1.37 l
0.47 -1.41 l
0.48 -1.46 l
0.47 -1.48 l
0.47 -1.51 l
0.48 -1.53 l
0.47 -1.56 l
0.48 -1.57 l
0.47 -1.58 l
0.47 -1.59 l
0.48 -1.60 l
0.47 -1.59 l
0.48 -1.60 l
0.47 -1.58 l
0.47 -1.58 l
0.48 -1.57 l
0.47 -1.55 l
0.47 -1.53 l
0.48 -1.52 l
0.47 -1.50 l
0.48 -1.47 l
0.47 -1.46 l
0.47 -1.42 l
0.48 -1.40 l
0.47 -1.37 l
0.48 -1.35 l
0.47 -1.31 l
0.47 -1.28 l
0.48 -1.25 l
0.47 -1.23 l
0.48 -1.19 l
0.47 -1.16 l
0.47 -1.12 l
0.48 -1.10 l
0.47 -1.06 l
0.48 -1.03 l
0.47 -1.00 l
0.47 -0.96 l
0.48 -0.93 l
0.47 -0.91 l
0.48 -0.87 l
0.47 -0.84 l
0.47 -0.80 l
0.48 -0.78 l
0.47 -0.75 l
0.47 -0.72 l
0.48 -0.69 l
0.47 -0.66 l
0.48 -0.63 l
0.47 -0.61 l
0.47 -0.58 l
0.48 -0.56 l
0.47 -0.53 l
0.48 -0.50 l
0.47 -0.49 l
0.47 -0.46 l
0.48 -0.44 l
0.47 -0.41 l
0.48 -0.40 l
0.47 -0.37 l
0.47 -0.36 l
0.48 -0.34 l
0.47 -0.31 l
0.48 -0.30 l
0.47 -0.29 l
0.47 -0.27 l
0.48 -0.25 l
0.47 -0.24 l
0.48 -0.22 l
0.47 -0.20 l
0.47 -0.20 l
0.48 -0.18 l
0.47 -0.17 l
0.47 -0.16 l
0.48 -0.14 l
0.47 -0.14 l
0.48 -0.12 l
0.47 -0.12 l
0.47 -0.10 l
0.48 -0.10 l
0.47 -0.09 l
0.48 -0.08 l
0.47 -0.07 l
0.47 -0.07 l
0.48 -0.06 l
0.47 -0.05 l
0.48 -0.05 l
0.47 -0.05 l
0.47 -0.04 l
0.48 -0.03 l
0.47 -0.03 l
0.48 -0.03 l
0.47 -0.02 l
0.47 -0.03 l
0.48 -0.01 l
0.47 -0.02 l
0.48 -0.02 l
0.47 -0.01 l
499.60 83.98 lineto
0.48 -0.01 l
0.47 -0.01 l
0.47 0 l
0.48 -0.01 l
0.47 0 l
0.48 -0.01 l
0.47 0 l
0.47 0 l
0.48 -0.01 l
0.47 0 l
0.48 0 l
o
1 0 0 srgb
1.50 setlinewidth
[] 0 setdash
np
77.49 83.95 m
0.22 0 l
0.22 0.01 l
0.23 0.01 l
0.22 0.01 l
0.23 0.01 l
0.22 0.01 l
0.22 0.01 l
0.23 0.02 l
0.22 0.02 l
0.23 0.02 l
0.22 0.03 l
0.22 0.03 l
0.23 0.03 l
0.22 0.04 l
0.23 0.05 l
0.22 0.05 l
0.22 0.06 l
0.23 0.06 l
0.22 0.08 l
0.23 0.08 l
0.22 0.09 l
0.22 0.11 l
0.23 0.11 l
0.22 0.13 l
0.23 0.15 l
0.22 0.16 l
0.22 0.17 l
0.23 0.19 l
0.22 0.21 l
0.23 0.24 l
0.22 0.25 l
0.22 0.28 l
0.23 0.30 l
0.22 0.33 l
0.23 0.37 l
0.22 0.39 l
0.22 0.42 l
0.23 0.46 l
0.22 0.49 l
0.23 0.54 l
0.22 0.58 l
0.22 0.62 l
0.23 0.67 l
0.22 0.72 l
0.23 0.78 l
0.22 0.82 l
0.22 0.89 l
0.23 0.93 l
0.22 1.01 l
0.23 1.08 l
0.22 1.15 l
0.22 1.21 l
0.23 1.28 l
0.22 1.36 l
0.23 1.45 l
0.22 1.52 l
0.23 1.60 l
0.22 1.68 l
0.22 1.77 l
0.23 1.86 l
0.22 1.94 l
0.23 2.02 l
0.22 2.11 l
0.22 2.20 l
0.23 2.29 l
0.22 2.37 l
0.23 2.44 l
0.22 2.53 l
0.22 2.62 l
0.23 2.69 l
0.22 2.76 l
0.23 2.84 l
0.22 2.89 l
0.22 2.98 l
0.23 3.04 l
0.22 3.09 l
0.23 3.14 l
0.22 3.20 l
0.22 3.24 l
0.23 3.29 l
0.22 3.32 l
0.23 3.35 l
0.22 3.38 l
0.22 3.40 l
0.23 3.41 l
0.22 3.42 l
0.23 3.43 l
0.22 3.42 l
0.22 3.42 l
0.23 3.40 l
0.22 3.38 l
0.23 3.36 l
0.22 3.33 l
0.22 3.28 l
0.23 3.25 l
0.22 3.20 l
0.23 3.15 l
0.22 3.09 l
0.22 3.03 l
99.89 232.61 lineto
0.22 2.90 l
0.23 2.84 l
0.22 2.76 l
0.22 2.67 l
0.23 2.60 l
0.22 2.53 l
0.23 2.46 l
0.22 2.38 l
0.22 2.29 l
0.23 2.22 l
0.22 2.15 l
0.23 2.08 l
0.22 2.01 l
0.22 1.92 l
0.23 1.86 l
0.22 1.80 l
0.23 1.74 l
0.22 1.67 l
0.22 1.60 l
0.23 1.55 l
0.22 1.49 l
0.23 1.44 l
0.22 1.37 l
0.22 1.31 l
0.23 1.25 l
0.22 1.20 l
0.23 1.15 l
0.22 1.08 l
0.22 1.01 l
0.23 0.95 l
0.22 0.89 l
0.23 0.82 l
0.22 0.74 l
0.22 0.67 l
0.23 0.59 l
0.22 0.52 l
0.23 0.43 l
0.22 0.34 l
0.22 0.24 l
0.23 0.16 l
0.22 0.07 l
0.23 -0.02 l
0.22 -0.15 l
0.22 -0.24 l
0.23 -0.34 l
0.22 -0.44 l
0.23 -0.53 l
0.22 -0.67 l
0.22 -0.76 l
0.23 -0.85 l
0.22 -0.95 l
0.23 -1.05 l
0.22 -1.16 l
0.22 -1.25 l
0.23 -1.32 l
0.22 -1.41 l
0.23 -1.49 l
0.22 -1.57 l
0.22 -1.63 l
0.23 -1.70 l
0.22 -1.74 l
0.23 -1.79 l
0.22 -1.85 l
0.22 -1.87 l
0.23 -1.90 l
0.22 -1.92 l
0.23 -1.94 l
0.22 -1.95 l
0.22 -1.94 l
0.23 -1.95 l
0.22 -1.93 l
0.23 -1.93 l
0.22 -1.90 l
0.22 -1.88 l
0.23 -1.85 l
0.22 -1.83 l
0.23 -1.79 l
0.22 -1.76 l
0.22 -1.72 l
0.23 -1.69 l
0.22 -1.66 l
0.23 -1.62 l
0.22 -1.57 l
0.22 -1.55 l
0.23 -1.51 l
0.22 -1.48 l
0.23 -1.45 l
0.22 -1.41 l
0.22 -1.39 l
0.23 -1.37 l
0.22 -1.34 l
0.23 -1.32 l
0.22 -1.30 l
0.22 -1.28 l
0.23 -1.26 l
0.22 -1.25 l
0.23 -1.24 l
0.22 -1.23 l
0.22 -1.21 l
122.29 212.05 lineto
0.22 -1.20 l
0.23 -1.20 l
0.22 -1.19 l
0.23 -1.18 l
0.22 -1.19 l
0.22 -1.18 l
0.23 -1.17 l
0.22 -1.18 l
0.23 -1.17 l
0.22 -1.17 l
0.22 -1.17 l
0.23 -1.17 l
0.22 -1.16 l
0.23 -1.16 l
0.22 -1.16 l
0.22 -1.15 l
0.23 -1.15 l
0.22 -1.14 l
0.23 -1.13 l
0.22 -1.12 l
0.22 -1.11 l
0.23 -1.09 l
0.22 -1.07 l
0.23 -1.06 l
0.22 -1.03 l
0.22 -1.02 l
0.23 -0.98 l
0.22 -0.95 l
0.23 -0.93 l
0.22 -0.90 l
0.22 -0.87 l
0.23 -0.82 l
0.22 -0.79 l
0.23 -0.76 l
0.22 -0.73 l
0.22 -0.69 l
0.23 -0.65 l
0.22 -0.63 l
0.23 -0.59 l
0.22 -0.57 l
0.22 -0.53 l
0.23 -0.52 l
0.22 -0.50 l
0.23 -0.48 l
0.22 -0.47 l
0.22 -0.47 l
0.23 -0.46 l
0.22 -0.46 l
0.23 -0.47 l
0.22 -0.48 l
0.22 -0.50 l
0.23 -0.52 l
0.22 -0.53 l
0.23 -0.56 l
0.22 -0.59 l
0.22 -0.62 l
0.23 -0.65 l
0.22 -0.68 l
0.23 -0.71 l
0.22 -0.75 l
0.22 -0.77 l
0.23 -0.81 l
0.22 -0.84 l
0.23 -0.86 l
0.22 -0.88 l
0.22 -0.90 l
0.23 -0.92 l
0.22 -0.94 l
0.23 -0.94 l
0.22 -0.95 l
0.22 -0.95 l
0.23 -0.95 l
0.22 -0.95 l
0.23 -0.93 l
0.22 -0.93 l
0.22 -0.91 l
0.23 -0.89 l
0.22 -0.88 l
0.23 -0.85 l
0.22 -0.84 l
0.22 -0.81 l
0.23 -0.78 l
0.22 -0.76 l
0.23 -0.74 l
0.22 -0.72 l
0.22 -0.69 l
0.23 -0.67 l
0.22 -0.65 l
0.23 -0.63 l
0.22 -0.62 l
0.22 -0.59 l
0.23 -0.58 l
0.22 -0.57 l
0.23 -0.56 l
0.22 -0.55 l
0.22 -0.53 l
0.23 -0.53 l
0.22 -0.53 l
0.23 -0.52 l
144.69 130.09 lineto
0.22 -0.52 l
0.23 -0.51 l
0.22 -0.50 l
0.23 -0.51 l
0.22 -0.51 l
0.22 -0.51 l
0.23 -0.51 l
0.22 -0.51 l
0.23 -0.51 l
0.22 -0.51 l
0.22 -0.51 l
0.23 -0.51 l
0.22 -0.52 l
0.23 -0.52 l
0.22 -0.51 l
0.22 -0.52 l
0.23 -0.52 l
0.22 -0.52 l
0.23 -0.52 l
0.22 -0.51 l
0.22 -0.52 l
0.23 -0.52 l
0.22 -0.51 l
0.23 -0.51 l
0.22 -0.51 l
0.22 -0.50 l
0.23 -0.50 l
0.22 -0.49 l
0.23 -0.49 l
0.22 -0.48 l
0.22 -0.47 l
0.23 -0.47 l
0.22 -0.45 l
0.23 -0.45 l
0.22 -0.44 l
0.22 -0.42 l
0.23 -0.42 l
0.22 -0.41 l
0.23 -0.39 l
0.22 -0.39 l
0.22 -0.37 l
0.23 -0.36 l
0.22 -0.35 l
0.23 -0.35 l
0.22 -0.33 l
0.22 -0.32 l
0.23 -0.32 l
0.22 -0.31 l
0.23 -0.30 l
0.22 -0.30 l
0.22 -0.29 l
0.23 -0.28 l
0.22 -0.29 l
0.23 -0.28 l
0.22 -0.27 l
0.23 -0.28 l
0.22 -0.27 l
0.22 -0.27 l
0.23 -0.27 l
0.22 -0.28 l
0.23 -0.27 l
0.22 -0.27 l
0.22 -0.27 l
0.23 -0.27 l
0.22 -0.26 l
0.23 -0.27 l
0.22 -0.27 l
0.22 -0.26 l
0.23 -0.26 l
0.22 -0.26 l
0.23 -0.25 l
0.22 -0.25 l
0.22 -0.25 l
0.23 -0.24 l
0.22 -0.24 l
0.23 -0.24 l
0.22 -0.23 l
0.22 -0.23 l
0.23 -0.22 l
0.22 -0.22 l
0.23 -0.22 l
0.22 -0.22 l
0.22 -0.21 l
0.23 -0.21 l
0.22 -0.22 l
0.23 -0.21 l
0.22 -0.22 l
0.22 -0.22 l
0.23 -0.22 l
0.22 -0.22 l
0.23 -0.23 l
0.22 -0.24 l
0.22 -0.24 l
0.23 -0.24 l
0.22 -0.25 l
0.23 -0.26 l
0.22 -0.26 l
0.22 -0.27 l
0.23 -0.27 l
167.09 94.66 lineto
0.23 -0.28 l
0.22 -0.29 l
0.22 -0.28 l
0.23 -0.29 l
0.22 -0.29 l
0.23 -0.29 l
0.22 -0.29 l
0.22 -0.28 l
0.23 -0.28 l
0.22 -0.28 l
0.23 -0.27 l
0.22 -0.27 l
0.22 -0.26 l
0.23 -0.25 l
0.22 -0.24 l
0.23 -0.24 l
0.22 -0.22 l
0.22 -0.22 l
0.23 -0.21 l
0.22 -0.19 l
0.23 -0.19 l
0.22 -0.17 l
0.22 -0.17 l
0.23 -0.16 l
0.22 -0.15 l
0.23 -0.13 l
0.22 -0.14 l
0.22 -0.12 l
0.23 -0.11 l
0.22 -0.11 l
0.23 -0.10 l
0.22 -0.10 l
0.22 -0.09 l
0.23 -0.09 l
0.22 -0.08 l
0.23 -0.08 l
0.22 -0.07 l
0.22 -0.07 l
0.23 -0.07 l
0.22 -0.07 l
0.23 -0.07 l
0.22 -0.07 l
0.22 -0.06 l
0.23 -0.07 l
0.22 -0.07 l
0.23 -0.06 l
0.22 -0.07 l
0.22 -0.06 l
0.23 -0.07 l
0.22 -0.07 l
0.23 -0.07 l
0.22 -0.06 l
0.22 -0.07 l
0.23 -0.07 l
0.22 -0.07 l
0.23 -0.08 l
0.22 -0.07 l
0.22 -0.07 l
0.23 -0.07 l
0.22 -0.07 l
0.23 -0.08 l
0.22 -0.07 l
0.22 -0.07 l
0.23 -0.08 l
0.22 -0.07 l
0.23 -0.07 l
0.22 -0.07 l
0.22 -0.07 l
0.23 -0.07 l
0.22 -0.07 l
0.23 -0.06 l
0.22 -0.07 l
0.22 -0.06 l
0.23 -0.06 l
0.22 -0.06 l
0.23 -0.06 l
0.22 -0.06 l
0.22 -0.05 l
0.23 -0.05 l
0.22 -0.05 l
0.23 -0.05 l
0.22 -0.04 l
0.22 -0.04 l
0.23 -0.04 l
0.22 -0.04 l
0.23 -0.04 l
0.22 -0.03 l
0.22 -0.03 l
0.23 -0.03 l
0.22 -0.02 l
0.23 -0.02 l
0.22 -0.03 l
0.22 -0.02 l
0.23 -0.01 l
0.22 -0.02 l
0.23 -0.01 l
0.22 -0.02 l
0.22 -0.01 l
0.23 -0.01 l
189.49 83.98 lineto
0.23 -0.01 l
0.22 0 l
0.22 -0.01 l
0.23 -0.01 l
0.22 0 l
0.23 0 l
0.22 -0.01 l
0.23 0 l
0.22 0 l
0.22 -0.01 l
0.23 0 l
o
1.50 setlinewidth
[ 4.50 7.50] 0 setdash
np
300.00 83.93 m
0.43 0 l
0.42 0 l
0.42 0 l
0.43 0 l
0.42 0 l
0.42 0 l
0.43 0.01 l
0.42 0 l
0.42 0 l
0.43 0 l
0.42 0.01 l
0.43 0 l
0.42 0.01 l
0.42 0 l
0.43 0.01 l
0.42 0 l
0.42 0.01 l
0.43 0.01 l
0.42 0 l
0.42 0.01 l
0.43 0.01 l
0.42 0.01 l
0.42 0.01 l
0.43 0.01 l
0.42 0.01 l
0.42 0.01 l
0.43 0.02 l
0.42 0.01 l
0.42 0.02 l
0.43 0.01 l
0.42 0.02 l
0.43 0.01 l
0.42 0.02 l
0.42 0.02 l
0.43 0.02 l
0.42 0.01 l
0.42 0.02 l
0.43 0.02 l
0.42 0.02 l
0.42 0.02 l
0.43 0.02 l
0.42 0.02 l
0.42 0.02 l
0.43 0.02 l
0.42 0.02 l
0.42 0.02 l
0.43 0.02 l
0.42 0.02 l
0.43 0.02 l
0.42 0.02 l
0.42 0.02 l
0.43 0.03 l
0.42 0.02 l
0.42 0.03 l
0.43 0.02 l
0.42 0.03 l
0.42 0.02 l
0.43 0.03 l
0.42 0.03 l
0.42 0.04 l
0.43 0.03 l
0.42 0.03 l
0.42 0.04 l
0.43 0.04 l
0.42 0.04 l
0.43 0.05 l
0.42 0.05 l
0.42 0.05 l
0.43 0.05 l
0.42 0.05 l
0.42 0.06 l
0.43 0.06 l
0.42 0.06 l
0.42 0.07 l
0.43 0.07 l
0.42 0.07 l
0.42 0.07 l
0.43 0.08 l
0.42 0.07 l
0.42 0.08 l
0.43 0.08 l
0.42 0.09 l
0.43 0.08 l
0.42 0.09 l
0.42 0.09 l
0.43 0.09 l
0.42 0.10 l
0.42 0.09 l
0.43 0.10 l
0.42 0.10 l
0.42 0.10 l
0.43 0.10 l
0.42 0.10 l
0.42 0.11 l
0.43 0.10 l
0.42 0.11 l
0.42 0.11 l
0.43 0.12 l
0.42 0.11 l
342.35 87.88 lineto
0.43 0.12 l
0.42 0.12 l
0.43 0.12 l
0.42 0.13 l
0.42 0.13 l
0.43 0.13 l
0.42 0.13 l
0.42 0.14 l
0.43 0.14 l
0.42 0.14 l
0.42 0.14 l
0.43 0.15 l
0.42 0.15 l
0.42 0.15 l
0.43 0.15 l
0.42 0.16 l
0.42 0.16 l
0.43 0.17 l
0.42 0.17 l
0.43 0.17 l
0.42 0.18 l
0.42 0.18 l
0.43 0.18 l
0.42 0.19 l
0.42 0.19 l
0.43 0.20 l
0.42 0.20 l
0.42 0.21 l
0.43 0.21 l
0.42 0.22 l
0.42 0.22 l
0.43 0.23 l
0.42 0.24 l
0.42 0.24 l
0.43 0.25 l
0.42 0.26 l
0.43 0.26 l
0.42 0.27 l
0.42 0.28 l
0.43 0.28 l
0.42 0.29 l
0.42 0.30 l
0.43 0.30 l
0.42 0.31 l
0.42 0.31 l
0.43 0.33 l
0.42 0.32 l
0.42 0.34 l
0.43 0.33 l
0.42 0.34 l
0.42 0.35 l
0.43 0.35 l
0.42 0.35 l
0.43 0.35 l
0.42 0.35 l
0.42 0.36 l
0.43 0.35 l
0.42 0.36 l
0.42 0.36 l
0.43 0.35 l
0.42 0.35 l
0.42 0.35 l
0.43 0.35 l
0.42 0.35 l
0.42 0.34 l
0.43 0.34 l
0.42 0.34 l
0.42 0.34 l
0.43 0.33 l
0.42 0.33 l
0.42 0.33 l
0.43 0.32 l
0.42 0.32 l
0.43 0.32 l
0.42 0.31 l
0.42 0.32 l
0.43 0.31 l
0.42 0.31 l
0.42 0.31 l
0.43 0.31 l
0.42 0.30 l
0.42 0.31 l
0.43 0.31 l
0.42 0.30 l
0.42 0.31 l
0.43 0.30 l
0.42 0.31 l
0.42 0.30 l
0.43 0.31 l
0.42 0.30 l
0.43 0.30 l
0.42 0.31 l
0.42 0.30 l
0.43 0.30 l
0.42 0.31 l
0.42 0.30 l
0.43 0.30 l
0.42 0.30 l
0.42 0.31 l
384.71 114.60 lineto
0.42 0.30 l
0.42 0.31 l
0.43 0.30 l
0.42 0.31 l
0.42 0.31 l
0.43 0.31 l
0.42 0.31 l
0.43 0.32 l
0.42 0.32 l
0.42 0.33 l
0.43 0.34 l
0.42 0.34 l
0.42 0.35 l
0.43 0.36 l
0.42 0.37 l
0.42 0.38 l
0.43 0.39 l
0.42 0.40 l
0.42 0.41 l
0.43 0.42 l
0.42 0.44 l
0.42 0.44 l
0.43 0.46 l
0.42 0.47 l
0.43 0.48 l
0.42 0.49 l
0.42 0.50 l
0.43 0.51 l
0.42 0.51 l
0.42 0.52 l
0.43 0.52 l
0.42 0.53 l
0.42 0.53 l
0.43 0.53 l
0.42 0.52 l
0.42 0.53 l
0.43 0.51 l
0.42 0.51 l
0.42 0.50 l
0.43 0.49 l
0.42 0.47 l
0.42 0.46 l
0.43 0.45 l
0.42 0.42 l
0.43 0.41 l
0.42 0.39 l
0.42 0.37 l
0.43 0.34 l
0.42 0.32 l
0.42 0.30 l
0.43 0.28 l
0.42 0.24 l
0.42 0.23 l
0.43 0.21 l
0.42 0.18 l
0.42 0.16 l
0.43 0.14 l
0.42 0.11 l
0.42 0.10 l
0.43 0.09 l
0.42 0.06 l
0.43 0.05 l
0.42 0.04 l
0.42 0.03 l
0.43 0.02 l
0.42 0.01 l
0.42 0 l
0.43 0 l
0.42 0.01 l
0.42 0 l
0.43 0 l
0.42 0.02 l
0.42 0.02 l
0.43 0.02 l
0.42 0.05 l
0.42 0.05 l
0.43 0.07 l
0.42 0.09 l
0.43 0.11 l
0.42 0.12 l
0.42 0.16 l
0.43 0.17 l
0.42 0.20 l
0.42 0.22 l
0.43 0.26 l
0.42 0.28 l
0.42 0.31 l
0.43 0.34 l
0.42 0.37 l
0.42 0.40 l
0.43 0.44 l
0.42 0.46 l
0.42 0.50 l
0.43 0.53 l
0.42 0.56 l
0.42 0.60 l
0.43 0.62 l
0.42 0.66 l
0.43 0.69 l
427.06 146.40 lineto
0.42 0.75 l
0.43 0.78 l
0.42 0.80 l
0.42 0.84 l
0.43 0.86 l
0.42 0.89 l
0.42 0.91 l
0.43 0.93 l
0.42 0.95 l
0.42 0.98 l
0.43 0.99 l
0.42 1.00 l
0.42 1.02 l
0.43 1.04 l
0.42 1.04 l
0.43 1.04 l
0.42 1.06 l
0.42 1.05 l
0.43 1.06 l
0.42 1.05 l
0.42 1.04 l
0.43 1.04 l
0.42 1.02 l
0.42 1.01 l
0.43 0.99 l
0.42 0.98 l
0.42 0.95 l
0.43 0.92 l
0.42 0.90 l
0.42 0.87 l
0.43 0.84 l
0.42 0.80 l
0.43 0.77 l
0.42 0.73 l
0.42 0.69 l
0.43 0.66 l
0.42 0.61 l
0.42 0.57 l
0.43 0.54 l
0.42 0.49 l
0.42 0.46 l
0.43 0.41 l
0.42 0.37 l
0.42 0.33 l
0.43 0.30 l
0.42 0.26 l
0.42 0.23 l
0.43 0.19 l
0.42 0.16 l
0.43 0.13 l
0.42 0.11 l
0.42 0.07 l
0.43 0.05 l
0.42 0.03 l
0.42 0.01 l
0.43 -0.01 l
0.42 -0.04 l
0.42 -0.05 l
0.43 -0.07 l
0.42 -0.09 l
0.42 -0.11 l
0.43 -0.12 l
0.42 -0.14 l
0.42 -0.16 l
0.43 -0.17 l
0.42 -0.19 l
0.42 -0.21 l
0.43 -0.23 l
0.42 -0.25 l
0.43 -0.27 l
0.42 -0.30 l
0.42 -0.32 l
0.43 -0.34 l
0.42 -0.37 l
0.42 -0.40 l
0.43 -0.43 l
0.42 -0.46 l
0.42 -0.49 l
0.43 -0.52 l
0.42 -0.56 l
0.42 -0.60 l
0.43 -0.63 l
0.42 -0.66 l
0.42 -0.71 l
0.43 -0.75 l
0.42 -0.78 l
0.43 -0.83 l
0.42 -0.86 l
0.42 -0.90 l
0.43 -0.95 l
0.42 -0.99 l
0.42 -1.03 l
0.43 -1.06 l
0.42 -1.11 l
0.42 -1.15 l
0.43 -1.19 l
0.42 -1.23 l
0.42 -1.26 l
0.43 -1.31 l
469.41 159.33 lineto
0.42 -1.38 l
0.43 -1.40 l
0.42 -1.44 l
0.43 -1.48 l
0.42 -1.50 l
0.42 -1.53 l
0.43 -1.55 l
0.42 -1.57 l
0.42 -1.60 l
0.43 -1.61 l
0.42 -1.63 l
0.42 -1.64 l
0.43 -1.65 l
0.42 -1.66 l
0.42 -1.67 l
0.43 -1.66 l
0.42 -1.67 l
0.42 -1.65 l
0.43 -1.66 l
0.42 -1.64 l
0.43 -1.63 l
0.42 -1.62 l
0.42 -1.60 l
0.43 -1.58 l
0.42 -1.56 l
0.42 -1.53 l
0.43 -1.51 l
0.42 -1.48 l
0.42 -1.45 l
0.43 -1.41 l
0.42 -1.39 l
0.42 -1.35 l
0.43 -1.31 l
0.42 -1.28 l
0.42 -1.24 l
0.43 -1.20 l
0.42 -1.15 l
0.42 -1.12 l
0.43 -1.08 l
0.42 -1.04 l
0.43 -0.99 l
0.42 -0.95 l
0.42 -0.91 l
0.43 -0.87 l
0.42 -0.84 l
0.42 -0.79 l
0.43 -0.75 l
0.42 -0.71 l
0.42 -0.67 l
0.43 -0.64 l
0.42 -0.60 l
0.42 -0.56 l
0.43 -0.53 l
0.42 -0.50 l
0.42 -0.47 l
0.43 -0.43 l
0.42 -0.40 l
0.43 -0.38 l
0.42 -0.36 l
0.42 -0.33 l
0.43 -0.30 l
0.42 -0.27 l
0.42 -0.26 l
0.43 -0.25 l
0.42 -0.22 l
0.42 -0.20 l
0.43 -0.19 l
0.42 -0.17 l
0.42 -0.16 l
0.43 -0.14 l
0.42 -0.14 l
0.42 -0.12 l
0.43 -0.11 l
0.42 -0.10 l
0.43 -0.10 l
0.42 -0.08 l
0.42 -0.08 l
0.43 -0.07 l
0.42 -0.07 l
0.42 -0.05 l
0.43 -0.06 l
0.42 -0.05 l
0.42 -0.04 l
0.43 -0.04 l
0.42 -0.04 l
0.42 -0.03 l
0.43 -0.03 l
0.42 -0.03 l
0.42 -0.02 l
0.43 -0.02 l
0.42 -0.02 l
0.42 -0.02 l
0.43 -0.02 l
0.42 -0.01 l
0.43 -0.01 l
0.42 -0.01 l
0.42 -0.01 l
0.43 -0.01 l
0.42 -0.01 l
511.76 83.96 lineto
0.43 0 l
0.42 -0.01 l
0.42 0 l
0.43 -0.01 l
0.42 0 l
0.42 0 l
0.43 0 l
0.42 -0.01 l
0.42 0 l
0.43 0 l
0.42 0 l
o
0 1 0 srgb
1.50 setlinewidth
[] 0 setdash
np
83.55 83.93 m
0.27 0.01 l
0.28 0 l
0.28 0 l
0.27 0.01 l
0.28 0 l
0.28 0.01 l
0.28 0 l
0.27 0.01 l
0.28 0.01 l
0.28 0.02 l
0.27 0.01 l
0.28 0.01 l
0.28 0.02 l
0.28 0.02 l
0.27 0.03 l
0.28 0.03 l
0.28 0.03 l
0.27 0.03 l
0.28 0.04 l
0.28 0.05 l
0.27 0.05 l
0.28 0.06 l
0.28 0.07 l
0.28 0.07 l
0.27 0.09 l
0.28 0.09 l
0.28 0.10 l
0.27 0.11 l
0.28 0.13 l
0.28 0.14 l
0.28 0.16 l
0.27 0.16 l
0.28 0.19 l
0.28 0.20 l
0.27 0.22 l
0.28 0.24 l
0.28 0.26 l
0.27 0.29 l
0.28 0.30 l
0.28 0.34 l
0.28 0.36 l
0.27 0.39 l
0.28 0.42 l
0.28 0.44 l
0.27 0.49 l
0.28 0.52 l
0.28 0.55 l
0.28 0.60 l
0.27 0.62 l
0.28 0.68 l
0.28 0.73 l
0.27 0.76 l
0.28 0.81 l
0.28 0.86 l
0.27 0.92 l
0.28 0.97 l
0.28 1.02 l
0.28 1.08 l
0.27 1.14 l
0.28 1.21 l
0.28 1.28 l
0.27 1.34 l
0.28 1.40 l
0.28 1.48 l
0.28 1.56 l
0.27 1.64 l
0.28 1.71 l
0.28 1.79 l
0.27 1.87 l
0.28 1.96 l
0.28 2.06 l
0.27 2.14 l
0.28 2.23 l
0.28 2.31 l
0.28 2.40 l
0.27 2.51 l
0.28 2.60 l
0.28 2.68 l
0.27 2.77 l
0.28 2.85 l
0.28 2.95 l
0.28 3.02 l
0.27 3.10 l
0.28 3.16 l
0.28 3.22 l
0.27 3.29 l
0.28 3.34 l
0.28 3.38 l
0.27 3.42 l
0.28 3.44 l
0.28 3.45 l
0.28 3.46 l
0.27 3.46 l
0.28 3.45 l
0.28 3.42 l
0.27 3.38 l
0.28 3.34 l
0.28 3.28 l
0.28 3.23 l
111.25 208.64 lineto
0.28 3.07 l
0.28 2.97 l
0.27 2.89 l
0.28 2.79 l
0.28 2.69 l
0.27 2.59 l
0.28 2.45 l
0.28 2.34 l
0.28 2.24 l
0.27 2.13 l
0.28 2.01 l
0.28 1.87 l
0.27 1.76 l
0.28 1.66 l
0.28 1.55 l
0.28 1.46 l
0.27 1.32 l
0.28 1.22 l
0.28 1.14 l
0.27 1.04 l
0.28 0.96 l
0.28 0.86 l
0.27 0.77 l
0.28 0.69 l
0.28 0.62 l
0.28 0.55 l
0.27 0.46 l
0.28 0.40 l
0.28 0.33 l
0.27 0.27 l
0.28 0.21 l
0.28 0.14 l
0.28 0.08 l
0.27 0.03 l
0.28 -0.03 l
0.28 -0.07 l
0.27 -0.13 l
0.28 -0.18 l
0.28 -0.22 l
0.27 -0.27 l
0.28 -0.31 l
0.28 -0.35 l
0.28 -0.40 l
0.27 -0.43 l
0.28 -0.47 l
0.28 -0.50 l
0.27 -0.53 l
0.28 -0.56 l
0.28 -0.60 l
0.28 -0.62 l
0.27 -0.65 l
0.28 -0.67 l
0.28 -0.70 l
0.27 -0.72 l
0.28 -0.74 l
0.28 -0.76 l
0.27 -0.78 l
0.28 -0.81 l
0.28 -0.82 l
0.28 -0.83 l
0.27 -0.85 l
0.28 -0.87 l
0.28 -0.88 l
0.27 -0.89 l
0.28 -0.91 l
0.28 -0.91 l
0.28 -0.93 l
0.27 -0.93 l
0.28 -0.94 l
0.28 -0.95 l
0.27 -0.95 l
0.28 -0.96 l
0.28 -0.97 l
0.27 -0.97 l
0.28 -0.98 l
0.28 -0.98 l
0.28 -0.99 l
0.27 -1.00 l
0.28 -1.01 l
0.28 -1.01 l
0.27 -1.03 l
0.28 -1.04 l
0.28 -1.05 l
0.28 -1.07 l
0.27 -1.08 l
0.28 -1.11 l
0.28 -1.12 l
0.27 -1.13 l
0.28 -1.17 l
0.28 -1.18 l
0.27 -1.20 l
0.28 -1.22 l
0.28 -1.24 l
0.28 -1.27 l
0.27 -1.28 l
0.28 -1.29 l
0.28 -1.31 l
0.27 -1.32 l
0.28 -1.33 l
138.96 200.40 lineto
0.28 -1.34 l
0.27 -1.34 l
0.28 -1.33 l
0.28 -1.33 l
0.27 -1.32 l
0.28 -1.31 l
0.28 -1.29 l
0.27 -1.28 l
0.28 -1.26 l
0.28 -1.23 l
0.28 -1.22 l
0.27 -1.18 l
0.28 -1.17 l
0.28 -1.14 l
0.27 -1.11 l
0.28 -1.08 l
0.28 -1.06 l
0.28 -1.03 l
0.27 -1.00 l
0.28 -0.98 l
0.28 -0.96 l
0.27 -0.93 l
0.28 -0.92 l
0.28 -0.89 l
0.27 -0.88 l
0.28 -0.86 l
0.28 -0.85 l
0.28 -0.84 l
0.27 -0.83 l
0.28 -0.82 l
0.28 -0.82 l
0.27 -0.82 l
0.28 -0.81 l
0.28 -0.82 l
0.28 -0.82 l
0.27 -0.82 l
0.28 -0.83 l
0.28 -0.84 l
0.27 -0.84 l
0.28 -0.86 l
0.28 -0.87 l
0.27 -0.89 l
0.28 -0.89 l
0.28 -0.91 l
0.28 -0.93 l
0.27 -0.94 l
0.28 -0.96 l
0.28 -0.97 l
0.27 -0.98 l
0.28 -1.00 l
0.28 -1.01 l
0.28 -1.02 l
0.27 -1.03 l
0.28 -1.04 l
0.28 -1.04 l
0.27 -1.05 l
0.28 -1.04 l
0.28 -1.05 l
0.27 -1.04 l
0.28 -1.04 l
0.28 -1.02 l
0.28 -1.01 l
0.27 -1.00 l
0.28 -0.97 l
0.28 -0.96 l
0.27 -0.94 l
0.28 -0.90 l
0.28 -0.87 l
0.28 -0.85 l
0.27 -0.82 l
0.28 -0.79 l
0.28 -0.74 l
0.27 -0.72 l
0.28 -0.68 l
0.28 -0.65 l
0.27 -0.61 l
0.28 -0.58 l
0.28 -0.55 l
0.28 -0.52 l
0.27 -0.50 l
0.28 -0.47 l
0.28 -0.45 l
0.27 -0.42 l
0.28 -0.41 l
0.28 -0.39 l
0.28 -0.39 l
0.27 -0.37 l
0.28 -0.36 l
0.28 -0.36 l
0.27 -0.36 l
0.28 -0.35 l
0.28 -0.36 l
0.27 -0.35 l
0.28 -0.36 l
0.28 -0.36 l
0.28 -0.36 l
0.27 -0.36 l
0.28 -0.37 l
0.28 -0.37 l
166.66 116.37 lineto
0.28 -0.36 l
0.28 -0.37 l
0.28 -0.36 l
0.27 -0.36 l
0.28 -0.35 l
0.28 -0.35 l
0.27 -0.34 l
0.28 -0.33 l
0.28 -0.32 l
0.27 -0.31 l
0.28 -0.30 l
0.28 -0.30 l
0.28 -0.28 l
0.27 -0.28 l
0.28 -0.27 l
0.28 -0.26 l
0.27 -0.26 l
0.28 -0.25 l
0.28 -0.25 l
0.28 -0.25 l
0.27 -0.24 l
0.28 -0.25 l
0.28 -0.26 l
0.27 -0.26 l
0.28 -0.26 l
0.28 -0.28 l
0.27 -0.28 l
0.28 -0.29 l
0.28 -0.30 l
0.28 -0.32 l
0.27 -0.32 l
0.28 -0.34 l
0.28 -0.34 l
0.27 -0.37 l
0.28 -0.37 l
0.28 -0.38 l
0.28 -0.39 l
0.27 -0.40 l
0.28 -0.41 l
0.28 -0.42 l
0.27 -0.43 l
0.28 -0.43 l
0.28 -0.44 l
0.27 -0.44 l
0.28 -0.44 l
0.28 -0.44 l
0.28 -0.45 l
0.27 -0.44 l
0.28 -0.44 l
0.28 -0.44 l
0.27 -0.43 l
0.28 -0.42 l
0.28 -0.42 l
0.28 -0.41 l
0.27 -0.40 l
0.28 -0.39 l
0.28 -0.38 l
0.27 -0.37 l
0.28 -0.35 l
0.28 -0.34 l
0.27 -0.33 l
0.28 -0.31 l
0.28 -0.31 l
0.28 -0.28 l
0.27 -0.28 l
0.28 -0.26 l
0.28 -0.24 l
0.27 -0.24 l
0.28 -0.22 l
0.28 -0.22 l
0.28 -0.20 l
0.27 -0.19 l
0.28 -0.18 l
0.28 -0.18 l
0.27 -0.17 l
0.28 -0.17 l
0.28 -0.16 l
0.27 -0.16 l
0.28 -0.15 l
0.28 -0.16 l
0.28 -0.15 l
0.27 -0.15 l
0.28 -0.16 l
0.28 -0.15 l
0.27 -0.16 l
0.28 -0.15 l
0.28 -0.16 l
0.28 -0.16 l
0.27 -0.15 l
0.28 -0.16 l
0.28 -0.16 l
0.27 -0.16 l
0.28 -0.16 l
0.28 -0.16 l
0.27 -0.16 l
0.28 -0.16 l
0.28 -0.15 l
0.28 -0.16 l
0.27 -0.15 l
194.37 87.91 lineto
0.28 -0.14 l
0.27 -0.15 l
0.28 -0.13 l
0.28 -0.14 l
0.28 -0.13 l
0.27 -0.13 l
0.28 -0.12 l
0.28 -0.12 l
0.27 -0.12 l
0.28 -0.12 l
0.28 -0.11 l
0.27 -0.10 l
0.28 -0.11 l
0.28 -0.10 l
0.28 -0.10 l
0.27 -0.10 l
0.28 -0.09 l
0.28 -0.09 l
0.27 -0.09 l
0.28 -0.09 l
0.28 -0.08 l
0.28 -0.09 l
0.27 -0.08 l
0.28 -0.07 l
0.28 -0.08 l
0.27 -0.07 l
0.28 -0.07 l
0.28 -0.07 l
0.27 -0.06 l
0.28 -0.07 l
0.28 -0.05 l
0.28 -0.06 l
0.27 -0.05 l
0.28 -0.04 l
0.28 -0.05 l
0.27 -0.04 l
0.28 -0.03 l
0.28 -0.03 l
0.28 -0.03 l
0.27 -0.02 l
0.28 -0.02 l
0.28 -0.01 l
0.27 -0.01 l
0.28 -0.01 l
0.28 0 l
0.27 0 l
0.28 0 l
0.28 0.01 l
0.28 0.01 l
0.27 0.01 l
0.28 0.01 l
0.28 0.01 l
0.27 0.02 l
0.28 0.01 l
0.28 0.01 l
0.28 0.02 l
0.27 0.01 l
0.28 0.02 l
0.28 0.01 l
0.27 0.01 l
0.28 0.01 l
0.28 0.01 l
0.27 0 l
0.28 0 l
0.28 0 l
0.28 0 l
0.27 -0.01 l
0.28 -0.01 l
0.28 -0.01 l
0.27 -0.01 l
0.28 -0.02 l
0.28 -0.01 l
0.28 -0.02 l
0.27 -0.03 l
0.28 -0.02 l
0.28 -0.02 l
0.27 -0.03 l
0.28 -0.03 l
0.28 -0.02 l
0.27 -0.03 l
0.28 -0.03 l
0.28 -0.02 l
0.28 -0.03 l
0.27 -0.03 l
0.28 -0.02 l
0.28 -0.03 l
0.27 -0.02 l
0.28 -0.02 l
0.28 -0.02 l
0.28 -0.02 l
0.27 -0.02 l
0.28 -0.02 l
0.28 -0.02 l
0.27 -0.01 l
0.28 -0.02 l
0.28 -0.01 l
0.27 -0.01 l
0.28 -0.01 l
0.28 -0.01 l
222.08 83.97 lineto
0.27 0 l
0.28 -0.01 l
0.28 -0.01 l
0.27 0 l
0.28 0 l
0.28 -0.01 l
0.28 0 l
0.27 0 l
0.28 -0.01 l
0.28 0 l
0.27 0 l
o
1.50 setlinewidth
[ 4.50 7.50] 0 setdash
np
257.10 83.93 m
0.46 0 l
0.46 0 l
0.46 0 l
0.46 0 l
0.46 0 l
0.45 0 l
0.46 0.01 l
0.46 0 l
0.46 0 l
0.46 0 l
0.46 0.01 l
0.46 0 l
0.45 0 l
0.46 0.01 l
0.46 0 l
0.46 0.01 l
0.46 0 l
0.46 0.01 l
0.46 0.01 l
0.45 0 l
0.46 0.01 l
0.46 0.01 l
0.46 0.01 l
0.46 0.01 l
0.46 0.01 l
0.46 0.01 l
0.45 0.02 l
0.46 0.01 l
0.46 0.01 l
0.46 0.02 l
0.46 0.01 l
0.46 0.02 l
0.46 0.01 l
0.45 0.02 l
0.46 0.01 l
0.46 0.02 l
0.46 0.02 l
0.46 0.02 l
0.46 0.01 l
0.46 0.02 l
0.45 0.02 l
0.46 0.02 l
0.46 0.01 l
0.46 0.02 l
0.46 0.02 l
0.46 0.01 l
0.46 0.02 l
0.45 0.01 l
0.46 0.02 l
0.46 0.01 l
0.46 0.01 l
0.46 0.02 l
0.46 0.01 l
0.46 0.01 l
0.45 0.01 l
0.46 0.01 l
0.46 0.01 l
0.46 0 l
0.46 0.01 l
0.46 0.01 l
0.46 0 l
0.45 0.01 l
0.46 0 l
0.46 0.01 l
0.46 0 l
0.46 0 l
0.46 0.01 l
0.46 0 l
0.45 0 l
0.46 0.01 l
0.46 0 l
0.46 0 l
0.46 0.01 l
0.46 0 l
0.46 0.01 l
0.45 0 l
0.46 0.01 l
0.46 0.01 l
0.46 0.01 l
0.46 0.01 l
0.46 0.01 l
0.46 0.02 l
0.45 0.02 l
0.46 0.02 l
0.46 0.02 l
0.46 0.03 l
0.46 0.03 l
0.46 0.03 l
0.46 0.04 l
0.45 0.04 l
0.46 0.04 l
0.46 0.05 l
0.46 0.05 l
0.46 0.06 l
0.46 0.06 l
0.46 0.07 l
0.45 0.07 l
0.46 0.07 l
0.46 0.08 l
302.96 85.53 lineto
0.46 0.09 l
0.46 0.09 l
0.46 0.10 l
0.45 0.11 l
0.46 0.11 l
0.46 0.11 l
0.46 0.12 l
0.46 0.12 l
0.46 0.13 l
0.46 0.14 l
0.45 0.13 l
0.46 0.14 l
0.46 0.15 l
0.46 0.15 l
0.46 0.15 l
0.46 0.16 l
0.46 0.16 l
0.45 0.16 l
0.46 0.17 l
0.46 0.17 l
0.46 0.17 l
0.46 0.18 l
0.46 0.17 l
0.46 0.18 l
0.45 0.18 l
0.46 0.18 l
0.46 0.18 l
0.46 0.18 l
0.46 0.18 l
0.46 0.19 l
0.46 0.18 l
0.45 0.18 l
0.46 0.18 l
0.46 0.19 l
0.46 0.18 l
0.46 0.18 l
0.46 0.18 l
0.46 0.18 l
0.45 0.18 l
0.46 0.18 l
0.46 0.17 l
0.46 0.18 l
0.46 0.18 l
0.46 0.18 l
0.46 0.17 l
0.45 0.18 l
0.46 0.18 l
0.46 0.18 l
0.46 0.18 l
0.46 0.19 l
0.46 0.18 l
0.46 0.19 l
0.45 0.20 l
0.46 0.19 l
0.46 0.20 l
0.46 0.21 l
0.46 0.21 l
0.46 0.21 l
0.46 0.22 l
0.45 0.23 l
0.46 0.23 l
0.46 0.25 l
0.46 0.24 l
0.46 0.26 l
0.46 0.26 l
0.46 0.28 l
0.45 0.28 l
0.46 0.29 l
0.46 0.29 l
0.46 0.31 l
0.46 0.31 l
0.46 0.32 l
0.46 0.33 l
0.45 0.34 l
0.46 0.34 l
0.46 0.35 l
0.46 0.36 l
0.46 0.36 l
0.46 0.37 l
0.46 0.37 l
0.45 0.37 l
0.46 0.38 l
0.46 0.38 l
0.46 0.38 l
0.46 0.39 l
0.46 0.38 l
0.46 0.39 l
0.45 0.39 l
0.46 0.38 l
0.46 0.39 l
0.46 0.38 l
0.46 0.39 l
0.46 0.39 l
0.46 0.38 l
0.45 0.38 l
0.46 0.39 l
0.46 0.38 l
0.46 0.38 l
0.46 0.38 l
348.82 109.42 lineto
0.46 0.39 l
0.45 0.38 l
0.46 0.38 l
0.46 0.39 l
0.46 0.39 l
0.46 0.39 l
0.46 0.39 l
0.46 0.39 l
0.45 0.39 l
0.46 0.40 l
0.46 0.39 l
0.46 0.40 l
0.46 0.40 l
0.46 0.40 l
0.46 0.41 l
0.45 0.40 l
0.46 0.40 l
0.46 0.40 l
0.46 0.40 l
0.46 0.40 l
0.46 0.40 l
0.46 0.40 l
0.45 0.39 l
0.46 0.38 l
0.46 0.38 l
0.46 0.38 l
0.46 0.36 l
0.46 0.36 l
0.46 0.35 l
0.45 0.33 l
0.46 0.33 l
0.46 0.31 l
0.46 0.30 l
0.46 0.29 l
0.46 0.27 l
0.46 0.25 l
0.45 0.24 l
0.46 0.22 l
0.46 0.20 l
0.46 0.18 l
0.46 0.17 l
0.46 0.14 l
0.46 0.12 l
0.45 0.11 l
0.46 0.08 l
0.46 0.07 l
0.46 0.04 l
0.46 0.02 l
0.46 0.01 l
0.46 -0.01 l
0.45 -0.02 l
0.46 -0.05 l
0.46 -0.05 l
0.46 -0.07 l
0.46 -0.08 l
0.46 -0.09 l
0.46 -0.10 l
0.45 -0.11 l
0.46 -0.11 l
0.46 -0.12 l
0.46 -0.12 l
0.46 -0.12 l
0.46 -0.12 l
0.46 -0.11 l
0.45 -0.11 l
0.46 -0.10 l
0.46 -0.09 l
0.46 -0.09 l
0.46 -0.07 l
0.46 -0.06 l
0.46 -0.04 l
0.45 -0.02 l
0.46 -0.01 l
0.46 0.01 l
0.46 0.04 l
0.46 0.06 l
0.46 0.08 l
0.46 0.11 l
0.45 0.14 l
0.46 0.17 l
0.46 0.20 l
0.46 0.23 l
0.46 0.27 l
0.46 0.29 l
0.46 0.35 l
0.45 0.37 l
0.46 0.41 l
0.46 0.45 l
0.46 0.49 l
0.46 0.53 l
0.46 0.57 l
0.46 0.61 l
0.45 0.64 l
0.46 0.69 l
0.46 0.73 l
0.46 0.76 l
0.46 0.80 l
0.46 0.83 l
0.46 0.87 l
394.67 134.12 lineto
0.46 0.92 l
0.46 0.95 l
0.46 0.97 l
0.46 0.99 l
0.46 1.01 l
0.46 1.02 l
0.45 1.02 l
0.46 1.04 l
0.46 1.04 l
0.46 1.04 l
0.46 1.03 l
0.46 1.03 l
0.46 1.02 l
0.45 1.01 l
0.46 0.99 l
0.46 0.97 l
0.46 0.95 l
0.46 0.93 l
0.46 0.90 l
0.46 0.88 l
0.45 0.85 l
0.46 0.83 l
0.46 0.79 l
0.46 0.76 l
0.46 0.74 l
0.46 0.72 l
0.46 0.68 l
0.45 0.66 l
0.46 0.63 l
0.46 0.62 l
0.46 0.59 l
0.46 0.56 l
0.46 0.55 l
0.46 0.53 l
0.45 0.52 l
0.46 0.50 l
0.46 0.49 l
0.46 0.47 l
0.46 0.47 l
0.46 0.47 l
0.46 0.45 l
0.45 0.45 l
0.46 0.44 l
0.46 0.44 l
0.46 0.44 l
0.46 0.43 l
0.46 0.43 l
0.46 0.43 l
0.45 0.42 l
0.46 0.42 l
0.46 0.41 l
0.46 0.41 l
0.46 0.40 l
0.46 0.39 l
0.46 0.39 l
0.45 0.37 l
0.46 0.36 l
0.46 0.35 l
0.46 0.33 l
0.46 0.32 l
0.46 0.30 l
0.46 0.27 l
0.45 0.26 l
0.46 0.24 l
0.46 0.21 l
0.46 0.18 l
0.46 0.15 l
0.46 0.13 l
0.46 0.10 l
0.45 0.07 l
0.46 0.03 l
0.46 0.01 l
0.46 -0.02 l
0.46 -0.06 l
0.46 -0.09 l
0.46 -0.12 l
0.45 -0.15 l
0.46 -0.18 l
0.46 -0.21 l
0.46 -0.24 l
0.46 -0.27 l
0.46 -0.29 l
0.46 -0.32 l
0.45 -0.35 l
0.46 -0.36 l
0.46 -0.39 l
0.46 -0.41 l
0.46 -0.42 l
0.46 -0.45 l
0.46 -0.47 l
0.45 -0.48 l
0.46 -0.49 l
0.46 -0.52 l
0.46 -0.53 l
0.46 -0.54 l
0.46 -0.56 l
0.46 -0.57 l
0.45 -0.60 l
0.46 -0.61 l
440.53 165.96 lineto
0.46 -0.65 l
0.46 -0.66 l
0.46 -0.70 l
0.46 -0.71 l
0.45 -0.74 l
0.46 -0.77 l
0.46 -0.79 l
0.46 -0.82 l
0.46 -0.86 l
0.46 -0.88 l
0.46 -0.92 l
0.45 -0.95 l
0.46 -0.98 l
0.46 -1.03 l
0.46 -1.05 l
0.46 -1.09 l
0.46 -1.12 l
0.46 -1.17 l
0.45 -1.19 l
0.46 -1.23 l
0.46 -1.25 l
0.46 -1.30 l
0.46 -1.32 l
0.46 -1.34 l
0.46 -1.37 l
0.45 -1.39 l
0.46 -1.42 l
0.46 -1.43 l
0.46 -1.45 l
0.46 -1.46 l
0.46 -1.47 l
0.46 -1.48 l
0.45 -1.48 l
0.46 -1.49 l
0.46 -1.48 l
0.46 -1.48 l
0.46 -1.47 l
0.46 -1.47 l
0.46 -1.45 l
0.45 -1.45 l
0.46 -1.42 l
0.46 -1.40 l
0.46 -1.39 l
0.46 -1.37 l
0.46 -1.34 l
0.46 -1.31 l
0.45 -1.29 l
0.46 -1.26 l
0.46 -1.23 l
0.46 -1.20 l
0.46 -1.16 l
0.46 -1.14 l
0.46 -1.10 l
0.45 -1.07 l
0.46 -1.02 l
0.46 -1.00 l
0.46 -0.95 l
0.46 -0.93 l
0.46 -0.89 l
0.46 -0.84 l
0.45 -0.81 l
0.46 -0.78 l
0.46 -0.74 l
0.46 -0.70 l
0.46 -0.67 l
0.46 -0.63 l
0.46 -0.60 l
0.45 -0.57 l
0.46 -0.53 l
0.46 -0.49 l
0.46 -0.47 l
0.46 -0.44 l
0.46 -0.41 l
0.46 -0.38 l
0.45 -0.35 l
0.46 -0.33 l
0.46 -0.30 l
0.46 -0.28 l
0.46 -0.25 l
0.46 -0.23 l
0.46 -0.22 l
0.45 -0.20 l
0.46 -0.17 l
0.46 -0.16 l
0.46 -0.15 l
0.46 -0.13 l
0.46 -0.12 l
0.46 -0.10 l
0.45 -0.10 l
0.46 -0.08 l
0.46 -0.08 l
0.46 -0.06 l
0.46 -0.06 l
0.46 -0.05 l
0.46 -0.05 l
0.45 -0.04 l
0.46 -0.03 l
0.46 -0.03 l
0.46 -0.03 l
486.39 84.05 lineto
0.46 -0.02 l
0.46 -0.02 l
0.45 -0.01 l
0.46 -0.01 l
0.46 -0.01 l
0.46 -0.01 l
0.46 -0.01 l
0.46 -0.01 l
0.46 0 l
0.45 -0.01 l
0.46 0 l
o
0 0 1 srgb
1.50 setlinewidth
[] 0 setdash
np
86.16 83.96 m
0.22 0.01 l
0.22 0.01 l
0.22 0.01 l
0.21 0.01 l
0.22 0.02 l
0.22 0.02 l
0.22 0.02 l
0.22 0.03 l
0.21 0.03 l
0.22 0.04 l
0.22 0.04 l
0.22 0.05 l
0.22 0.06 l
0.22 0.06 l
0.21 0.08 l
0.22 0.08 l
0.22 0.10 l
0.22 0.11 l
0.22 0.13 l
0.22 0.14 l
0.21 0.16 l
0.22 0.18 l
0.22 0.20 l
0.22 0.23 l
0.22 0.25 l
0.22 0.27 l
0.21 0.31 l
0.22 0.34 l
0.22 0.38 l
0.22 0.40 l
0.22 0.45 l
0.21 0.49 l
0.22 0.53 l
0.22 0.58 l
0.22 0.62 l
0.22 0.67 l
0.22 0.74 l
0.21 0.78 l
0.22 0.84 l
0.22 0.90 l
0.22 0.96 l
0.22 1.02 l
0.22 1.09 l
0.21 1.16 l
0.22 1.21 l
0.22 1.29 l
0.22 1.37 l
0.22 1.44 l
0.22 1.50 l
0.21 1.57 l
0.22 1.66 l
0.22 1.73 l
0.22 1.80 l
0.22 1.88 l
0.21 1.94 l
0.22 2.04 l
0.22 2.11 l
0.22 2.18 l
0.22 2.26 l
0.22 2.32 l
0.21 2.42 l
0.22 2.48 l
0.22 2.56 l
0.22 2.62 l
0.22 2.70 l
0.22 2.78 l
0.21 2.85 l
0.22 2.91 l
0.22 2.98 l
0.22 3.05 l
0.22 3.12 l
0.22 3.18 l
0.21 3.24 l
0.22 3.30 l
0.22 3.35 l
0.22 3.42 l
0.22 3.46 l
0.21 3.50 l
0.22 3.55 l
0.22 3.58 l
0.22 3.62 l
0.22 3.64 l
0.22 3.66 l
0.21 3.67 l
0.22 3.68 l
0.22 3.67 l
0.22 3.67 l
0.22 3.64 l
0.22 3.62 l
0.21 3.58 l
0.22 3.53 l
0.22 3.47 l
0.22 3.41 l
0.22 3.34 l
0.22 3.23 l
0.21 3.14 l
0.22 3.04 l
0.22 2.93 l
0.22 2.82 l
107.99 255.93 lineto
0.22 2.52 l
0.21 2.39 l
0.22 2.24 l
0.22 2.11 l
0.22 1.90 l
0.22 1.76 l
0.21 1.61 l
0.22 1.45 l
0.22 1.30 l
0.22 1.11 l
0.22 0.97 l
0.22 0.82 l
0.21 0.70 l
0.22 0.55 l
0.22 0.40 l
0.22 0.29 l
0.22 0.18 l
0.22 0.09 l
0.21 -0.01 l
0.22 -0.10 l
0.22 -0.17 l
0.22 -0.23 l
0.22 -0.27 l
0.22 -0.32 l
0.21 -0.36 l
0.22 -0.37 l
0.22 -0.39 l
0.22 -0.39 l
0.22 -0.39 l
0.21 -0.39 l
0.22 -0.37 l
0.22 -0.35 l
0.22 -0.33 l
0.22 -0.31 l
0.22 -0.28 l
0.21 -0.26 l
0.22 -0.23 l
0.22 -0.21 l
0.22 -0.18 l
0.22 -0.16 l
0.22 -0.14 l
0.21 -0.13 l
0.22 -0.12 l
0.22 -0.11 l
0.22 -0.11 l
0.22 -0.11 l
0.22 -0.12 l
0.21 -0.13 l
0.22 -0.15 l
0.22 -0.17 l
0.22 -0.20 l
0.22 -0.22 l
0.21 -0.26 l
0.22 -0.30 l
0.22 -0.34 l
0.22 -0.38 l
0.22 -0.42 l
0.22 -0.47 l
0.21 -0.53 l
0.22 -0.58 l
0.22 -0.63 l
0.22 -0.67 l
0.22 -0.73 l
0.22 -0.80 l
0.21 -0.84 l
0.22 -0.89 l
0.22 -0.95 l
0.22 -1.00 l
0.22 -1.05 l
0.22 -1.11 l
0.21 -1.15 l
0.22 -1.20 l
0.22 -1.25 l
0.22 -1.30 l
0.22 -1.34 l
0.21 -1.38 l
0.22 -1.42 l
0.22 -1.46 l
0.22 -1.51 l
0.22 -1.54 l
0.22 -1.56 l
0.21 -1.60 l
0.22 -1.63 l
0.22 -1.65 l
0.22 -1.68 l
0.22 -1.68 l
0.22 -1.71 l
0.21 -1.71 l
0.22 -1.73 l
0.22 -1.72 l
0.22 -1.72 l
0.22 -1.71 l
0.22 -1.70 l
0.21 -1.68 l
0.22 -1.65 l
0.22 -1.64 l
0.22 -1.60 l
0.22 -1.56 l
0.21 -1.51 l
129.81 212.12 lineto
0.22 -1.43 l
0.22 -1.37 l
0.22 -1.31 l
0.22 -1.26 l
0.21 -1.20 l
0.22 -1.14 l
0.22 -1.08 l
0.22 -1.00 l
0.22 -0.96 l
0.22 -0.89 l
0.21 -0.85 l
0.22 -0.78 l
0.22 -0.73 l
0.22 -0.69 l
0.22 -0.65 l
0.22 -0.62 l
0.21 -0.58 l
0.22 -0.55 l
0.22 -0.54 l
0.22 -0.52 l
0.22 -0.52 l
0.21 -0.51 l
0.22 -0.51 l
0.22 -0.53 l
0.22 -0.53 l
0.22 -0.55 l
0.22 -0.58 l
0.21 -0.60 l
0.22 -0.62 l
0.22 -0.65 l
0.22 -0.68 l
0.22 -0.72 l
0.22 -0.75 l
0.21 -0.77 l
0.22 -0.80 l
0.22 -0.83 l
0.22 -0.87 l
0.22 -0.88 l
0.22 -0.90 l
0.21 -0.92 l
0.22 -0.94 l
0.22 -0.95 l
0.22 -0.95 l
0.22 -0.96 l
0.22 -0.97 l
0.21 -0.96 l
0.22 -0.95 l
0.22 -0.95 l
0.22 -0.94 l
0.22 -0.93 l
0.21 -0.91 l
0.22 -0.89 l
0.22 -0.88 l
0.22 -0.86 l
0.22 -0.83 l
0.22 -0.82 l
0.21 -0.79 l
0.22 -0.78 l
0.22 -0.75 l
0.22 -0.74 l
0.22 -0.71 l
0.22 -0.70 l
0.21 -0.67 l
0.22 -0.66 l
0.22 -0.65 l
0.22 -0.63 l
0.22 -0.62 l
0.22 -0.61 l
0.21 -0.60 l
0.22 -0.59 l
0.22 -0.59 l
0.22 -0.58 l
0.22 -0.58 l
0.21 -0.57 l
0.22 -0.58 l
0.22 -0.58 l
0.22 -0.59 l
0.22 -0.58 l
0.22 -0.60 l
0.21 -0.60 l
0.22 -0.61 l
0.22 -0.62 l
0.22 -0.64 l
0.22 -0.64 l
0.22 -0.65 l
0.21 -0.67 l
0.22 -0.69 l
0.22 -0.69 l
0.22 -0.71 l
0.22 -0.72 l
0.22 -0.74 l
0.21 -0.75 l
0.22 -0.76 l
0.22 -0.77 l
0.22 -0.78 l
0.22 -0.80 l
0.21 -0.80 l
0.22 -0.80 l
0.22 -0.82 l
151.64 135.74 lineto
0.22 -0.82 l
0.22 -0.82 l
0.21 -0.82 l
0.22 -0.82 l
0.22 -0.82 l
0.22 -0.80 l
0.22 -0.81 l
0.22 -0.79 l
0.21 -0.79 l
0.22 -0.78 l
0.22 -0.77 l
0.22 -0.75 l
0.22 -0.75 l
0.22 -0.74 l
0.21 -0.72 l
0.22 -0.71 l
0.22 -0.71 l
0.22 -0.69 l
0.22 -0.68 l
0.21 -0.67 l
0.22 -0.67 l
0.22 -0.66 l
0.22 -0.65 l
0.22 -0.64 l
0.22 -0.64 l
0.21 -0.64 l
0.22 -0.63 l
0.22 -0.63 l
0.22 -0.63 l
0.22 -0.63 l
0.22 -0.63 l
0.21 -0.62 l
0.22 -0.63 l
0.22 -0.62 l
0.22 -0.63 l
0.22 -0.62 l
0.22 -0.62 l
0.21 -0.62 l
0.22 -0.62 l
0.22 -0.61 l
0.22 -0.60 l
0.22 -0.61 l
0.21 -0.59 l
0.22 -0.59 l
0.22 -0.57 l
0.22 -0.57 l
0.22 -0.56 l
0.22 -0.54 l
0.21 -0.53 l
0.22 -0.52 l
0.22 -0.50 l
0.22 -0.49 l
0.22 -0.47 l
0.22 -0.46 l
0.21 -0.44 l
0.22 -0.42 l
0.22 -0.41 l
0.22 -0.39 l
0.22 -0.37 l
0.22 -0.36 l
0.21 -0.34 l
0.22 -0.33 l
0.22 -0.31 l
0.22 -0.29 l
0.22 -0.28 l
0.22 -0.27 l
0.21 -0.25 l
0.22 -0.24 l
0.22 -0.23 l
0.22 -0.22 l
0.22 -0.21 l
0.21 -0.19 l
0.22 -0.19 l
0.22 -0.18 l
0.22 -0.17 l
0.22 -0.16 l
0.22 -0.16 l
0.21 -0.15 l
0.22 -0.14 l
0.22 -0.14 l
0.22 -0.13 l
0.22 -0.13 l
0.22 -0.13 l
0.21 -0.13 l
0.22 -0.12 l
0.22 -0.12 l
0.22 -0.12 l
0.22 -0.12 l
0.22 -0.12 l
0.21 -0.12 l
0.22 -0.13 l
0.22 -0.12 l
0.22 -0.13 l
0.22 -0.14 l
0.21 -0.14 l
0.22 -0.14 l
0.22 -0.14 l
0.22 -0.16 l
0.22 -0.16 l
173.47 90.74 lineto
0.21 -0.17 l
0.22 -0.17 l
0.22 -0.18 l
0.22 -0.18 l
0.22 -0.19 l
0.22 -0.20 l
0.21 -0.19 l
0.22 -0.20 l
0.22 -0.21 l
0.22 -0.20 l
0.22 -0.21 l
0.22 -0.21 l
0.21 -0.21 l
0.22 -0.20 l
0.22 -0.21 l
0.22 -0.20 l
0.22 -0.20 l
0.21 -0.20 l
0.22 -0.19 l
0.22 -0.19 l
0.22 -0.18 l
0.22 -0.18 l
0.22 -0.16 l
0.21 -0.16 l
0.22 -0.16 l
0.22 -0.14 l
0.22 -0.14 l
0.22 -0.13 l
0.22 -0.12 l
0.21 -0.11 l
0.22 -0.10 l
0.22 -0.09 l
0.22 -0.09 l
0.22 -0.07 l
0.22 -0.07 l
0.21 -0.06 l
0.22 -0.05 l
0.22 -0.04 l
0.22 -0.04 l
0.22 -0.03 l
0.21 -0.02 l
0.22 -0.02 l
0.22 -0.01 l
0.22 -0.01 l
0.22 -0.01 l
0.22 0 l
0.21 0.01 l
0.22 0 l
0.22 0.01 l
0.22 0.01 l
0.22 0.01 l
0.22 0.01 l
0.21 0.01 l
0.22 0.01 l
0.22 0.01 l
0.22 0.01 l
0.22 0.01 l
0.22 0.01 l
0.21 0 l
0.22 0 l
0.22 0 l
0.22 0 l
0.22 0 l
0.21 -0.01 l
0.22 -0.01 l
0.22 -0.01 l
0.22 -0.02 l
0.22 -0.02 l
0.22 -0.02 l
0.21 -0.02 l
0.22 -0.02 l
0.22 -0.03 l
0.22 -0.02 l
0.22 -0.03 l
0.22 -0.03 l
0.21 -0.03 l
0.22 -0.03 l
0.22 -0.03 l
0.22 -0.03 l
0.22 -0.03 l
0.22 -0.03 l
0.21 -0.03 l
0.22 -0.02 l
0.22 -0.03 l
0.22 -0.03 l
0.22 -0.02 l
0.21 -0.03 l
0.22 -0.02 l
0.22 -0.02 l
0.22 -0.02 l
0.22 -0.02 l
0.22 -0.02 l
0.21 -0.01 l
0.22 -0.02 l
0.22 -0.01 l
0.22 -0.01 l
0.22 -0.02 l
0.22 -0.01 l
0.21 -0.01 l
195.29 83.98 lineto
0.22 -0.01 l
0.22 -0.01 l
0.22 0 l
0.22 -0.01 l
0.21 0 l
0.22 -0.01 l
0.22 0 l
0.22 0 l
0.22 0 l
0.22 -0.01 l
0.21 0 l
o
1.50 setlinewidth
[ 4.50 7.50] 0 setdash
np
311.94 83.93 m
0.36 0.01 l
0.37 0 l
0.37 0 l
0.36 0 l
0.37 0.01 l
0.36 0 l
0.37 0 l
0.37 0.01 l
0.36 0.01 l
0.37 0 l
0.37 0.01 l
0.36 0.01 l
0.37 0.01 l
0.37 0.01 l
0.36 0.01 l
0.37 0.01 l
0.37 0.02 l
0.36 0.01 l
0.37 0.02 l
0.37 0.02 l
0.36 0.02 l
0.37 0.02 l
0.37 0.03 l
0.36 0.02 l
0.37 0.03 l
0.36 0.03 l
0.37 0.04 l
0.37 0.04 l
0.36 0.04 l
0.37 0.04 l
0.37 0.04 l
0.36 0.05 l
0.37 0.05 l
0.37 0.06 l
0.36 0.05 l
0.37 0.06 l
0.37 0.07 l
0.36 0.06 l
0.37 0.07 l
0.37 0.08 l
0.36 0.07 l
0.37 0.08 l
0.36 0.08 l
0.37 0.08 l
0.37 0.09 l
0.36 0.09 l
0.37 0.09 l
0.37 0.09 l
0.36 0.09 l
0.37 0.10 l
0.37 0.10 l
0.36 0.10 l
0.37 0.10 l
0.37 0.10 l
0.36 0.10 l
0.37 0.10 l
0.37 0.11 l
0.36 0.10 l
0.37 0.10 l
0.36 0.11 l
0.37 0.10 l
0.37 0.11 l
0.36 0.10 l
0.37 0.10 l
0.37 0.10 l
0.36 0.11 l
0.37 0.10 l
0.37 0.10 l
0.36 0.10 l
0.37 0.10 l
0.37 0.10 l
0.36 0.10 l
0.37 0.10 l
0.37 0.10 l
0.36 0.09 l
0.37 0.10 l
0.36 0.10 l
0.37 0.10 l
0.37 0.10 l
0.36 0.11 l
0.37 0.10 l
0.37 0.10 l
0.36 0.11 l
0.37 0.10 l
0.37 0.11 l
0.36 0.11 l
0.37 0.12 l
0.37 0.11 l
0.36 0.12 l
0.37 0.12 l
0.37 0.12 l
0.36 0.13 l
0.37 0.13 l
0.36 0.13 l
0.37 0.14 l
0.37 0.14 l
0.36 0.14 l
0.37 0.14 l
0.37 0.15 l
348.58 91.38 lineto
0.37 0.15 l
0.37 0.16 l
0.36 0.17 l
0.37 0.17 l
0.37 0.17 l
0.36 0.17 l
0.37 0.18 l
0.37 0.18 l
0.36 0.18 l
0.37 0.19 l
0.37 0.19 l
0.36 0.19 l
0.37 0.20 l
0.36 0.20 l
0.37 0.20 l
0.37 0.21 l
0.36 0.21 l
0.37 0.21 l
0.37 0.21 l
0.36 0.22 l
0.37 0.22 l
0.37 0.22 l
0.36 0.23 l
0.37 0.23 l
0.37 0.23 l
0.36 0.24 l
0.37 0.24 l
0.37 0.25 l
0.36 0.25 l
0.37 0.26 l
0.36 0.26 l
0.37 0.27 l
0.37 0.28 l
0.36 0.28 l
0.37 0.29 l
0.37 0.30 l
0.36 0.30 l
0.37 0.32 l
0.37 0.32 l
0.36 0.34 l
0.37 0.34 l
0.37 0.36 l
0.36 0.36 l
0.37 0.38 l
0.37 0.39 l
0.36 0.40 l
0.37 0.41 l
0.36 0.43 l
0.37 0.44 l
0.37 0.45 l
0.36 0.46 l
0.37 0.47 l
0.37 0.49 l
0.36 0.50 l
0.37 0.50 l
0.37 0.52 l
0.36 0.53 l
0.37 0.54 l
0.37 0.55 l
0.36 0.55 l
0.37 0.56 l
0.37 0.57 l
0.36 0.57 l
0.37 0.57 l
0.36 0.58 l
0.37 0.57 l
0.37 0.58 l
0.36 0.57 l
0.37 0.57 l
0.37 0.57 l
0.36 0.56 l
0.37 0.55 l
0.37 0.54 l
0.36 0.53 l
0.37 0.52 l
0.37 0.51 l
0.36 0.50 l
0.37 0.48 l
0.37 0.46 l
0.36 0.44 l
0.37 0.43 l
0.36 0.42 l
0.37 0.39 l
0.37 0.37 l
0.36 0.35 l
0.37 0.34 l
0.37 0.31 l
0.36 0.30 l
0.37 0.28 l
0.37 0.26 l
0.36 0.24 l
0.37 0.22 l
0.37 0.21 l
0.36 0.20 l
0.37 0.18 l
0.37 0.16 l
0.36 0.15 l
0.37 0.14 l
0.37 0.14 l
385.23 125.55 lineto
0.37 0.11 l
0.36 0.11 l
0.37 0.10 l
0.37 0.10 l
0.36 0.10 l
0.37 0.09 l
0.37 0.09 l
0.36 0.10 l
0.37 0.09 l
0.37 0.10 l
0.36 0.10 l
0.37 0.11 l
0.37 0.11 l
0.36 0.11 l
0.37 0.12 l
0.37 0.13 l
0.36 0.13 l
0.37 0.14 l
0.36 0.15 l
0.37 0.15 l
0.37 0.16 l
0.36 0.18 l
0.37 0.17 l
0.37 0.19 l
0.36 0.19 l
0.37 0.20 l
0.37 0.21 l
0.36 0.22 l
0.37 0.22 l
0.37 0.23 l
0.36 0.24 l
0.37 0.25 l
0.37 0.25 l
0.36 0.26 l
0.37 0.26 l
0.36 0.27 l
0.37 0.28 l
0.37 0.29 l
0.36 0.29 l
0.37 0.29 l
0.37 0.31 l
0.36 0.31 l
0.37 0.31 l
0.37 0.33 l
0.36 0.32 l
0.37 0.34 l
0.37 0.34 l
0.36 0.35 l
0.37 0.35 l
0.37 0.36 l
0.36 0.37 l
0.37 0.37 l
0.36 0.37 l
0.37 0.39 l
0.37 0.38 l
0.36 0.39 l
0.37 0.40 l
0.37 0.40 l
0.36 0.40 l
0.37 0.40 l
0.37 0.41 l
0.36 0.40 l
0.37 0.41 l
0.37 0.41 l
0.36 0.41 l
0.37 0.40 l
0.37 0.41 l
0.36 0.40 l
0.37 0.40 l
0.36 0.39 l
0.37 0.39 l
0.37 0.39 l
0.36 0.38 l
0.37 0.38 l
0.37 0.38 l
0.36 0.37 l
0.37 0.36 l
0.37 0.36 l
0.36 0.36 l
0.37 0.35 l
0.37 0.36 l
0.36 0.35 l
0.37 0.35 l
0.37 0.35 l
0.36 0.35 l
0.37 0.36 l
0.37 0.36 l
0.36 0.36 l
0.37 0.37 l
0.36 0.38 l
0.37 0.39 l
0.37 0.39 l
0.36 0.41 l
0.37 0.42 l
0.37 0.43 l
0.36 0.44 l
0.37 0.46 l
0.37 0.47 l
0.36 0.49 l
421.88 155.39 lineto
0.37 0.52 l
0.36 0.53 l
0.37 0.55 l
0.37 0.56 l
0.36 0.58 l
0.37 0.58 l
0.36 0.60 l
0.37 0.61 l
0.37 0.62 l
0.36 0.63 l
0.37 0.62 l
0.37 0.64 l
0.36 0.63 l
0.37 0.63 l
0.37 0.62 l
0.36 0.63 l
0.37 0.61 l
0.37 0.60 l
0.36 0.58 l
0.37 0.58 l
0.37 0.55 l
0.36 0.54 l
0.37 0.51 l
0.36 0.49 l
0.37 0.47 l
0.37 0.43 l
0.36 0.41 l
0.37 0.38 l
0.37 0.35 l
0.36 0.32 l
0.37 0.29 l
0.37 0.25 l
0.36 0.23 l
0.37 0.20 l
0.37 0.17 l
0.36 0.14 l
0.37 0.12 l
0.37 0.09 l
0.36 0.06 l
0.37 0.04 l
0.36 0.03 l
0.37 0.01 l
0.37 -0.01 l
0.36 -0.02 l
0.37 -0.03 l
0.37 -0.03 l
0.36 -0.04 l
0.37 -0.04 l
0.37 -0.04 l
0.36 -0.04 l
0.37 -0.03 l
0.37 -0.02 l
0.36 0 l
0.37 0 l
0.37 0.02 l
0.36 0.03 l
0.37 0.06 l
0.36 0.07 l
0.37 0.09 l
0.37 0.12 l
0.36 0.14 l
0.37 0.16 l
0.37 0.18 l
0.36 0.21 l
0.37 0.23 l
0.37 0.25 l
0.36 0.27 l
0.37 0.29 l
0.37 0.32 l
0.36 0.33 l
0.37 0.34 l
0.37 0.35 l
0.36 0.37 l
0.37 0.37 l
0.37 0.39 l
0.36 0.38 l
0.37 0.38 l
0.36 0.39 l
0.37 0.37 l
0.37 0.37 l
0.36 0.35 l
0.37 0.34 l
0.37 0.31 l
0.36 0.29 l
0.37 0.27 l
0.37 0.24 l
0.36 0.20 l
0.37 0.16 l
0.37 0.12 l
0.36 0.08 l
0.37 0.02 l
0.37 -0.03 l
0.36 -0.08 l
0.37 -0.13 l
0.36 -0.20 l
0.37 -0.27 l
0.37 -0.32 l
0.36 -0.39 l
0.37 -0.46 l
458.53 179.53 lineto
0.36 -0.60 l
0.37 -0.68 l
0.37 -0.73 l
0.36 -0.83 l
0.37 -0.90 l
0.37 -0.96 l
0.36 -1.03 l
0.37 -1.10 l
0.37 -1.18 l
0.36 -1.24 l
0.37 -1.29 l
0.36 -1.36 l
0.37 -1.43 l
0.37 -1.48 l
0.36 -1.52 l
0.37 -1.57 l
0.37 -1.63 l
0.36 -1.67 l
0.37 -1.71 l
0.37 -1.73 l
0.36 -1.77 l
0.37 -1.80 l
0.37 -1.82 l
0.36 -1.83 l
0.37 -1.85 l
0.37 -1.87 l
0.36 -1.86 l
0.37 -1.87 l
0.36 -1.87 l
0.37 -1.86 l
0.37 -1.86 l
0.36 -1.84 l
0.37 -1.83 l
0.37 -1.80 l
0.36 -1.79 l
0.37 -1.76 l
0.37 -1.74 l
0.36 -1.71 l
0.37 -1.67 l
0.37 -1.65 l
0.36 -1.61 l
0.37 -1.57 l
0.37 -1.53 l
0.36 -1.49 l
0.37 -1.46 l
0.36 -1.41 l
0.37 -1.37 l
0.37 -1.32 l
0.36 -1.28 l
0.37 -1.24 l
0.37 -1.20 l
0.36 -1.14 l
0.37 -1.10 l
0.37 -1.06 l
0.36 -1.02 l
0.37 -0.96 l
0.37 -0.93 l
0.36 -0.88 l
0.37 -0.85 l
0.37 -0.80 l
0.36 -0.75 l
0.37 -0.72 l
0.37 -0.69 l
0.36 -0.64 l
0.37 -0.60 l
0.36 -0.57 l
0.37 -0.54 l
0.37 -0.51 l
0.36 -0.46 l
0.37 -0.44 l
0.37 -0.41 l
0.36 -0.39 l
0.37 -0.35 l
0.37 -0.33 l
0.36 -0.30 l
0.37 -0.29 l
0.37 -0.26 l
0.36 -0.23 l
0.37 -0.22 l
0.37 -0.20 l
0.36 -0.19 l
0.37 -0.17 l
0.36 -0.15 l
0.37 -0.14 l
0.37 -0.12 l
0.36 -0.12 l
0.37 -0.10 l
0.37 -0.09 l
0.36 -0.09 l
0.37 -0.07 l
0.37 -0.07 l
0.36 -0.06 l
0.37 -0.05 l
0.37 -0.05 l
0.36 -0.04 l
0.37 -0.04 l
0.37 -0.03 l
0.36 -0.03 l
0.37 -0.03 l
495.17 84.06 lineto
0.37 -0.02 l
0.37 -0.01 l
0.36 -0.02 l
0.37 -0.01 l
0.37 -0.01 l
0.36 -0.01 l
0.37 -0.01 l
0.37 -0.01 l
0.36 0 l
0.37 -0.01 l
0.37 0 l
o
0.00 0.00 579.75 415.50 cl
/Font2 findfont 14 s
0 0 0 srgb
304.27 380.95 (Gammtratten) .5 0 t
59.04 73.44 549.51 356.46 cl
/bg { 1 1 1 srgb } def
0 0 0 srgb
0.75 setlinewidth
[] 0 setdash
1 setlinecap
1 setlinejoin
10.00 setmiterlimit
329.50 302.30 87.63 -34.56 r p3
np
338.14 290.78 m
17.28 0 l
o
0.75 setlinewidth
[ 2.25 3.75] 0 setdash
np
338.14 279.26 m
17.28 0 l
o
/Font1 findfont 10 s
364.06 287.19 (T) 0 ta
-1.200 (ur) tb
0.250 (no) tb
-0.150 (v) tb
-0.250 (er) tb gr
364.06 275.67 (Nestedness) 0 0 t
0.75 setlinewidth
[] 0 setdash
329.50 258.63 59.88 -57.60 r p3
0.6000 0.6000 0.6000 srgb
np
338.14 247.11 m
17.28 0 l
o
1 0 0 srgb
np
338.14 235.59 m
17.28 0 l
o
0 1 0 srgb
np
338.14 224.07 m
17.28 0 l
o
0 0 1 srgb
np
338.14 212.55 m
17.28 0 l
o
0 0 0 srgb
364.06 243.52 (2000) 0 0 t
364.06 232.00 (2005) 0 0 t
364.06 220.48 (2010) 0 0 t
364.06 208.96 (2015) 0 0 t
ep
%%Trailer
%%Pages: 1
%%EOF
